rawdata/T0002CH1.CSV

Model,DPO2002B
Firmware Version,1.52

Point Format,Y,
Horizontal Units,S,
Horizontal Scale,0.001,
Sample Interval,1.92012e-06,
Filter Frequency,290000,
Record Length,5207,
Gating,0.0% to 100.0%,
Probe Attenuation,10,
Vertical Units,V,
Vertical Offset,0,
Vertical Scale,2,
Label,,
TIME,CH1,CH1 Peak Detect
-6.200e-04,-4.44,-4.52
-6.181e-04,-4.36,-4.2
-6.162e-04,-4.36,-4.44
-6.142e-04,-4.28,-4.04
-6.123e-04,-4.2,-4.28
-6.104e-04,-4.2,-4.04
-6.085e-04,-4.12,-4.28
-6.066e-04,-4.2,-4.04
-6.046e-04,-4.12,-4.36
-6.027e-04,-4.2,-4.04
-6.008e-04,-4.28,-4.84
-5.989e-04,-4.44,-4.28
-5.970e-04,-4.68,-4.92
-5.950e-04,-4.76,-4.6
-5.931e-04,-4.76,-4.76
-5.912e-04,-4.6,-4.28
-5.893e-04,-4.44,-4.52
-5.874e-04,-4.36,-4.28
-5.854e-04,-4.44,-4.68
-5.835e-04,-4.44,-4.28
-5.816e-04,-4.52,-4.68
-5.797e-04,-4.52,-4.28
-5.778e-04,-4.36,-4.6
-5.758e-04,-4.44,-4.28
-5.739e-04,-4.52,-4.76
-5.720e-04,-4.6,-4.44
-5.701e-04,-4.6,-4.68
-5.682e-04,-4.6,-4.44
-5.662e-04,-4.6,-4.84
-5.643e-04,-4.6,-4.52
-5.624e-04,-4.68,-4.84
-5.605e-04,-4.68,-4.44
-5.586e-04,-4.6,-4.6
-5.566e-04,-4.36,-4.04
-5.547e-04,-4.2,-4.52
-5.528e-04,-4.2,-4.12
-5.509e-04,-4.36,-4.92
-5.490e-04,-4.6,-4.36
-5.470e-04,-4.76,-4.92
-5.451e-04,-4.76,-4.68
-5.432e-04,-4.76,-4.76
-5.413e-04,-4.68,-4.36
-5.394e-04,-4.44,-4.52
-5.374e-04,-4.36,-4.2
-5.355e-04,-4.28,-4.52
-5.336e-04,-4.36,-4.2
-5.317e-04,-4.44,-4.44
-5.298e-04,-4.36,-4.2
-5.278e-04,-4.36,-4.84
-5.259e-04,-4.52,-4.28
-5.240e-04,-4.76,-5
-5.221e-04,-4.84,-4.6
-5.202e-04,-4.76,-4.76
-5.182e-04,-4.52,-4.12
-5.163e-04,-4.36,-4.36
-5.144e-04,-4.2,-3.96
-5.125e-04,-4.04,-4.2
-5.106e-04,-4.04,-3.96
-5.086e-04,-4.12,-4.44
-5.067e-04,-4.2,-4.04
-5.048e-04,-4.28,-4.44
-5.029e-04,-4.28,-4.04
-5.010e-04,-4.2,-4.36
-4.990e-04,-4.12,-4.04
-4.971e-04,-4.2,-4.44
-4.952e-04,-4.28,-4.12
-4.933e-04,-4.28,-4.36
-4.914e-04,-4.2,-4.12
-4.894e-04,-4.2,-4.28
-4.875e-04,-4.12,-3.96
-4.856e-04,-4.12,-4.2
-4.837e-04,-4.04,-3.88
-4.818e-04,-3.96,-4.28
-4.798e-04,-4.04,-3.88
-4.779e-04,-4.12,-4.44
-4.760e-04,-4.28,-4.04
-4.741e-04,-4.36,-4.44
-4.722e-04,-4.28,-3.96
-4.702e-04,-4.04,-4.12
-4.683e-04,-3.96,-3.72
-4.664e-04,-3.88,-4.04
-4.645e-04,-3.88,-3.72
-4.625e-04,-3.96,-4.28
-4.606e-04,-4.04,-3.88
-4.587e-04,-4.12,-4.2
-4.568e-04,-4.12,-3.96
-4.549e-04,-4.04,-4.28
-4.529e-04,-4.12,-3.96
-4.510e-04,-4.2,-4.44
-4.491e-04,-4.28,-4.12
-4.472e-04,-4.36,-4.6
-4.453e-04,-4.44,-4.28
-4.433e-04,-4.44,-4.68
-4.414e-04,-4.52,-4.36
-4.395e-04,-4.52,-4.52
-4.376e-04,-4.36,-4.04
-4.357e-04,-4.12,-4.12
-4.337e-04,-3.88,-3.72
-4.318e-04,-3.88,-4.2
-4.299e-04,-3.88,-3.72
-4.280e-04,-4.12,-4.52
-4.261e-04,-4.36,-4.04
-4.241e-04,-4.44,-4.6
-4.222e-04,-4.52,-4.36
-4.203e-04,-4.52,-4.6
-4.184e-04,-4.52,-4.28
-4.165e-04,-4.36,-4.52
-4.145e-04,-4.36,-4.28
-4.126e-04,-4.36,-4.6
-4.107e-04,-4.36,-4.2
-4.088e-04,-4.44,-4.68
-4.069e-04,-4.52,-4.44
-4.049e-04,-4.6,-4.76
-4.030e-04,-4.6,-4.36
-4.011e-04,-4.52,-4.68
-3.992e-04,-4.52,-4.44
-3.973e-04,-4.6,-4.84
-3.953e-04,-4.68,-4.52
-3.934e-04,-4.68,-4.84
-3.915e-04,-4.76,-4.6
-3.896e-04,-4.76,-4.92
-3.877e-04,-4.76,-4.68
-3.857e-04,-4.76,-4.92
-3.838e-04,-4.76,-4.6
-3.819e-04,-4.76,-4.76
-3.800e-04,-4.68,-4.36
-3.781e-04,-4.44,-4.52
-3.761e-04,-4.36,-4.2
-3.742e-04,-4.36,-4.68
-3.723e-04,-4.52,-4.28
-3.704e-04,-4.6,-4.84
-3.685e-04,-4.6,-4.44
-3.665e-04,-4.68,-4.84
-3.646e-04,-4.76,-4.6
-3.627e-04,-4.76,-5
-3.608e-04,-4.84,-4.68
-3.589e-04,-4.92,-5
-3.569e-04,-4.92,-4.76
-3.550e-04,-4.92,-5
-3.531e-04,-4.84,-4.76
-3.512e-04,-4.84,-5
-3.493e-04,-4.84,-4.68
-3.473e-04,-4.84,-5
-3.454e-04,-4.84,-4.6
-3.435e-04,-4.76,-4.76
-3.416e-04,-4.68,-4.36
-3.397e-04,-4.52,-4.6
-3.377e-04,-4.44,-4.28
-3.358e-04,-4.44,-4.52
-3.339e-04,-4.44,-4.2
-3.320e-04,-4.36,-4.6
-3.301e-04,-4.36,-4.2
-3.281e-04,-4.52,-4.84
-3.262e-04,-4.6,-4.44
-3.243e-04,-4.68,-4.76
-3.224e-04,-4.6,-4.36
-3.205e-04,-4.52,-4.6
-3.185e-04,-4.44,-4.2
-3.166e-04,-4.36,-4.52
-3.147e-04,-4.36,-4.2
-3.128e-04,-4.36,-4.44
-3.109e-04,-4.28,-4.12
-3.089e-04,-4.2,-4.28
-3.070e-04,-4.12,-4.04
-3.051e-04,-4.2,-4.44
-3.032e-04,-4.28,-4.2
-3.013e-04,-4.28,-4.44
-2.993e-04,-4.28,-4.2
-2.974e-04,-4.36,-4.44
-2.955e-04,-4.28,-4.04
-2.936e-04,-4.12,-4.28
-2.917e-04,-4.12,-3.96
-2.897e-04,-4.12,-4.52
-2.878e-04,-4.2,-4.04
-2.859e-04,-4.36,-4.6
-2.840e-04,-4.44,-4.36
-2.821e-04,-4.44,-4.52
-2.801e-04,-4.36,-4.2
-2.782e-04,-4.36,-4.36
-2.763e-04,-4.28,-4.12
-2.744e-04,-4.28,-4.44
-2.725e-04,-4.28,-4.04
-2.705e-04,-4.2,-4.2
-2.686e-04,-4.04,-3.88
-2.667e-04,-4.12,-4.36
-2.648e-04,-4.2,-4.04
-2.629e-04,-4.12,-4.44
-2.609e-04,-4.2,-4.04
-2.590e-04,-4.36,-4.84
-2.571e-04,-4.52,-4.28
-2.552e-04,-4.68,-5.08
-2.533e-04,-4.92,-4.76
-2.513e-04,-4.92,-5
-2.494e-04,-4.76,-4.52
-2.475e-04,-4.6,-4.68
-2.456e-04,-4.52,-4.36
-2.437e-04,-4.44,-4.6
-2.417e-04,-4.52,-4.28
-2.398e-04,-4.44,-4.44
-2.379e-04,-4.28,-4.12
-2.360e-04,-4.2,-4.44
-2.341e-04,-4.28,-4.12
-2.321e-04,-4.36,-4.44
-2.302e-04,-4.28,-4.2
-2.283e-04,-4.28,-4.36
-2.264e-04,-4.28,-4.04
-2.245e-04,-4.12,-4.2
-2.225e-04,-4.04,-3.96
-2.206e-04,-4.12,-4.68
-2.187e-04,-4.28,-4.04
-2.168e-04,-4.52,-4.68
-2.149e-04,-4.6,-4.44
-2.129e-04,-4.52,-4.6
-2.110e-04,-4.44,-4.28
-2.091e-04,-4.36,-4.68
-2.072e-04,-4.44,-4.28
-2.053e-04,-4.52,-4.76
-2.033e-04,-4.68,-4.52
-2.014e-04,-4.68,-4.84
-1.995e-04,-4.68,-4.6
-1.976e-04,-4.68,-4.76
-1.957e-04,-4.68,-4.44
-1.937e-04,-4.52,-4.68
-1.918e-04,-4.52,-4.44
-1.899e-04,-4.52,-4.68
-1.880e-04,-4.52,-4.36
-1.861e-04,-4.52,-4.68
-1.841e-04,-4.52,-4.36
-1.822e-04,-4.44,-4.52
-1.803e-04,-4.36,-4.12
-1.784e-04,-4.2,-4.36
-1.765e-04,-4.2,-3.96
-1.745e-04,-4.12,-4.28
-1.726e-04,-4.2,-4.04
-1.707e-04,-4.2,-4.36
-1.688e-04,-4.28,-4.04
-1.669e-04,-4.2,-4.28
-1.649e-04,-4.04,-3.96
-1.630e-04,-4.04,-4.12
-1.611e-04,-3.96,-3.88
-1.592e-04,-4.04,-4.2
-1.573e-04,-4.04,-3.88
-1.553e-04,-3.96,-4.2
-1.534e-04,-4.04,-3.96
-1.515e-04,-4.04,-4.2
-1.496e-04,-4.12,-3.96
-1.476e-04,-4.12,-4.44
-1.457e-04,-4.2,-4.04
-1.438e-04,-4.28,-4.52
-1.419e-04,-4.36,-4.2
-1.400e-04,-4.36,-4.6
-1.380e-04,-4.44,-4.28
-1.361e-04,-4.44,-4.52
-1.342e-04,-4.36,-4.12
-1.323e-04,-4.2,-4.28
-1.304e-04,-4.12,-3.8
-1.284e-04,-3.96,-4.2
-1.265e-04,-3.96,-3.8
-1.246e-04,-4.04,-4.52
-1.227e-04,-4.28,-4.04
-1.208e-04,-4.44,-4.52
-1.188e-04,-4.44,-4.12
-1.169e-04,-4.28,-4.28
-1.150e-04,-4.2,-4.04
-1.131e-04,-4.12,-4.36
-1.112e-04,-4.2,-4.04
-1.092e-04,-4.28,-4.36
-1.073e-04,-4.28,-4.04
-1.054e-04,-4.2,-4.28
-1.035e-04,-4.12,-3.88
-1.016e-04,-3.96,-4.12
-9.965e-05,-3.88,-3.8
-9.773e-05,-4.04,-4.36
-9.581e-05,-4.12,-3.96
-9.389e-05,-4.2,-4.52
-9.197e-05,-4.36,-4.2
-9.005e-05,-4.36,-4.44
-8.813e-05,-4.2,-4.12
-8.621e-05,-4.2,-4.52
-8.429e-05,-4.2,-4.12
-8.237e-05,-4.36,-4.52
-8.045e-05,-4.44,-4.28
-7.853e-05,-4.36,-4.68
-7.660e-05,-4.52,-4.28
-7.468e-05,-4.6,-4.84
-7.276e-05,-4.68,-4.52
-7.084e-05,-4.6,-4.76
-6.892e-05,-4.6,-4.44
-6.700e-05,-4.68,-4.92
-6.508e-05,-4.76,-4.6
-6.316e-05,-4.84,-4.92
-6.124e-05,-4.68,-4.44
-5.932e-05,-4.52,-4.6
-5.740e-05,-4.44,-4.28
-5.548e-05,-4.44,-4.68
-5.356e-05,-4.44,-4.28
-5.164e-05,-4.6,-4.84
-4.972e-05,-4.68,-4.52
-4.780e-05,-4.68,-4.76
-4.588e-05,-4.52,-4.44
-4.396e-05,-4.52,-4.68
-4.204e-05,-4.52,-4.36
-4.012e-05,-4.52,-4.84
-3.820e-05,-4.68,-4.44
-3.628e-05,-4.68,-4.76
-3.436e-05,-4.68,-4.44
-3.244e-05,-4.52,-4.6
-3.052e-05,-4.44,-4.28
-2.860e-05,-4.36,-4.44
-2.668e-05,-4.36,-4.28
-2.476e-05,-4.36,-4.44
-2.284e-05,-4.28,-4.12
-2.092e-05,-4.28,-4.36
-1.900e-05,-4.28,-4.12
-1.708e-05,-4.28,-4.36
-1.516e-05,-4.28,-4.12
-1.324e-05,-4.28,-4.44
-1.132e-05,-4.28,-4.12
-9.401e-06,-4.28,-4.52
-7.481e-06,-4.44,-4.2
-5.560e-06,-4.44,-4.44
-3.640e-06,-4.36,-4.2
-1.720e-06,-4.36,-4.44
1.999e-07,-4.28,-4.2
2.120e-06,-4.36,-4.6
4.040e-06,-4.44,-4.28
5.960e-06,-4.52,-5.96
7.880e-06,-4.68,-4.36
9.801e-06,-5.56,-15.16
1.172e-05,-10.6,-5.48
1.364e-05,-15.16,-15.16
1.556e-05,-15.16,-15.16
1.748e-05,-15.16,-15.16
1.940e-05,-15.16,-15.16
2.132e-05,-15.16,-15.16
2.324e-05,-15.16,-15.16
2.516e-05,-15.16,-15.16
2.708e-05,-15.16,-15.16
2.900e-05,-15.16,-15.16
3.092e-05,-15.16,-15.16
3.284e-05,-15.16,-15.16
3.476e-05,-15.16,-15.16
3.668e-05,-15.16,-15.16
3.860e-05,-15.16,-15.16
4.052e-05,-15.16,-15.16
4.244e-05,-15.16,-15.16
4.436e-05,-15.16,-15.16
4.628e-05,-15.16,-15.16
4.820e-05,-15.16,-15.16
5.012e-05,-15.16,-11.48
5.204e-05,-13.56,-11.48
5.396e-05,4.76,5.16
5.588e-05,5.16,-4.2
5.780e-05,5.16,5.16
5.972e-05,0.12,-15.16
6.164e-05,-11.24,-4.12
6.356e-05,-15.08,-15.16
6.548e-05,-14.36,-10.6
6.740e-05,-11.56,-10.68
6.932e-05,-9,-7.24
7.124e-05,-7.56,-7.48
7.316e-05,-7.16,-7.08
7.508e-05,-7.32,-8.28
7.700e-05,-7.8,-7.4
7.892e-05,-8.12,-8.36
8.085e-05,-8.2,-7.96
8.277e-05,-8.04,-8.12
8.469e-05,-7.88,-7.48
8.661e-05,-7.64,-7.8
8.853e-05,-7.64,-7.48
9.045e-05,-7.72,-8.04
9.237e-05,-7.72,-7.56
9.429e-05,-7.96,-8.12
9.621e-05,-8.04,-7.96
9.813e-05,-8.04,-8.2
1.000e-04,-8.04,-7.96
1.020e-04,-8.12,-8.44
1.039e-04,-8.2,-8.04
1.058e-04,-8.36,-8.52
1.077e-04,-8.44,-8.28
1.096e-04,-8.44,-8.6
1.116e-04,-8.52,-8.36
1.135e-04,-8.52,-8.6
1.154e-04,-8.52,-8.2
1.173e-04,-8.36,-8.28
1.192e-04,-8.04,-7.72
1.212e-04,-7.88,-7.8
1.231e-04,-7.64,-7.56
1.250e-04,-7.64,-8.2
1.269e-04,-7.8,-7.64
1.288e-04,-8.04,-8.52
1.308e-04,-8.36,-8.12
1.327e-04,-8.44,-8.52
1.346e-04,-8.36,-8.28
1.365e-04,-8.36,-8.44
1.384e-04,-8.28,-8.12
1.404e-04,-8.2,-8.28
1.423e-04,-8.12,-7.8
1.442e-04,-7.96,-7.96
1.461e-04,-7.72,-7.64
1.480e-04,-7.72,-8.04
1.500e-04,-7.8,-7.64
1.519e-04,-7.96,-8.2
1.538e-04,-8.04,-7.96
1.557e-04,-8.04,-8.2
1.577e-04,-8.04,-7.96
1.596e-04,-8.04,-8.12
1.615e-04,-7.96,-7.88
1.634e-04,-7.96,-8.2
1.653e-04,-8.04,-7.88
1.673e-04,-8.12,-8.2
1.692e-04,-8.12,-7.96
1.711e-04,-8.04,-8.12
1.730e-04,-7.96,-7.88
1.749e-04,-7.96,-8.04
1.769e-04,-7.96,-7.72
1.788e-04,-7.8,-8.04
1.807e-04,-7.8,-7.72
1.826e-04,-7.88,-7.96
1.845e-04,-7.88,-7.72
1.865e-04,-7.88,-8.12
1.884e-04,-7.88,-7.72
1.903e-04,-8.04,-8.12
1.922e-04,-8.04,-7.88
1.941e-04,-7.96,-8.04
1.961e-04,-7.88,-7.64
1.980e-04,-7.8,-8.04
1.999e-04,-7.8,-7.72
2.018e-04,-7.96,-8.2
2.037e-04,-8.12,-7.88
2.057e-04,-8.12,-8.2
2.076e-04,-8.04,-7.72
2.095e-04,-7.8,-7.8
2.114e-04,-7.64,-7.48
2.133e-04,-7.56,-7.72
2.153e-04,-7.48,-7.4
2.172e-04,-7.64,-8.04
2.191e-04,-7.8,-7.56
2.210e-04,-7.88,-8.04
2.229e-04,-7.96,-7.8
2.249e-04,-7.88,-8.04
2.268e-04,-7.96,-7.8
2.287e-04,-7.88,-8.2
2.306e-04,-8.04,-7.88
2.325e-04,-8.12,-8.2
2.345e-04,-8.12,-7.96
2.364e-04,-8.04,-8.12
2.383e-04,-8.04,-7.96
2.402e-04,-8.04,-8.12
2.421e-04,-8.04,-7.88
2.441e-04,-8.04,-8.28
2.460e-04,-8.12,-8.04
2.479e-04,-8.2,-8.36
2.498e-04,-8.2,-7.96
2.517e-04,-8.04,-8.04
2.537e-04,-7.88,-7.72
2.556e-04,-7.8,-7.88
2.575e-04,-7.72,-7.64
2.594e-04,-7.72,-8.04
2.613e-04,-7.8,-7.64
2.633e-04,-7.96,-8.28
2.652e-04,-8.04,-7.88
2.671e-04,-8.2,-8.28
2.690e-04,-8.12,-7.96
2.709e-04,-8.04,-8.04
2.729e-04,-7.88,-7.72
2.748e-04,-7.88,-8.12
2.767e-04,-7.96,-7.8
2.786e-04,-7.96,-8.04
2.805e-04,-7.96,-7.8
2.825e-04,-7.88,-8.04
2.844e-04,-7.88,-7.8
2.863e-04,-7.96,-8.2
2.882e-04,-7.96,-7.88
2.901e-04,-8.12,-8.2
2.921e-04,-8.04,-7.72
2.940e-04,-7.88,-7.88
2.959e-04,-7.8,-7.64
2.978e-04,-7.72,-7.72
2.997e-04,-7.64,-7.48
3.017e-04,-7.56,-7.64
3.036e-04,-7.56,-7.48
3.055e-04,-7.56,-7.8
3.074e-04,-7.64,-7.48
3.093e-04,-7.72,-7.88
3.113e-04,-7.64,-7.56
3.132e-04,-7.72,-7.8
3.151e-04,-7.72,-7.64
3.170e-04,-7.72,-7.88
3.189e-04,-7.72,-7.64
3.209e-04,-7.8,-8.12
3.228e-04,-7.88,-7.72
3.247e-04,-8.04,-8.12
3.266e-04,-8.04,-7.88
3.285e-04,-8.04,-8.04
3.305e-04,-7.88,-7.64
3.324e-04,-7.72,-7.72
3.343e-04,-7.64,-7.4
3.362e-04,-7.48,-7.96
3.381e-04,-7.64,-7.48
3.401e-04,-7.8,-8.04
3.420e-04,-7.96,-7.8
3.439e-04,-7.96,-7.96
3.458e-04,-7.8,-7.48
3.477e-04,-7.64,-7.64
3.497e-04,-7.48,-7.4
3.516e-04,-7.56,-7.8
3.535e-04,-7.64,-7.56
3.554e-04,-7.72,-7.88
3.573e-04,-7.72,-7.64
3.593e-04,-7.8,-7.88
3.612e-04,-7.72,-7.56
3.631e-04,-7.72,-7.72
3.650e-04,-7.64,-7.24
3.669e-04,-7.4,-7.4
3.689e-04,-7.24,-7.16
3.708e-04,-7.24,-7.48
3.727e-04,-7.24,-7.16
3.746e-04,-7.32,-7.64
3.765e-04,-7.4,-7.32
3.785e-04,-7.56,-7.72
3.804e-04,-7.56,-7.48
3.823e-04,-7.64,-7.88
3.842e-04,-7.72,-7.56
3.861e-04,-7.72,-7.88
3.881e-04,-7.8,-7.72
3.900e-04,-7.8,-7.88
3.919e-04,-7.64,-7.32
3.938e-04,-7.48,-7.48
3.957e-04,-7.32,-7.16
3.977e-04,-7.32,-7.56
3.996e-04,-7.48,-7.32
4.015e-04,-7.48,-7.64
4.034e-04,-7.56,-7.4
4.053e-04,-7.56,-7.72
4.073e-04,-7.64,-7.48
4.092e-04,-7.56,-7.64
4.111e-04,-7.56,-7.4
4.130e-04,-7.48,-7.64
4.149e-04,-7.48,-7.4
4.169e-04,-7.48,-7.72
4.188e-04,-7.56,-7.48
4.207e-04,-7.64,-7.72
4.226e-04,-7.56,-7.48
4.245e-04,-7.64,-7.8
4.265e-04,-7.64,-7.48
4.284e-04,-7.64,-7.64
4.303e-04,-7.56,-7.48
4.322e-04,-7.56,-7.64
4.341e-04,-7.56,-7.32
4.361e-04,-7.48,-7.48
4.380e-04,-7.32,-7.16
4.399e-04,-7.24,-7.48
4.418e-04,-7.24,-7.16
4.437e-04,-7.32,-7.48
4.457e-04,-7.4,-7.24
4.476e-04,-7.4,-7.64
4.495e-04,-7.48,-7.4
4.514e-04,-7.56,-7.64
4.533e-04,-7.48,-7.24
4.553e-04,-7.32,-7.56
4.572e-04,-7.48,-7.32
4.591e-04,-7.4,-7.64
4.610e-04,-7.48,-7.4
4.629e-04,-7.48,-7.64
4.649e-04,-7.56,-7.48
4.668e-04,-7.56,-7.64
4.687e-04,-7.48,-7.24
4.706e-04,-7.4,-7.56
4.726e-04,-7.4,-7.32
4.745e-04,-7.48,-7.64
4.764e-04,-7.56,-7.32
4.783e-04,-7.4,-7.48
4.802e-04,-7.4,-7.24
4.822e-04,-7.32,-7.4
4.841e-04,-7.24,-7.16
4.860e-04,-7.24,-7.32
4.879e-04,-7.16,-7.08
4.898e-04,-7.24,-7.4
4.918e-04,-7.32,-7.16
4.937e-04,-7.32,-7.32
4.956e-04,-7.24,-7.08
4.975e-04,-7.16,-7.16
4.994e-04,-7.08,-6.92
5.014e-04,-7.08,-7.32
5.033e-04,-7.08,-7
5.052e-04,-7.24,-7.48
5.071e-04,-7.32,-7.24
5.090e-04,-7.32,-7.48
5.110e-04,-7.4,-7.24
5.129e-04,-7.32,-7.4
5.148e-04,-7.24,-7
5.167e-04,-7.16,-7.16
5.186e-04,-7,-6.92
5.206e-04,-7.08,-7.56
5.225e-04,-7.24,-7.08
5.244e-04,-7.48,-7.72
5.263e-04,-7.64,-7.48
5.282e-04,-7.56,-7.64
5.302e-04,-7.4,-7
5.321e-04,-7.16,-7.16
5.340e-04,-7.08,-6.84
5.359e-04,-7,-7.24
5.378e-04,-7,-6.92
5.398e-04,-7.16,-7.24
5.417e-04,-7.16,-7.08
5.436e-04,-7.16,-7.16
5.455e-04,-7,-6.84
5.474e-04,-6.92,-7.08
5.494e-04,-6.92,-6.84
5.513e-04,-7,-7.32
5.532e-04,-7.08,-6.92
5.551e-04,-7.24,-7.4
5.570e-04,-7.32,-7.16
5.590e-04,-7.32,-7.56
5.609e-04,-7.4,-7.24
5.628e-04,-7.48,-7.48
5.647e-04,-7.4,-7.08
5.666e-04,-7.24,-7.24
5.686e-04,-7.08,-7
5.705e-04,-7.08,-7.32
5.724e-04,-7.16,-7
5.743e-04,-7.24,-7.32
5.762e-04,-7.16,-6.84
5.782e-04,-7,-7.16
5.801e-04,-6.92,-6.84
5.820e-04,-7.08,-7.24
5.839e-04,-7.08,-7
5.858e-04,-7.16,-7.32
5.878e-04,-7.16,-7
5.897e-04,-7.08,-7.16
5.916e-04,-7,-6.92
5.935e-04,-7.08,-7.16
5.954e-04,-7,-6.92
5.974e-04,-7.08,-7.08
5.993e-04,-7,-6.76
6.012e-04,-6.84,-6.92
6.031e-04,-6.84,-6.68
6.050e-04,-6.76,-7.08
6.070e-04,-6.76,-6.68
6.089e-04,-6.92,-7.32
6.108e-04,-7.16,-6.92
6.127e-04,-7.16,-7.24
6.146e-04,-7.08,-7
6.166e-04,-7.08,-7.16
6.185e-04,-7.08,-7
6.204e-04,-7.16,-7.24
6.223e-04,-7.16,-7
6.242e-04,-7.16,-7.16
6.262e-04,-7,-6.92
6.281e-04,-7,-7.16
6.300e-04,-7,-6.92
6.319e-04,-7,-7.16
6.338e-04,-7.08,-6.92
6.358e-04,-7.08,-7.16
6.377e-04,-7,-6.92
6.396e-04,-7.08,-7.32
6.415e-04,-7.16,-7.08
6.434e-04,-7.16,-7.24
6.454e-04,-7.08,-6.84
6.473e-04,-7,-7.16
6.492e-04,-6.92,-6.84
6.511e-04,-7,-7.08
6.530e-04,-7,-6.84
6.550e-04,-6.92,-7
6.569e-04,-6.84,-6.76
6.588e-04,-6.84,-6.92
6.607e-04,-6.76,-6.68
6.626e-04,-6.76,-6.76
6.646e-04,-6.6,-6.44
6.665e-04,-6.52,-6.84
6.684e-04,-6.6,-6.52
6.703e-04,-6.76,-7
6.722e-04,-6.84,-6.76
6.742e-04,-6.84,-6.92
6.761e-04,-6.84,-6.6
6.780e-04,-6.76,-6.84
6.799e-04,-6.68,-6.6
6.818e-04,-6.76,-6.84
6.838e-04,-6.68,-6.6
6.857e-04,-6.76,-6.76
6.876e-04,-6.6,-6.52
6.895e-04,-6.6,-6.76
6.914e-04,-6.6,-6.52
6.934e-04,-6.68,-6.68
6.953e-04,-6.6,-6.52
6.972e-04,-6.6,-6.76
6.991e-04,-6.6,-6.52
7.010e-04,-6.68,-7
7.030e-04,-6.76,-6.6
7.049e-04,-6.92,-7.16
7.068e-04,-7.08,-6.92
7.087e-04,-7.08,-7.16
7.106e-04,-7,-6.76
7.126e-04,-6.84,-6.84
7.145e-04,-6.68,-6.28
7.164e-04,-6.44,-6.52
7.183e-04,-6.28,-6.2
7.202e-04,-6.44,-6.84
7.222e-04,-6.68,-6.44
7.241e-04,-6.76,-6.84
7.260e-04,-6.6,-6.28
7.279e-04,-6.36,-6.36
7.298e-04,-6.12,-5.96
7.318e-04,-6.12,-6.76
7.337e-04,-6.2,-6.04
7.356e-04,-6.6,-7.08
7.375e-04,-6.84,-6.6
7.394e-04,-6.92,-7.08
7.414e-04,-6.92,-6.76
7.433e-04,-6.84,-6.84
7.452e-04,-6.68,-6.52
7.471e-04,-6.6,-6.68
7.490e-04,-6.6,-6.52
7.510e-04,-6.6,-7
7.529e-04,-6.68,-6.52
7.548e-04,-6.84,-7
7.567e-04,-6.92,-6.84
7.586e-04,-6.92,-6.92
7.606e-04,-6.76,-6.52
7.625e-04,-6.68,-6.68
7.644e-04,-6.52,-6.28
7.663e-04,-6.44,-6.52
7.682e-04,-6.44,-6.28
7.702e-04,-6.44,-6.44
7.721e-04,-6.36,-6.28
7.740e-04,-6.36,-6.76
7.759e-04,-6.52,-6.36
7.778e-04,-6.68,-6.84
7.798e-04,-6.68,-6.6
7.817e-04,-6.68,-6.76
7.836e-04,-6.6,-6.52
7.855e-04,-6.6,-6.76
7.875e-04,-6.6,-6.52
7.894e-04,-6.68,-6.92
7.913e-04,-6.76,-6.68
7.932e-04,-6.84,-6.92
7.951e-04,-6.84,-6.68
7.971e-04,-6.76,-6.68
7.990e-04,-6.52,-6.36
8.009e-04,-6.44,-6.52
8.028e-04,-6.44,-6.28
8.047e-04,-6.44,-6.52
8.067e-04,-6.36,-6.2
8.086e-04,-6.28,-6.52
8.105e-04,-6.28,-6.2
8.124e-04,-6.44,-6.76
8.143e-04,-6.52,-6.36
8.163e-04,-6.68,-6.84
8.182e-04,-6.68,-6.52
8.201e-04,-6.6,-6.6
8.220e-04,-6.44,-6.12
8.239e-04,-6.28,-6.28
8.259e-04,-6.12,-6.04
8.278e-04,-6.12,-6.52
8.297e-04,-6.28,-6.12
8.316e-04,-6.36,-6.76
8.335e-04,-6.6,-6.44
8.355e-04,-6.68,-6.76
8.374e-04,-6.68,-6.52
8.393e-04,-6.68,-6.76
8.412e-04,-6.6,-6.52
8.431e-04,-6.6,-6.6
8.451e-04,-6.44,-6.2
8.470e-04,-6.28,-6.28
8.489e-04,-6.2,-6.04
8.508e-04,-6.2,-6.52
8.527e-04,-6.36,-6.12
8.547e-04,-6.44,-6.6
8.566e-04,-6.44,-6.36
8.585e-04,-6.52,-6.6
8.604e-04,-6.52,-6.28
8.623e-04,-6.36,-6.44
8.643e-04,-6.28,-6.12
8.662e-04,-6.2,-6.36
8.681e-04,-6.28,-6.2
8.700e-04,-6.28,-6.44
8.719e-04,-6.28,-6.2
8.739e-04,-6.28,-6.36
8.758e-04,-6.2,-5.96
8.777e-04,-6.04,-6.44
8.796e-04,-6.12,-5.96
8.815e-04,-6.36,-6.52
8.835e-04,-6.44,-6.28
8.854e-04,-6.36,-6.44
8.873e-04,-6.36,-6.28
8.892e-04,-6.36,-6.44
8.911e-04,-6.28,-6.2
8.931e-04,-6.28,-6.36
8.950e-04,-6.2,-5.96
8.969e-04,-6.12,-6.12
8.988e-04,-5.96,-5.88
9.007e-04,-6.04,-6.52
9.027e-04,-6.2,-5.96
9.046e-04,-6.44,-6.76
9.065e-04,-6.6,-6.44
9.084e-04,-6.68,-6.76
9.103e-04,-6.6,-6.36
9.123e-04,-6.44,-6.44
9.142e-04,-6.36,-6.04
9.161e-04,-6.12,-6.2
9.180e-04,-6.12,-6.04
9.199e-04,-6.12,-6.36
9.219e-04,-6.2,-6.04
9.238e-04,-6.28,-6.44
9.257e-04,-6.36,-6.2
9.276e-04,-6.36,-6.6
9.295e-04,-6.44,-6.28
9.315e-04,-6.52,-6.76
9.334e-04,-6.6,-6.52
9.353e-04,-6.68,-6.76
9.372e-04,-6.68,-6.52
9.391e-04,-6.6,-6.6
9.411e-04,-6.36,-5.88
9.430e-04,-6.04,-5.96
9.449e-04,-5.88,-5.72
9.468e-04,-5.8,-6.04
9.487e-04,-5.88,-5.72
9.507e-04,-5.96,-6.04
9.526e-04,-5.96,-5.8
9.545e-04,-5.88,-6.2
9.564e-04,-5.96,-5.8
9.583e-04,-6.12,-6.36
9.603e-04,-6.12,-6.04
9.622e-04,-6.28,-6.52
9.641e-04,-6.44,-6.2
9.660e-04,-6.44,-6.6
9.679e-04,-6.52,-6.28
9.699e-04,-6.44,-6.44
9.718e-04,-6.28,-6.2
9.737e-04,-6.28,-6.28
9.756e-04,-6.12,-5.96
9.775e-04,-6.04,-6.2
9.795e-04,-5.96,-5.88
9.814e-04,-6.04,-6.28
9.833e-04,-6.2,-6.04
9.852e-04,-6.12,-6.2
9.871e-04,-6.12,-6.04
9.891e-04,-6.12,-6.52
9.910e-04,-6.2,-6.12
9.929e-04,-6.44,-6.52
9.948e-04,-6.36,-6.2
9.967e-04,-6.28,-6.28
9.987e-04,-6.2,-5.96
1.001e-03,-6.04,-6.04
1.003e-03,-5.88,-5.72
1.004e-03,-5.8,-6.04
1.006e-03,-5.88,-5.72
1.008e-03,-5.96,-6.2
1.010e-03,-6.04,-5.96
1.012e-03,-6.12,-6.36
1.014e-03,-6.2,-6.12
1.016e-03,-6.28,-6.36
1.018e-03,-6.2,-5.88
1.020e-03,-6.04,-6.04
1.022e-03,-5.88,-5.72
1.024e-03,-5.8,-6.12
1.026e-03,-5.8,-5.72
1.027e-03,-5.96,-6.12
1.029e-03,-5.96,-5.88
1.031e-03,-5.96,-6.04
1.033e-03,-5.88,-5.8
1.035e-03,-5.88,-6.2
1.037e-03,-5.96,-5.88
1.039e-03,-6.04,-6.28
1.041e-03,-6.2,-6.04
1.043e-03,-6.2,-6.28
1.045e-03,-6.2,-6.04
1.047e-03,-6.12,-6.2
1.049e-03,-6.04,-5.96
1.051e-03,-6.12,-6.28
1.052e-03,-6.12,-5.96
1.054e-03,-6.2,-6.52
1.056e-03,-6.28,-6.12
1.058e-03,-6.44,-6.52
1.060e-03,-6.36,-6.12
1.062e-03,-6.2,-6.28
1.064e-03,-6.2,-6.12
1.066e-03,-6.2,-6.28
1.068e-03,-6.2,-6.04
1.070e-03,-6.2,-6.2
1.072e-03,-5.96,-5.88
1.074e-03,-5.96,-6.2
1.075e-03,-5.96,-5.8
1.077e-03,-6.12,-6.44
1.079e-03,-6.2,-6.04
1.081e-03,-6.36,-6.6
1.083e-03,-6.44,-6.28
1.085e-03,-6.52,-6.52
1.087e-03,-6.44,-6.04
1.089e-03,-6.2,-6.2
1.091e-03,-6.04,-5.88
1.093e-03,-6.04,-6.2
1.095e-03,-6.04,-5.96
1.097e-03,-6.12,-6.44
1.099e-03,-6.12,-6.04
1.100e-03,-6.28,-6.44
