rawdata/T0011CH1.CSV

Model,DPO2002B
Firmware Version,1.52

Point Format,Y,
Horizontal Units,S,
Horizontal Scale,0.1,
Sample Interval,8e-06,
Filter Frequency,275000,
Record Length,125000,
Gating,0.0% to 100.0%,
Probe Attenuation,10,
Vertical Units,V,
Vertical Offset,0,
Vertical Scale,2,
Label,,
TIME,CH1,CH1 Peak Detect
-9.60000e-02,-4.36,-3.88
-9.59920e-02,-4.28,-4.44
-9.59840e-02,-4.28,-4.12
-9.59760e-02,-4.12,-4.44
-9.59680e-02,-3.88,-4.12
-9.59600e-02,-4.28,-4.28
-9.59520e-02,-4.12,-3.8
-9.59440e-02,-3.96,-4.52
-9.59360e-02,-4.36,-3.96
-9.59280e-02,-4.12,-4.44
-9.59200e-02,-4.28,-3.8
-9.59120e-02,-4.2,-4.44
-9.59040e-02,-4.52,-4.04
-9.58960e-02,-4.44,-4.76
-9.58880e-02,-3.96,-4.04
-9.58800e-02,-4.6,-4.84
-9.58720e-02,-4.6,-3.88
-9.58640e-02,-4.36,-4.76
-9.58560e-02,-4.36,-4.12
-9.58480e-02,-4.44,-4.68
-9.58400e-02,-4.36,-4.2
-9.58320e-02,-3.96,-4.68
-9.58240e-02,-4.28,-4.2
-9.58160e-02,-4.44,-4.52
-9.58080e-02,-4.2,-3.88
-9.58000e-02,-4.12,-4.6
-9.57920e-02,-4.12,-4.12
-9.57840e-02,-3.8,-4.28
-9.57760e-02,-4.04,-3.88
-9.57680e-02,-3.96,-4.2
-9.57600e-02,-4.2,-3.72
-9.57520e-02,-4.36,-4.36
-9.57440e-02,-4.36,-3.72
-9.57360e-02,-4.44,-4.6
-9.57280e-02,-4.2,-4.04
-9.57200e-02,-4.52,-4.6
-9.57120e-02,-4.52,-4.04
-9.57040e-02,-4.6,-4.68
-9.56960e-02,-4.52,-4.28
-9.56880e-02,-4.52,-4.76
-9.56800e-02,-4.36,-4.36
-9.56720e-02,-4.28,-4.68
-9.56640e-02,-4.12,-4.28
-9.56560e-02,-4.2,-4.52
-9.56480e-02,-3.96,-3.96
-9.56400e-02,-4.2,-4.28
-9.56320e-02,-4.04,-3.88
-9.56240e-02,-4.12,-4.28
-9.56160e-02,-4.36,-3.8
-9.56080e-02,-4.44,-4.52
-9.56000e-02,-4.12,-3.8
-9.55920e-02,-4.36,-4.68
-9.55840e-02,-4.36,-3.96
-9.55760e-02,-4.52,-4.52
-9.55680e-02,-4.2,-3.96
-9.55600e-02,-4.44,-4.6
-9.55520e-02,-4.28,-4.04
-9.55440e-02,-4.6,-4.68
-9.55360e-02,-4.36,-4.2
-9.55280e-02,-4.28,-4.76
-9.55200e-02,-4.44,-4.12
-9.55120e-02,-4.2,-4.68
-9.55040e-02,-4.12,-4.04
-9.54960e-02,-4.12,-4.36
-9.54880e-02,-4.12,-4.04
-9.54800e-02,-4.04,-4.28
-9.54720e-02,-4.04,-3.96
-9.54640e-02,-4.52,-4.36
-9.54560e-02,-4.28,-3.96
-9.54480e-02,-4.12,-4.68
-9.54400e-02,-4.2,-3.88
-9.54320e-02,-4.04,-4.36
-9.54240e-02,-4.2,-3.64
-9.54160e-02,-4.2,-4.44
-9.54080e-02,-4.36,-3.8
-9.54000e-02,-4.44,-4.6
-9.53920e-02,-4.2,-4.04
-9.53840e-02,-4.52,-4.76
-9.53760e-02,-4.04,-4.12
-9.53680e-02,-4.44,-4.68
-9.53600e-02,-4.6,-3.88
-9.53520e-02,-4.52,-4.68
-9.53440e-02,-4.28,-4.2
-9.53360e-02,-4.12,-4.68
-9.53280e-02,-4.28,-4.12
-9.53200e-02,-3.96,-4.44
-9.53120e-02,-4.2,-4.04
-9.53040e-02,-4.2,-4.28
-9.52960e-02,-4.28,-3.88
-9.52880e-02,-3.96,-4.36
-9.52800e-02,-4.36,-4.04
-9.52720e-02,-4.28,-4.6
-9.52640e-02,-4.04,-3.8
-9.52560e-02,-4.36,-4.68
-9.52480e-02,-4.6,-3.96
-9.52400e-02,-4.36,-4.68
-9.52320e-02,-4.36,-4.04
-9.52240e-02,-4.28,-4.6
-9.52160e-02,-4.36,-4.12
-9.52080e-02,-4.28,-4.52
-9.52000e-02,-4.68,-4.12
-9.51920e-02,-4.52,-4.76
-9.51840e-02,-4.36,-4.12
-9.51760e-02,-4.12,-4.76
-9.51680e-02,-4.2,-4.2
-9.51600e-02,-4.36,-4.36
-9.51520e-02,-3.96,-3.96
-9.51440e-02,-3.88,-4.52
-9.51360e-02,-4.04,-3.72
-9.51280e-02,-4.44,-4.12
-9.51200e-02,-4.6,-3.64
-9.51120e-02,-4.04,-4.76
-9.51040e-02,-4.6,-3.96
-9.50960e-02,-4.44,-4.92
-9.50880e-02,-4.2,-3.96
-9.50800e-02,-4.44,-4.84
-9.50720e-02,-4.2,-4.04
-9.50640e-02,-4.28,-4.6
-9.50560e-02,-4.12,-4.12
-9.50480e-02,-4.44,-4.44
-9.50400e-02,-4.44,-4.04
-9.50320e-02,-4.04,-4.84
-9.50240e-02,-4.36,-4.12
-9.50160e-02,-4.6,-4.52
-9.50080e-02,-3.96,-3.8
-9.50000e-02,-4.36,-4.76
-9.49920e-02,-4.44,-3.8
-9.49840e-02,-4.52,-4.6
-9.49760e-02,-4.44,-4.04
-9.49680e-02,-4.28,-4.68
-9.49600e-02,-4.28,-4.28
-9.49520e-02,-4.2,-4.44
-9.49440e-02,-4.2,-4.12
-9.49360e-02,-4.2,-4.36
-9.49280e-02,-4.28,-3.96
-9.49200e-02,-4.36,-4.44
-9.49120e-02,-4.2,-3.96
-9.49040e-02,-4.76,-4.44
-9.48960e-02,-4.44,-4.04
-9.48880e-02,-4.44,-4.84
-9.48800e-02,-4.2,-4.12
-9.48720e-02,-4.68,-4.6
-9.48640e-02,-4.44,-4.12
-9.48560e-02,-4.2,-4.76
-9.48480e-02,-4.44,-4.2
-9.48400e-02,-4.36,-4.6
-9.48320e-02,-4.6,-4.04
-9.48240e-02,-4.2,-4.76
-9.48160e-02,-4.2,-4.28
-9.48080e-02,-4.04,-4.44
-9.48000e-02,-4.6,-4.04
-9.47920e-02,-4.36,-4.68
-9.47840e-02,-4.52,-3.96
-9.47760e-02,-4.68,-4.6
-9.47680e-02,-4.52,-4.2
-9.47600e-02,-4.6,-4.84
-9.47520e-02,-4.68,-4.36
-9.47440e-02,-4.28,-4.76
-9.47360e-02,-4.52,-4.28
-9.47280e-02,-4.52,-4.76
-9.47200e-02,-4.44,-4.04
-9.47120e-02,-4.28,-4.84
-9.47040e-02,-3.96,-4.28
-9.46960e-02,-4.28,-4.44
-9.46880e-02,-4.28,-3.8
-9.46800e-02,-4.36,-4.44
-9.46720e-02,-3.96,-3.8
-9.46640e-02,-4.2,-4.44
-9.46560e-02,-4.12,-3.88
-9.46480e-02,-4.44,-4.44
-9.46400e-02,-3.96,-3.96
-9.46320e-02,-4.36,-4.6
-9.46240e-02,-4.12,-3.8
-9.46160e-02,-4.36,-4.44
-9.46080e-02,-4.2,-3.88
-9.46000e-02,-4.6,-4.52
-9.45920e-02,-4.2,-4.04
-9.45840e-02,-3.88,-4.76
-9.45760e-02,-4.36,-3.88
-9.45680e-02,-4.36,-4.6
-9.45600e-02,-4.6,-3.72
-9.45520e-02,-4.52,-4.68
-9.45440e-02,-4.52,-4.2
-9.45360e-02,-4.6,-4.68
-9.45280e-02,-4.28,-4.36
-9.45200e-02,-4.52,-4.84
-9.45120e-02,-4.28,-4.12
-9.45040e-02,-4.04,-4.68
-9.44960e-02,-3.8,-4.12
-9.44880e-02,-3.96,-4.28
-9.44800e-02,-4.36,-3.64
-9.44720e-02,-4.2,-4.44
-9.44640e-02,-4.12,-3.64
-9.44560e-02,-4.6,-4.36
-9.44480e-02,-4.2,-3.88
-9.44400e-02,-4.36,-4.84
-9.44320e-02,-4.44,-3.96
-9.44240e-02,-4.36,-4.68
-9.44160e-02,-4.2,-3.96
-9.44080e-02,-4.36,-4.68
-9.44000e-02,-4.68,-4.04
-9.43920e-02,-3.96,-4.76
-9.43840e-02,-4.28,-4.12
-9.43760e-02,-4.44,-4.6
-9.43680e-02,-4.04,-3.88
-9.43600e-02,-4.04,-4.6
-9.43520e-02,-4.28,-3.88
-9.43440e-02,-4.12,-4.36
-9.43360e-02,-4.2,-3.8
-9.43280e-02,-4.2,-4.44
-9.43200e-02,-4.28,-3.96
-9.43120e-02,-3.8,-4.44
-9.43040e-02,-4.44,-4.04
-9.42960e-02,-4.6,-4.68
-9.42880e-02,-4.04,-3.64
-9.42800e-02,-4.44,-4.68
-9.42720e-02,-4.04,-3.96
-9.42640e-02,-4.04,-4.6
-9.42560e-02,-4.04,-3.88
-9.42480e-02,-4.68,-4.44
-9.42400e-02,-4.44,-3.64
-9.42320e-02,-3.96,-4.76
-9.42240e-02,-4.36,-3.96
-9.42160e-02,-4.28,-4.52
-9.42080e-02,-4.04,-3.88
-9.42000e-02,-4.44,-4.44
-9.41920e-02,-4.52,-3.88
-9.41840e-02,-3.88,-4.68
-9.41760e-02,-4.28,-3.88
-9.41680e-02,-4.36,-4.36
-9.41600e-02,-4.2,-3.8
-9.41520e-02,-3.8,-4.52
-9.41440e-02,-4.12,-4.04
-9.41360e-02,-4.28,-4.36
-9.41280e-02,-4.68,-3.64
-9.41200e-02,-4.44,-4.76
-9.41120e-02,-4.12,-4.12
-9.41040e-02,-4.28,-4.68
-9.40960e-02,-4.36,-3.96
-9.40880e-02,-4.52,-4.6
-9.40800e-02,-3.96,-4.04
-9.40720e-02,-3.96,-4.76
-9.40640e-02,-4.28,-3.88
-9.40560e-02,-4.28,-4.36
-9.40480e-02,-4.36,-3.72
-9.40400e-02,-4.12,-4.68
-9.40320e-02,-4.44,-4.12
-9.40240e-02,-4.44,-4.6
-9.40160e-02,-4.44,-3.96
-9.40080e-02,-4.2,-4.6
-9.40000e-02,-4.28,-4.12
-9.39920e-02,-4.2,-4.52
-9.39840e-02,-4.36,-4.04
-9.39760e-02,-4.28,-4.44
-9.39680e-02,-4.6,-4.04
-9.39600e-02,-4.04,-4.68
-9.39520e-02,-3.96,-4.04
-9.39440e-02,-4.12,-4.6
-9.39360e-02,-4.2,-3.88
-9.39280e-02,-4.52,-4.36
-9.39200e-02,-4.44,-3.88
-9.39120e-02,-4.04,-4.6
-9.39040e-02,-4.28,-4.2
-9.38960e-02,-4.52,-4.44
-9.38880e-02,-4.68,-3.96
-9.38800e-02,-4.36,-4.76
-9.38720e-02,-4.52,-4.2
-9.38640e-02,-4.36,-4.76
-9.38560e-02,-4.28,-4.2
-9.38480e-02,-4.2,-4.68
-9.38400e-02,-4.04,-4.12
-9.38320e-02,-4.2,-4.36
-9.38240e-02,-4.04,-3.96
-9.38160e-02,-4.2,-4.28
-9.38080e-02,-4.28,-3.88
-9.38000e-02,-4.2,-4.44
-9.37920e-02,-4.2,-4.04
-9.37840e-02,-4.36,-4.44
-9.37760e-02,-4.36,-4.04
-9.37680e-02,-4.04,-4.6
-9.37600e-02,-4.12,-4.04
-9.37520e-02,-4.52,-4.36
-9.37440e-02,-4.44,-3.88
-9.37360e-02,-4.2,-4.76
-9.37280e-02,-4.28,-3.96
-9.37200e-02,-4.28,-4.44
-9.37120e-02,-4.52,-4.04
-9.37040e-02,-4.28,-4.6
-9.36960e-02,-4.36,-4.2
-9.36880e-02,-4.28,-4.68
-9.36800e-02,-3.96,-3.8
-9.36720e-02,-3.96,-4.76
-9.36640e-02,-4.04,-3.88
-9.36560e-02,-4.36,-4.28
-9.36480e-02,-4.36,-3.8
-9.36400e-02,-4.12,-4.6
-9.36320e-02,-4.12,-4.04
-9.36240e-02,-4.28,-4.68
-9.36160e-02,-4.36,-3.8
-9.36080e-02,-4.6,-4.6
-9.36000e-02,-4.28,-4.12
-9.35920e-02,-4.52,-4.76
-9.35840e-02,-4.36,-4.2
-9.35760e-02,-4.12,-4.6
-9.35680e-02,-4.2,-4.2
-9.35600e-02,-4.36,-4.36
-9.35520e-02,-4.04,-4.04
-9.35440e-02,-4.44,-4.52
-9.35360e-02,-4.44,-3.96
-9.35280e-02,-4.28,-4.68
-9.35200e-02,-4.2,-3.96
-9.35120e-02,-4.6,-4.52
-9.35040e-02,-4.12,-4.04
-9.34960e-02,-4.44,-4.68
-9.34880e-02,-4.12,-3.96
-9.34800e-02,-3.8,-4.6
-9.34720e-02,-4.36,-3.88
-9.34640e-02,-3.96,-4.52
-9.34560e-02,-4.2,-3.64
-9.34480e-02,-4.6,-4.36
-9.34400e-02,-4.28,-3.88
-9.34320e-02,-4.52,-4.76
-9.34240e-02,-4.6,-4.04
-9.34160e-02,-4.52,-4.84
-9.34080e-02,-4.44,-4.04
-9.34000e-02,-4.04,-4.68
-9.33920e-02,-4.28,-4.2
-9.33840e-02,-4.44,-4.44
-9.33760e-02,-4.04,-3.88
-9.33680e-02,-4.12,-4.6
-9.33600e-02,-4.2,-3.96
-9.33520e-02,-4.04,-4.44
-9.33440e-02,-4.12,-3.96
-9.33360e-02,-4.2,-4.28
-9.33280e-02,-4.04,-3.88
-9.33200e-02,-4.12,-4.36
-9.33120e-02,-4.04,-3.88
-9.33040e-02,-3.8,-4.28
-9.32960e-02,-4.04,-3.8
-9.32880e-02,-4.44,-4.28
-9.32800e-02,-4.76,-3.64
-9.32720e-02,-4.28,-4.84
-9.32640e-02,-4.28,-4.12
-9.32560e-02,-4.84,-4.76
-9.32480e-02,-4.52,-4.12
-9.32400e-02,-4.28,-4.92
-9.32320e-02,-4.36,-4.36
-9.32240e-02,-4.28,-4.68
-9.32160e-02,-4.2,-4.2
-9.32080e-02,-4.28,-4.52
-9.32000e-02,-4.36,-4.12
-9.31920e-02,-4.28,-4.52
-9.31840e-02,-4.2,-4.12
-9.31760e-02,-3.88,-4.52
-9.31680e-02,-4.04,-3.96
-9.31600e-02,-3.88,-4.12
-9.31520e-02,-4.6,-3.8
-9.31440e-02,-4.04,-4.76
-9.31360e-02,-3.96,-3.8
-9.31280e-02,-4.28,-4.76
-9.31200e-02,-4.68,-3.8
-9.31120e-02,-4.2,-4.76
-9.31040e-02,-4.04,-3.8
-9.30960e-02,-4.52,-4.6
-9.30880e-02,-4.2,-3.88
-9.30800e-02,-4.44,-4.68
-9.30720e-02,-4.04,-4.04
-9.30640e-02,-4.28,-4.6
-9.30560e-02,-4.44,-3.88
-9.30480e-02,-4.12,-4.68
-9.30400e-02,-4.36,-3.72
-9.30320e-02,-4.2,-4.52
-9.30240e-02,-4.36,-4.04
-9.30160e-02,-4.2,-4.44
-9.30080e-02,-3.96,-4.04
-9.30000e-02,-4.2,-4.36
-9.29920e-02,-3.96,-3.88
-9.29840e-02,-3.96,-4.36
-9.29760e-02,-4.28,-3.8
-9.29680e-02,-4.6,-4.52
-9.29600e-02,-4.52,-3.88
-9.29520e-02,-3.8,-4.68
-9.29440e-02,-4.36,-4.28
-9.29360e-02,-4.52,-4.52
-9.29280e-02,-4.52,-3.64
-9.29200e-02,-4.36,-4.68
-9.29120e-02,-4.2,-4.28
-9.29040e-02,-4.2,-4.6
-9.28960e-02,-4.2,-4.04
-9.28880e-02,-4.36,-4.36
-9.28800e-02,-4.28,-3.96
-9.28720e-02,-4.28,-4.52
-9.28640e-02,-4.12,-4.2
-9.28560e-02,-4.36,-4.44
-9.28480e-02,-4.76,-3.96
-9.28400e-02,-4.52,-4.92
-9.28320e-02,-4.28,-4.04
-9.28240e-02,-4.2,-4.68
-9.28160e-02,-4.04,-4.2
-9.28080e-02,-4.04,-4.6
-9.28000e-02,-4.6,-3.8
-9.27920e-02,-4.2,-4.68
-9.27840e-02,-4.28,-3.72
-9.27760e-02,-4.52,-4.6
-9.27680e-02,-4.2,-4.12
-9.27600e-02,-4.2,-4.6
-9.27520e-02,-4.28,-4.12
-9.27440e-02,-4.52,-4.52
-9.27360e-02,-4.44,-4.04
-9.27280e-02,-4.36,-4.6
-9.27200e-02,-4.68,-4.12
-9.27120e-02,-4.2,-4.76
-9.27040e-02,-4.36,-4.28
-9.26960e-02,-4.52,-4.76
-9.26880e-02,-4.2,-4.04
-9.26800e-02,-4.2,-4.76
-9.26720e-02,-4.28,-4.12
-9.26640e-02,-3.96,-4.52
-9.26560e-02,-4.2,-4.04
-9.26480e-02,-4.2,-4.36
-9.26400e-02,-4.2,-3.88
-9.26320e-02,-4.28,-4.44
-9.26240e-02,-4.04,-4.04
-9.26160e-02,-4.2,-4.6
-9.26080e-02,-4.52,-3.88
-9.26000e-02,-3.96,-4.6
-9.25920e-02,-3.96,-3.8
-9.25840e-02,-4.36,-4.36
-9.25760e-02,-4.6,-3.72
-9.25680e-02,-4.28,-4.76
-9.25600e-02,-4.28,-4.12
-9.25520e-02,-4.04,-4.6
-9.25440e-02,-4.28,-3.96
-9.25360e-02,-4.28,-4.36
-9.25280e-02,-4.28,-3.72
-9.25200e-02,-4.04,-4.44
-9.25120e-02,-4.28,-4.12
-9.25040e-02,-4.36,-4.44
-9.24960e-02,-4.2,-3.88
-9.24880e-02,-4.2,-4.52
-9.24800e-02,-4.28,-3.96
-9.24720e-02,-4.04,-4.44
-9.24640e-02,-4.28,-3.96
-9.24560e-02,-4.28,-4.44
-9.24480e-02,-4.44,-3.88
-9.24400e-02,-4.2,-4.6
-9.24320e-02,-4.12,-4.2
-9.24240e-02,-4.52,-4.6
-9.24160e-02,-4.12,-3.88
-9.24080e-02,-4.52,-4.76
-9.24000e-02,-4.68,-4.04
-9.23920e-02,-4.12,-4.76
-9.23840e-02,-4.28,-4.04
-9.23760e-02,-4.28,-4.6
-9.23680e-02,-4.2,-4.04
-9.23600e-02,-4.2,-4.44
-9.23520e-02,-4.04,-4.04
-9.23440e-02,-4.76,-4.36
-9.23360e-02,-4.2,-3.96
-9.23280e-02,-4.04,-4.84
-9.23200e-02,-4.2,-3.96
-9.23120e-02,-3.96,-4.36
-9.23040e-02,-4.36,-3.8
-9.22960e-02,-4.04,-4.44
-9.22880e-02,-4.2,-3.88
-9.22800e-02,-4.28,-4.52
-9.22720e-02,-4.6,-3.88
-9.22640e-02,-4.44,-4.68
-9.22560e-02,-4.36,-4.12
-9.22480e-02,-4.12,-4.76
-9.22400e-02,-4.28,-4.12
-9.22320e-02,-4.44,-4.44
-9.22240e-02,-4.28,-3.96
-9.22160e-02,-4.44,-4.68
-9.22080e-02,-4.52,-4.04
-9.22000e-02,-4.2,-4.84
-9.21920e-02,-4.12,-4.12
-9.21840e-02,-3.96,-4.52
-9.21760e-02,-4.36,-3.96
-9.21680e-02,-4.28,-4.44
-9.21600e-02,-4.04,-3.8
-9.21520e-02,-4.2,-4.52
-9.21440e-02,-4.2,-3.88
-9.21360e-02,-4.36,-4.44
-9.21280e-02,-4.28,-3.88
-9.21200e-02,-4.28,-4.52
-9.21120e-02,-4.36,-4.04
-9.21040e-02,-4.28,-4.6
-9.20960e-02,-4.44,-3.96
-9.20880e-02,-4.28,-4.6
-9.20800e-02,-4.36,-4.12
-9.20720e-02,-4.36,-4.6
-9.20640e-02,-4.2,-4.04
-9.20560e-02,-4.44,-4.68
-9.20480e-02,-4.44,-3.88
-9.20400e-02,-4.04,-4.68
-9.20320e-02,-4.28,-4.12
-9.20240e-02,-4.28,-4.44
-9.20160e-02,-3.88,-3.96
-9.20080e-02,-4.04,-4.36
-9.20000e-02,-4.04,-3.56
-9.19920e-02,-4.04,-4.28
-9.19840e-02,-3.88,-3.56
-9.19760e-02,-3.72,-4.12
-9.19680e-02,-3.88,-3.64
-9.19600e-02,-4.12,-4.04
-9.19520e-02,-4.12,-3.56
-9.19440e-02,-4.44,-4.28
-9.19360e-02,-4.44,-3.88
-9.19280e-02,-4.44,-4.6
-9.19200e-02,-4.68,-4.12
-9.19120e-02,-4.12,-4.84
-9.19040e-02,-3.88,-4.28
-9.18960e-02,-4.28,-4.6
-9.18880e-02,-4.12,-3.72
-9.18800e-02,-4.28,-4.36
-9.18720e-02,-4.12,-3.96
-9.18640e-02,-3.88,-4.44
-9.18560e-02,-4.12,-3.88
-9.18480e-02,-3.96,-4.28
-9.18400e-02,-3.96,-3.8
-9.18320e-02,-3.88,-4.28
-9.18240e-02,-3.88,-3.72
-9.18160e-02,-3.88,-4.28
-9.18080e-02,-4.28,-3.64
-9.18000e-02,-4.52,-4.44
-9.17920e-02,-4.2,-3.72
-9.17840e-02,-4.44,-4.76
-9.17760e-02,-4.36,-4.12
-9.17680e-02,-4.12,-4.52
-9.17600e-02,-4.76,-4.2
-9.17520e-02,-4.68,-4.84
-9.17440e-02,-4.68,-4.04
-9.17360e-02,-4.68,-4.84
-9.17280e-02,-4.12,-4.52
-9.17200e-02,-4.36,-4.84
-9.17120e-02,-4.04,-3.88
-9.17040e-02,-4.2,-4.6
-9.16960e-02,-3.96,-3.88
-9.16880e-02,-4.2,-4.28
-9.16800e-02,-4.04,-3.88
-9.16720e-02,-3.88,-4.28
-9.16640e-02,-4.2,-3.8
-9.16560e-02,-4.52,-4.36
-9.16480e-02,-4.28,-3.72
-9.16400e-02,-4.44,-4.68
-9.16320e-02,-4.44,-4.04
-9.16240e-02,-4.52,-4.6
-9.16160e-02,-4.28,-4.2
-9.16080e-02,-4.52,-4.68
-9.16000e-02,-4.6,-4.2
-9.15920e-02,-4.2,-4.76
-9.15840e-02,-4.04,-4.2
-9.15760e-02,-4.2,-4.52
-9.15680e-02,-4.2,-3.96
-9.15600e-02,-4.12,-4.28
-9.15520e-02,-4.52,-3.96
-9.15440e-02,-4.44,-4.76
-9.15360e-02,-3.8,-3.96
-9.15280e-02,-4.04,-4.76
-9.15200e-02,-4.52,-3.72
-9.15120e-02,-3.88,-4.6
-9.15040e-02,-4.2,-3.8
-9.14960e-02,-4.52,-4.52
-9.14880e-02,-4.52,-3.8
-9.14800e-02,-3.96,-4.68
-9.14720e-02,-4.36,-4.2
-9.14640e-02,-4.52,-4.6
-9.14560e-02,-4.2,-3.88
-9.14480e-02,-4.2,-4.68
-9.14400e-02,-4.52,-4.04
-9.14320e-02,-3.96,-4.68
-9.14240e-02,-4.36,-4.04
-9.14160e-02,-4.52,-4.52
-9.14080e-02,-4.68,-3.88
-9.14000e-02,-4.2,-4.92
-9.13920e-02,-4.12,-4.2
-9.13840e-02,-4.04,-4.52
-9.13760e-02,-3.88,-3.96
-9.13680e-02,-3.88,-4.2
-9.13600e-02,-4.04,-3.72
-9.13520e-02,-4.36,-4.2
-9.13440e-02,-4.04,-3.72
-9.13360e-02,-4.2,-4.44
-9.13280e-02,-4.28,-3.96
-9.13200e-02,-4.2,-4.44
-9.13120e-02,-4.2,-4.04
-9.13040e-02,-4.28,-4.44
-9.12960e-02,-4.52,-4.04
-9.12880e-02,-4.44,-4.68
-9.12800e-02,-4.44,-4.12
-9.12720e-02,-4.36,-4.68
-9.12640e-02,-4.44,-4.2
-9.12560e-02,-4.52,-4.76
-9.12480e-02,-4.44,-4.2
-9.12400e-02,-4.04,-4.76
-9.12320e-02,-4.28,-4.28
-9.12240e-02,-4.44,-4.52
-9.12160e-02,-3.88,-3.88
-9.12080e-02,-4.28,-4.52
-9.12000e-02,-4.2,-3.8
-9.11920e-02,-4.28,-4.44
-9.11840e-02,-4.12,-3.88
-9.11760e-02,-4.36,-4.44
-9.11680e-02,-4.28,-3.96
-9.11600e-02,-4.36,-4.44
-9.11520e-02,-4.04,-4.04
-9.11440e-02,-4.36,-4.52
-9.11360e-02,-4.12,-3.88
-9.11280e-02,-4.28,-4.52
-9.11200e-02,-4.68,-3.96
-9.11120e-02,-4.76,-4.84
-9.11040e-02,-3.96,-4.12
-9.10960e-02,-4.44,-4.92
-9.10880e-02,-4.68,-3.88
-9.10800e-02,-4.44,-4.76
-9.10720e-02,-4.68,-3.96
-9.10640e-02,-4.44,-4.84
-9.10560e-02,-4.2,-4.28
-9.10480e-02,-3.72,-4.68
-9.10400e-02,-4.68,-3.88
-9.10320e-02,-4.28,-4.76
-9.10240e-02,-4.04,-3.64
-9.10160e-02,-3.72,-4.76
-9.10080e-02,-3.8,-3.88
-9.10000e-02,-4.44,-4.04
-9.09920e-02,-4.44,-3.48
-9.09840e-02,-4.52,-4.68
-9.09760e-02,-4.28,-3.88
-9.09680e-02,-3.88,-4.68
-9.09600e-02,-4.12,-4.04
-9.09520e-02,-4.6,-4.44
-9.09440e-02,-4.6,-3.64
-9.09360e-02,-4.44,-4.76
-9.09280e-02,-4.68,-4.28
-9.09200e-02,-4.44,-4.76
-9.09120e-02,-4.36,-4.36
-9.09040e-02,-4.28,-4.68
-9.08960e-02,-4.12,-4.2
-9.08880e-02,-4.6,-4.52
-9.08800e-02,-4.52,-4.04
-9.08720e-02,-4.44,-4.68
-9.08640e-02,-4.6,-4.2
-9.08560e-02,-4.04,-4.68
-9.08480e-02,-4.04,-4.28
-9.08400e-02,-4.12,-4.6
-9.08320e-02,-4.12,-3.96
-9.08240e-02,-4.12,-4.36
-9.08160e-02,-4.2,-3.96
-9.08080e-02,-4.2,-4.36
-9.08000e-02,-4.04,-3.96
-9.07920e-02,-4.44,-4.36
-9.07840e-02,-4.36,-3.96
-9.07760e-02,-4.04,-4.52
-9.07680e-02,-4.52,-3.96
-9.07600e-02,-4.2,-4.68
-9.07520e-02,-4.2,-3.96
-9.07440e-02,-4.12,-4.68
-9.07360e-02,-3.88,-4.04
-9.07280e-02,-4.2,-4.2
-9.07200e-02,-4.44,-3.8
-9.07120e-02,-4.2,-4.6
-9.07040e-02,-3.88,-3.8
-9.06960e-02,-3.88,-4.52
-9.06880e-02,-4.6,-3.64
-9.06800e-02,-4.12,-4.68
-9.06720e-02,-4.2,-3.72
-9.06640e-02,-4.44,-4.52
-9.06560e-02,-4.52,-3.96
-9.06480e-02,-3.88,-4.84
-9.06400e-02,-3.8,-4.12
-9.06320e-02,-3.96,-4.28
-9.06240e-02,-3.96,-3.48
-9.06160e-02,-4.2,-4.12
-9.06080e-02,-4.28,-3.72
-9.06000e-02,-4.36,-4.44
-9.05920e-02,-4.04,-3.96
-9.05840e-02,-4.12,-4.44
-9.05760e-02,-4.2,-3.88
-9.05680e-02,-4.36,-4.44
-9.05600e-02,-4.36,-3.96
-9.05520e-02,-3.96,-4.44
-9.05440e-02,-3.96,-4.2
-9.05360e-02,-3.96,-4.44
-9.05280e-02,-4.04,-3.8
-9.05200e-02,-4.12,-4.28
-9.05120e-02,-4.12,-3.88
-9.05040e-02,-4.04,-4.28
-9.04960e-02,-4.04,-3.88
-9.04880e-02,-4.12,-4.28
-9.04800e-02,-4.12,-3.96
-9.04720e-02,-4.36,-4.28
-9.04640e-02,-3.96,-3.96
-9.04560e-02,-4.28,-4.52
-9.04480e-02,-4.28,-3.8
-9.04400e-02,-4.68,-4.44
-9.04320e-02,-4.2,-3.8
-9.04240e-02,-3.96,-4.84
-9.04160e-02,-4.52,-4.04
-9.04080e-02,-4.28,-4.68
-9.04000e-02,-4.44,-3.88
-9.03920e-02,-3.96,-4.68
-9.03840e-02,-4.12,-4.2
-9.03760e-02,-3.88,-4.52
-9.03680e-02,-4.2,-3.8
-9.03600e-02,-4.12,-4.36
-9.03520e-02,-3.96,-3.64
-9.03440e-02,-4.04,-4.28
-9.03360e-02,-4.04,-3.8
-9.03280e-02,-4.44,-4.28
-9.03200e-02,-4.28,-3.8
-9.03120e-02,-4.44,-4.6
-9.03040e-02,-4.12,-4.12
-9.02960e-02,-4.12,-4.6
-9.02880e-02,-4.28,-4.04
-9.02800e-02,-4.52,-4.44
-9.02720e-02,-4.36,-3.88
-9.02640e-02,-4.28,-4.76
-9.02560e-02,-4.2,-4.12
-9.02480e-02,-3.88,-4.44
-9.02400e-02,-4.28,-4.12
-9.02320e-02,-4.12,-4.44
-9.02240e-02,-4.04,-3.64
-9.02160e-02,-3.96,-4.44
-9.02080e-02,-4.68,-3.96
-9.02000e-02,-4.2,-4.84
-9.01920e-02,-4.2,-3.88
-9.01840e-02,-4.12,-4.76
-9.01760e-02,-4.2,-3.96
-9.01680e-02,-4.12,-4.36
-9.01600e-02,-4.28,-3.96
-9.01520e-02,-4.36,-4.44
-9.01440e-02,-4.6,-4.04
-9.01360e-02,-4.68,-4.76
-9.01280e-02,-3.96,-4.2
-9.01200e-02,-4.36,-4.76
-9.01120e-02,-4.2,-3.8
-9.01040e-02,-4.12,-4.52
-9.00960e-02,-4.28,-3.8
-9.00880e-02,-4.36,-4.44
-9.00800e-02,-4.2,-3.88
-9.00720e-02,-4.36,-4.52
-9.00640e-02,-4.2,-4.04
-9.00560e-02,-4.04,-4.68
-9.00480e-02,-4.12,-3.96
-9.00400e-02,-4.04,-4.36
-9.00320e-02,-4.52,-3.8
-9.00240e-02,-4.2,-4.68
-9.00160e-02,-3.88,-3.88
-9.00080e-02,-3.96,-4.6
-9.00000e-02,-4.44,-3.8
-8.99920e-02,-4.28,-4.6
-8.99840e-02,-4.36,-3.88
-8.99760e-02,-4.44,-4.6
-8.99680e-02,-4.04,-4.2
-8.99600e-02,-4.2,-4.6
-8.99520e-02,-4.2,-3.88
-8.99440e-02,-4.52,-4.36
-8.99360e-02,-4.28,-3.8
-8.99280e-02,-4.28,-4.6
-8.99200e-02,-4.36,-4.04
-8.99120e-02,-4.52,-4.52
-8.99040e-02,-4.2,-4.12
-8.98960e-02,-3.88,-4.68
-8.98880e-02,-4.52,-4.04
-8.98800e-02,-4.04,-4.6
-8.98720e-02,-4.28,-3.56
-8.98640e-02,-4.12,-4.52
-8.98560e-02,-4.36,-3.88
-8.98480e-02,-4.44,-4.52
-8.98400e-02,-4.04,-3.96
-8.98320e-02,-4.2,-4.68
-8.98240e-02,-4.44,-3.8
-8.98160e-02,-3.72,-4.68
-8.98080e-02,-4.12,-3.8
-8.98000e-02,-4.44,-4.36
-8.97920e-02,-4.6,-3.64
-8.97840e-02,-4.52,-4.76
-8.97760e-02,-4.36,-4.2
-8.97680e-02,-4.2,-4.76
-8.97600e-02,-4.68,-4.04
-8.97520e-02,-4.28,-4.76
-8.97440e-02,-4.28,-4.04
-8.97360e-02,-4.2,-4.68
-8.97280e-02,-3.96,-4.04
-8.97200e-02,-3.88,-4.44
-8.97120e-02,-3.96,-3.8
-8.97040e-02,-3.48,-4.28
-8.96960e-02,-4.04,-3.64
-8.96880e-02,-3.96,-4.2
-8.96800e-02,-4.2,-3.32
-8.96720e-02,-4.6,-4.36
-8.96640e-02,-4.44,-3.8
-8.96560e-02,-4.28,-4.76
-8.96480e-02,-4.2,-4.2
-8.96400e-02,-4.12,-4.52
-8.96320e-02,-4.44,-4.12
-8.96240e-02,-4.28,-4.6
-8.96160e-02,-4.44,-4.04
-8.96080e-02,-4.68,-4.6
