rawdata/T0029CH1.CSV

Model,DPO2002B
Firmware Version,1.52

Point Format,Y,
Horizontal Units,S,
Horizontal Scale,0.004,
Sample Interval,1.28e-05,
Filter Frequency,290000,
Record Length,3124,
Gating,0.0% to 100.0%,
Probe Attenuation,10,
Vertical Units,V,
Vertical Offset,0,
Vertical Scale,1,
Label,,
TIME,CH1,CH1 Peak Detect
-3.760e-03,-4.06,-4.62
-3.747e-03,-4.34,-3.9
-3.734e-03,-4.14,-4.46
-3.722e-03,-4.26,-3.86
-3.709e-03,-4.3,-4.54
-3.696e-03,-4.34,-4.14
-3.683e-03,-4.18,-4.54
-3.670e-03,-4.06,-3.98
-3.658e-03,-3.94,-4.3
-3.645e-03,-4.14,-3.86
-3.632e-03,-4.1,-4.42
-3.619e-03,-4.06,-3.78
-3.606e-03,-4.18,-4.46
-3.594e-03,-4.22,-3.94
-3.581e-03,-3.78,-4.3
-3.568e-03,-4.02,-3.54
-3.555e-03,-4.42,-4.46
-3.542e-03,-3.86,-3.78
-3.530e-03,-4.26,-4.42
-3.517e-03,-4.3,-3.82
-3.504e-03,-4.06,-4.42
-3.491e-03,-4.26,-3.94
-3.478e-03,-3.94,-4.62
-3.466e-03,-4.58,-3.82
-3.453e-03,-4.02,-4.26
-3.440e-03,-3.86,-3.78
-3.427e-03,-3.78,-4.66
-3.414e-03,-4.14,-3.62
-3.402e-03,-4.3,-4.38
-3.389e-03,-3.7,-3.58
-3.376e-03,-4.14,-4.38
-3.363e-03,-3.86,-3.78
-3.350e-03,-4.18,-4.5
-3.338e-03,-4.3,-4.02
-3.325e-03,-4.26,-4.42
-3.312e-03,-4.02,-3.86
-3.299e-03,-4.06,-4.18
-3.286e-03,-3.9,-3.82
-3.274e-03,-4.18,-4.5
-3.261e-03,-4.02,-3.9
-3.248e-03,-4.02,-4.46
-3.235e-03,-4.06,-3.94
-3.222e-03,-4.18,-4.34
-3.210e-03,-4.06,-3.82
-3.197e-03,-4.14,-4.78
-3.184e-03,-4.58,-4.02
-3.171e-03,-3.78,-4.54
-3.158e-03,-3.98,-3.7
-3.146e-03,-3.74,-4.46
-3.133e-03,-4.18,-3.7
-3.120e-03,-4.22,-4.42
-3.107e-03,-4.1,-3.9
-3.094e-03,-3.66,-4.38
-3.082e-03,-4.1,-3.5
-3.069e-03,-4.22,-4.58
-3.056e-03,-4.14,-3.94
-3.043e-03,-4.34,-4.7
-3.030e-03,-4.42,-3.98
-3.018e-03,-4.38,-4.74
-3.005e-03,-4.14,-4.02
-2.992e-03,-3.86,-4.14
-2.979e-03,-3.94,-3.66
-2.966e-03,-4.1,-4.54
-2.954e-03,-4.38,-3.7
-2.941e-03,-4.18,-4.54
-2.928e-03,-4.18,-4.02
-2.915e-03,-4.18,-4.54
-2.902e-03,-4.3,-4.06
-2.890e-03,-4.34,-4.7
-2.877e-03,-4.06,-4.02
-2.864e-03,-3.98,-4.46
-2.851e-03,-4.14,-3.78
-2.838e-03,-4.02,-4.58
-2.826e-03,-4.26,-3.94
-2.813e-03,-4.42,-4.82
-2.800e-03,-3.9,-3.78
-2.787e-03,-4.18,-4.62
-2.774e-03,-3.98,-3.86
-2.762e-03,-4.14,-4.26
-2.749e-03,-4.18,-3.9
-2.736e-03,-3.98,-4.42
-2.723e-03,-4.34,-3.9
-2.710e-03,-4.14,-4.82
-2.698e-03,-4.74,-3.94
-2.685e-03,-3.94,-4.34
-2.672e-03,-3.98,-3.62
-2.659e-03,-3.82,-4.3
-2.646e-03,-4.22,-3.74
-2.634e-03,-3.9,-4.18
-2.621e-03,-3.94,-3.66
-2.608e-03,-3.94,-4.18
-2.595e-03,-3.7,-3.62
-2.582e-03,-4.42,-4.54
-2.570e-03,-4.22,-3.86
-2.557e-03,-4.02,-4.54
-2.544e-03,-4.3,-3.86
-2.531e-03,-4.42,-4.58
-2.518e-03,-3.86,-3.78
-2.506e-03,-4.26,-4.46
-2.493e-03,-4.22,-3.9
-2.480e-03,-4.14,-4.54
-2.467e-03,-3.86,-3.78
-2.454e-03,-3.62,-4.26
-2.442e-03,-3.98,-3.46
-2.429e-03,-4.54,-4.7
-2.416e-03,-3.9,-3.74
-2.403e-03,-4.38,-4.74
-2.390e-03,-4.18,-3.86
-2.378e-03,-4.7,-4.78
-2.365e-03,-3.9,-3.86
-2.352e-03,-4.18,-4.38
-2.339e-03,-4.1,-3.82
-2.326e-03,-4.22,-4.38
-2.314e-03,-3.86,-3.7
-2.301e-03,-4.22,-4.5
-2.288e-03,-3.58,-3.5
-2.275e-03,-4.26,-4.54
-2.262e-03,-3.98,-3.54
-2.250e-03,-4.14,-4.66
-2.237e-03,-4.18,-3.94
-2.224e-03,-4.62,-4.74
-2.211e-03,-4.06,-3.9
-2.198e-03,-4.3,-4.5
-2.186e-03,-4.18,-3.98
-2.173e-03,-4.42,-4.62
-2.160e-03,-4.18,-4.1
-2.147e-03,-3.82,-4.3
-2.134e-03,-3.82,-3.7
-2.122e-03,-4.42,-4.66
-2.109e-03,-4.26,-4.02
-2.096e-03,-3.94,-4.42
-2.083e-03,-4.1,-3.78
-2.070e-03,-4.18,-4.42
-2.058e-03,-4.34,-4.02
-2.045e-03,-3.94,-4.42
-2.032e-03,-4.26,-3.86
-2.019e-03,-4.38,-4.5
-2.006e-03,-3.82,-3.66
-1.994e-03,-4.06,-4.66
-1.981e-03,-4.54,-3.66
-1.968e-03,-4.06,-4.46
-1.955e-03,-4.22,-3.98
-1.942e-03,-4.06,-4.3
-1.930e-03,-3.82,-3.66
-1.917e-03,-4.22,-4.38
-1.904e-03,-4.26,-3.74
-1.891e-03,-4.5,-4.62
-1.878e-03,-4.38,-4.18
-1.866e-03,-4.14,-4.46
-1.853e-03,-3.94,-3.82
-1.840e-03,-4.1,-4.42
-1.827e-03,-4.34,-3.9
-1.814e-03,-4.3,-4.42
-1.802e-03,-3.98,-3.86
-1.789e-03,-3.94,-4.14
-1.776e-03,-4.02,-3.7
-1.763e-03,-4.3,-4.38
-1.750e-03,-4.1,-3.98
-1.738e-03,-4.66,-4.74
-1.725e-03,-4.14,-4.06
-1.712e-03,-4.18,-4.42
-1.699e-03,-4.1,-3.98
-1.686e-03,-4.14,-4.38
-1.674e-03,-4.22,-3.98
-1.661e-03,-3.9,-4.38
-1.648e-03,-3.98,-3.7
-1.635e-03,-3.82,-4.38
-1.622e-03,-4.18,-3.66
-1.610e-03,-4.26,-4.38
-1.597e-03,-3.86,-3.74
-1.584e-03,-4.22,-4.46
-1.571e-03,-4.06,-3.86
-1.558e-03,-4.42,-4.7
-1.546e-03,-4.22,-4.02
-1.533e-03,-3.86,-4.58
-1.520e-03,-4.26,-3.82
-1.507e-03,-4.22,-4.46
-1.494e-03,-4.02,-3.9
-1.482e-03,-3.94,-4.5
-1.469e-03,-3.78,-3.66
-1.456e-03,-4.26,-4.42
-1.443e-03,-4.02,-3.94
-1.430e-03,-4.54,-4.7
-1.418e-03,-4.34,-4.1
-1.405e-03,-4.3,-4.5
-1.392e-03,-3.98,-3.9
-1.379e-03,-4.34,-4.58
-1.366e-03,-4.22,-4.02
-1.354e-03,-3.94,-4.74
-1.341e-03,-4.58,-3.86
-1.328e-03,-3.9,-4.38
-1.315e-03,-4.3,-3.82
-1.302e-03,-4.22,-4.38
-1.290e-03,-3.94,-3.66
-1.277e-03,-4.18,-4.34
-1.264e-03,-4.1,-3.9
-1.251e-03,-4.02,-4.7
-1.238e-03,-4.22,-3.94
-1.226e-03,-4.34,-4.82
-1.213e-03,-4.58,-4.02
-1.200e-03,-4.22,-4.54
-1.187e-03,-4.3,-3.86
-1.174e-03,-4.02,-4.26
-1.162e-03,-4.02,-3.74
-1.149e-03,-4.26,-4.34
-1.136e-03,-4.02,-3.86
-1.123e-03,-3.86,-4.38
-1.110e-03,-4.22,-3.74
-1.098e-03,-4.06,-4.42
-1.085e-03,-4.3,-3.94
-1.072e-03,-4.42,-4.78
-1.059e-03,-4.58,-4.22
-1.046e-03,-4.46,-4.5
-1.034e-03,-4.1,-3.82
-1.021e-03,-4.46,-4.54
-1.008e-03,-3.94,-3.82
-9.952e-04,-3.98,-4.26
-9.824e-04,-4.14,-3.86
-9.696e-04,-3.66,-4.14
-9.568e-04,-4.02,-3.54
-9.440e-04,-3.86,-4.58
-9.312e-04,-4.46,-3.78
-9.184e-04,-4.22,-4.58
-9.056e-04,-4.18,-3.94
-8.928e-04,-4.18,-4.5
-8.800e-04,-4.3,-4.02
-8.672e-04,-3.82,-4.62
-8.544e-04,-4.46,-3.74
-8.416e-04,-4.14,-4.46
-8.288e-04,-4.1,-3.98
-8.160e-04,-4.02,-4.22
-8.032e-04,-4.06,-3.94
-7.904e-04,-4.14,-4.46
-7.776e-04,-4.26,-3.98
-7.648e-04,-4.14,-4.62
-7.520e-04,-4.42,-3.94
-7.392e-04,-4.1,-4.58
-7.264e-04,-4.26,-3.9
-7.136e-04,-4.22,-4.46
-7.008e-04,-3.86,-3.82
-6.880e-04,-3.82,-4.5
-6.752e-04,-4.3,-3.7
-6.624e-04,-3.9,-4.38
-6.496e-04,-3.86,-3.58
-6.368e-04,-3.9,-4.62
-6.240e-04,-4.46,-3.74
-6.112e-04,-3.94,-4.58
-5.984e-04,-4.34,-3.86
-5.856e-04,-4.1,-4.58
-5.728e-04,-4.26,-4.02
-5.600e-04,-4.46,-4.58
-5.472e-04,-4.14,-4.02
-5.344e-04,-4.22,-4.34
-5.216e-04,-3.9,-3.74
-5.088e-04,-4.18,-4.46
-4.960e-04,-4.3,-3.78
-4.832e-04,-4.26,-4.34
-4.704e-04,-3.98,-3.78
-4.576e-04,-3.94,-4.42
-4.448e-04,-4.14,-3.74
-4.320e-04,-4.26,-4.46
-4.192e-04,-4.34,-4.06
-4.064e-04,-4.18,-4.58
-3.936e-04,-4.18,-4.06
-3.808e-04,-4.26,-4.62
-3.680e-04,-4.1,-3.94
-3.552e-04,-4.02,-4.42
-3.424e-04,-3.74,-3.58
-3.296e-04,-4.18,-4.26
-3.168e-04,-4.14,-3.9
-3.040e-04,-4.14,-4.3
-2.912e-04,-4.02,-3.82
-2.784e-04,-3.98,-4.38
-2.656e-04,-3.94,-3.7
-2.528e-04,-4.02,-4.58
-2.400e-04,-4.5,-3.7
-2.272e-04,-4.34,-4.5
-2.144e-04,-4.34,-4.18
-2.016e-04,-4.18,-4.58
-1.888e-04,-4.22,-4.02
-1.760e-04,-4.02,-4.54
-1.632e-04,-3.82,-3.7
-1.504e-04,-4.22,-4.38
-1.376e-04,-4.18,-3.94
-1.248e-04,-3.86,-4.46
-1.120e-04,-4.3,-3.78
-9.920e-05,-4.22,-4.5
-8.640e-05,-4.22,-3.94
-7.360e-05,-4.22,-4.34
-6.080e-05,-4.02,-3.86
-4.800e-05,-4.3,-4.66
-3.520e-05,-4.34,-3.98
-2.240e-05,-4.22,-6.14
-9.600e-06,-4.38,0.74
3.200e-06,3.1,-7.06
1.600e-05,3.1,3.1
2.880e-05,-7.06,-7.06
4.160e-05,-3.3,-3.14
5.440e-05,-3.82,-4.3
6.720e-05,-3.58,-3.46
8.000e-05,-3.22,-3.98
9.280e-05,-3.66,-2.98
1.056e-04,-3.7,-4.1
1.184e-04,-3.74,-3.54
1.312e-04,-3.74,-4.02
1.440e-04,-3.9,-3.62
1.568e-04,-3.9,-4.02
1.696e-04,-3.86,-3.54
1.824e-04,-3.86,-4.18
1.952e-04,-3.78,-3.54
2.080e-04,-3.62,-4.14
2.208e-04,-4.06,-3.54
2.336e-04,-3.9,-4.22
2.464e-04,-3.98,-3.82
2.592e-04,-3.98,-4.42
2.720e-04,-4.26,-3.82
2.848e-04,-4.22,-4.3
2.976e-04,-3.98,-3.78
3.104e-04,-3.42,-4.02
3.232e-04,-3.74,-3.34
3.360e-04,-3.82,-4.14
3.488e-04,-4.02,-3.7
3.616e-04,-3.82,-4.14
3.744e-04,-3.9,-3.7
3.872e-04,-3.7,-4.26
4.000e-04,-4.1,-3.58
4.128e-04,-3.82,-4.22
4.256e-04,-3.86,-3.62
4.384e-04,-3.9,-4.14
4.512e-04,-4.06,-3.66
4.640e-04,-3.9,-4.38
4.768e-04,-3.7,-3.54
4.896e-04,-3.9,-4.02
5.024e-04,-3.94,-3.42
5.152e-04,-3.62,-3.9
5.280e-04,-3.66,-3.38
5.408e-04,-3.94,-4.18
5.536e-04,-3.9,-3.58
5.664e-04,-3.94,-4.18
5.792e-04,-3.98,-3.82
5.920e-04,-3.94,-4.34
6.048e-04,-4.18,-3.78
6.176e-04,-4.26,-4.34
6.304e-04,-3.78,-3.7
6.432e-04,-3.86,-4.1
6.560e-04,-3.66,-3.42
6.688e-04,-3.78,-3.94
6.816e-04,-3.5,-3.34
6.944e-04,-3.58,-4.06
7.072e-04,-3.86,-3.38
7.200e-04,-3.58,-4.14
7.328e-04,-4.06,-3.34
7.456e-04,-4.26,-4.46
7.584e-04,-4.22,-3.82
7.712e-04,-4.18,-4.26
7.840e-04,-3.9,-3.78
7.968e-04,-3.7,-4.14
8.096e-04,-3.7,-3.42
8.224e-04,-3.7,-4.02
8.352e-04,-3.78,-3.42
8.480e-04,-3.86,-4.1
8.608e-04,-3.82,-3.74
8.736e-04,-4.06,-4.14
8.864e-04,-3.82,-3.74
8.992e-04,-3.94,-4.18
9.120e-04,-3.98,-3.82
9.248e-04,-3.86,-4.18
9.376e-04,-3.86,-3.66
9.504e-04,-4.02,-4.1
9.632e-04,-3.66,-3.54
9.760e-04,-3.9,-3.98
9.888e-04,-3.86,-3.66
1.002e-03,-3.62,-4.1
1.014e-03,-3.78,-3.42
1.027e-03,-3.9,-4.1
1.040e-03,-3.7,-3.62
1.053e-03,-4.1,-4.26
1.066e-03,-4.14,-3.7
1.078e-03,-4.02,-4.1
1.091e-03,-3.94,-3.74
1.104e-03,-4.1,-4.38
1.117e-03,-4.06,-3.86
1.130e-03,-3.82,-4.34
1.142e-03,-3.7,-3.66
1.155e-03,-4.06,-4.34
1.168e-03,-4.1,-3.66
1.181e-03,-4.1,-4.18
1.194e-03,-3.82,-3.62
1.206e-03,-3.62,-4.22
1.219e-03,-4.02,-3.54
1.232e-03,-4.66,-4.74
1.245e-03,-4.38,-4.18
1.258e-03,-4.1,-4.54
1.270e-03,-4.34,-3.82
1.283e-03,-4.22,-4.5
1.296e-03,-3.86,-3.66
1.309e-03,-3.58,-4.1
1.322e-03,-3.94,-3.5
1.334e-03,-3.7,-4.3
1.347e-03,-4.18,-3.62
1.360e-03,-3.98,-4.22
1.373e-03,-3.86,-3.74
1.386e-03,-4.3,-4.42
1.398e-03,-4.1,-4.02
1.411e-03,-3.78,-4.42
1.424e-03,-4.22,-3.7
1.437e-03,-3.7,-4.06
1.450e-03,-3.82,-3.62
1.462e-03,-3.98,-4.14
1.475e-03,-3.98,-3.9
1.488e-03,-3.94,-4.14
1.501e-03,-3.82,-3.74
1.514e-03,-3.86,-4.14
1.526e-03,-3.86,-3.78
1.539e-03,-4.02,-4.62
1.552e-03,-4.54,-3.82
1.565e-03,-4.22,-4.62
1.578e-03,-4.1,-3.94
1.590e-03,-4.42,-4.5
1.603e-03,-3.78,-3.66
1.616e-03,-3.9,-4.3
1.629e-03,-4.14,-3.82
1.642e-03,-4.22,-4.3
1.654e-03,-3.9,-3.74
1.667e-03,-3.9,-4.38
1.680e-03,-4.06,-3.78
1.693e-03,-3.86,-4.38
1.706e-03,-4.1,-3.78
1.718e-03,-4.06,-4.5
1.731e-03,-4.3,-3.94
1.744e-03,-4.02,-4.46
1.757e-03,-4.34,-3.86
1.770e-03,-4.26,-4.38
1.782e-03,-4.26,-4.02
1.795e-03,-3.58,-4.3
1.808e-03,-3.98,-3.46
1.821e-03,-3.82,-4.3
1.834e-03,-3.86,-3.74
1.846e-03,-4.02,-4.18
1.859e-03,-3.9,-3.74
1.872e-03,-4.02,-4.3
1.885e-03,-4.14,-3.78
1.898e-03,-3.86,-4.3
1.910e-03,-4.1,-3.74
1.923e-03,-4.22,-4.38
1.936e-03,-4.06,-3.98
1.949e-03,-4.14,-4.26
1.962e-03,-4.06,-3.86
1.974e-03,-3.9,-4.3
1.987e-03,-4.02,-3.66
2.000e-03,-3.9,-4.3
2.013e-03,-3.74,-3.66
2.026e-03,-3.98,-4.5
2.038e-03,-4.42,-3.74
2.051e-03,-3.98,-4.42
2.064e-03,-4.22,-3.9
2.077e-03,-3.86,-4.62
2.090e-03,-4.34,-3.74
2.102e-03,-4.18,-4.46
2.115e-03,-3.9,-3.5
2.128e-03,-3.98,-4.42
2.141e-03,-4.3,-3.86
2.154e-03,-3.86,-4.34
2.166e-03,-3.98,-3.78
2.179e-03,-4.22,-4.3
2.192e-03,-3.86,-3.66
2.205e-03,-3.94,-4.34
2.218e-03,-4.26,-3.58
2.230e-03,-3.74,-4.74
2.243e-03,-4.54,-3.62
2.256e-03,-4.06,-4.54
2.269e-03,-4.1,-3.94
2.282e-03,-3.94,-4.42
2.294e-03,-4.34,-3.78
2.307e-03,-4.14,-4.46
2.320e-03,-3.66,-3.58
2.333e-03,-4.18,-4.54
2.346e-03,-3.9,-3.66
2.358e-03,-4.1,-4.5
2.371e-03,-4.34,-3.74
2.384e-03,-4.06,-4.5
2.397e-03,-4.26,-3.94
2.410e-03,-3.98,-4.26
2.422e-03,-4.18,-3.78
2.435e-03,-4.14,-4.42
2.448e-03,-4.1,-3.98
2.461e-03,-4.06,-4.22
2.474e-03,-4.06,-3.82
2.486e-03,-3.78,-4.1
2.499e-03,-3.74,-3.58
2.512e-03,-3.82,-4.1
2.525e-03,-3.78,-3.58
2.538e-03,-4.1,-4.54
2.550e-03,-4.22,-3.74
2.563e-03,-4.18,-4.5
2.576e-03,-4.02,-3.66
2.589e-03,-3.98,-4.38
2.602e-03,-4.26,-3.78
2.614e-03,-3.98,-4.7
2.627e-03,-4.5,-3.86
2.640e-03,-4.14,-4.66
2.653e-03,-3.98,-3.7
2.666e-03,-3.82,-4.26
2.678e-03,-4.14,-3.7
2.691e-03,-4.18,-4.46
2.704e-03,-4.3,-4.06
2.717e-03,-3.86,-4.5
2.730e-03,-4.26,-3.66
2.742e-03,-4.18,-4.5
2.755e-03,-4.26,-4.1
2.768e-03,-4.34,-4.42
2.781e-03,-3.86,-3.78
2.794e-03,-4.1,-4.34
2.806e-03,-4.22,-3.82
2.819e-03,-3.9,-4.22
2.832e-03,-4.14,-3.74
2.845e-03,-3.98,-4.38
2.858e-03,-4.06,-3.78
2.870e-03,-4.14,-4.46
2.883e-03,-4.1,-4.02
2.896e-03,-4.26,-4.42
2.909e-03,-3.98,-3.94
2.922e-03,-4.1,-4.58
2.934e-03,-4.46,-3.9
2.947e-03,-4.3,-4.46
2.960e-03,-4.34,-3.82
2.973e-03,-4.38,-4.46
2.986e-03,-4.02,-3.74
2.998e-03,-4.42,-4.5
3.011e-03,-3.94,-3.62
3.024e-03,-4.06,-4.3
3.037e-03,-4.02,-3.62
3.050e-03,-4.26,-4.42
3.062e-03,-3.94,-3.86
3.075e-03,-4.38,-4.54
3.088e-03,-4.3,-4.06
3.101e-03,-4.02,-4.14
3.114e-03,-4.06,-3.9
3.126e-03,-4.06,-4.42
3.139e-03,-4.18,-3.86
3.152e-03,-3.98,-4.38
3.165e-03,-4.22,-3.78
3.178e-03,-4.06,-4.74
3.190e-03,-4.22,-3.9
3.203e-03,-3.82,-4.5
3.216e-03,-4.26,-3.66
3.229e-03,-4.14,-4.54
3.242e-03,-4.18,-3.82
3.254e-03,-4.38,-4.5
3.267e-03,-4.38,-4.14
3.280e-03,-4.42,-4.62
3.293e-03,-3.9,-3.74
3.306e-03,-4.5,-4.58
3.318e-03,-4.14,-3.9
3.331e-03,-4.06,-4.26
3.344e-03,-4.06,-3.9
3.357e-03,-4.3,-4.62
3.370e-03,-4.54,-4.14
3.382e-03,-3.98,-4.54
3.395e-03,-4.46,-3.9
3.408e-03,-4.38,-4.66
3.421e-03,-4.62,-4.1
3.434e-03,-4.18,-4.38
3.446e-03,-3.86,-3.82
3.459e-03,-3.86,-4.3
3.472e-03,-4.22,-3.74
3.485e-03,-4.1,-4.5
3.498e-03,-3.78,-3.74
3.510e-03,-4.18,-4.38
3.523e-03,-4.14,-3.9
3.536e-03,-3.94,-4.38
3.549e-03,-4.22,-3.66
3.562e-03,-4.18,-4.46
3.574e-03,-4.1,-3.94
3.587e-03,-4.06,-4.58
3.600e-03,-4.5,-3.94
3.613e-03,-3.86,-4.38
3.626e-03,-4.3,-3.74
3.638e-03,-3.74,-4.22
3.651e-03,-4.02,-3.66
3.664e-03,-4.06,-4.74
3.677e-03,-4.58,-3.82
3.690e-03,-3.78,-4.58
3.702e-03,-4.14,-3.7
3.715e-03,-4.38,-4.62
3.728e-03,-4.5,-3.98
3.741e-03,-4.26,-4.82
3.754e-03,-4.54,-3.94
3.766e-03,-4.06,-4.7
3.779e-03,-4.46,-3.98
3.792e-03,-4.46,-4.54
3.805e-03,-4.18,-4.02
3.818e-03,-3.94,-4.42
3.830e-03,-3.94,-3.82
3.843e-03,-4.3,-4.42
3.856e-03,-4.14,-4.02
3.869e-03,-4.06,-4.62
3.882e-03,-4.14,-3.98
3.894e-03,-3.94,-4.38
3.907e-03,-4.14,-3.86
3.920e-03,-4.18,-4.66
3.933e-03,-4.18,-3.94
3.946e-03,-3.9,-4.26
3.958e-03,-4.18,-3.78
3.971e-03,-4.1,-4.14
3.984e-03,-3.7,-3.54
3.997e-03,-4.02,-4.1
4.010e-03,-3.74,-3.62
4.022e-03,-3.86,-4.66
4.035e-03,-4.58,-3.74
4.048e-03,-4.46,-4.82
4.061e-03,-4.66,-4.26
4.074e-03,-3.98,-4.5
4.086e-03,-4.14,-3.86
4.099e-03,-4.06,-4.54
4.112e-03,-4.02,-3.82
4.125e-03,-4.02,-4.34
4.138e-03,-4.26,-3.9
4.150e-03,-4.06,-4.34
4.163e-03,-4.02,-3.94
4.176e-03,-4.34,-4.66
4.189e-03,-4.58,-3.94
4.202e-03,-4.42,-4.66
4.214e-03,-4.34,-3.98
4.227e-03,-4.42,-4.7
4.240e-03,-4.54,-4.06
4.253e-03,-4.34,-4.66
4.266e-03,-3.86,-3.66
4.278e-03,-3.98,-4.58
4.291e-03,-4.54,-3.7
4.304e-03,-4.22,-4.42
4.317e-03,-4.22,-3.78
4.330e-03,-4.02,-4.54
4.342e-03,-4.34,-3.94
4.355e-03,-4.18,-4.54
4.368e-03,-4.14,-4.06
4.381e-03,-4.3,-4.5
4.394e-03,-4.26,-4.14
4.406e-03,-4.02,-4.42
4.419e-03,-3.94,-3.86
4.432e-03,-4.5,-4.62
4.445e-03,-3.98,-3.74
4.458e-03,-4.22,-4.3
4.470e-03,-3.98,-3.7
4.483e-03,-3.78,-4.14
4.496e-03,-4.06,-3.58
4.509e-03,-3.54,-4.58
4.522e-03,-4.26,-3.5
4.534e-03,-4.46,-4.62
4.547e-03,-4.06,-3.9
4.560e-03,-4.14,-4.58
4.573e-03,-4.18,-3.94
4.586e-03,-4.38,-4.5
4.598e-03,-4.38,-3.98
4.611e-03,-3.74,-4.58
4.624e-03,-4.34,-3.62
4.637e-03,-3.9,-4.58
4.650e-03,-4.14,-3.78
4.662e-03,-4.14,-4.26
4.675e-03,-3.98,-3.66
4.688e-03,-4.34,-4.5
4.701e-03,-4.38,-3.62
4.714e-03,-4.18,-4.7
4.726e-03,-4.06,-3.9
4.739e-03,-4.34,-4.46
4.752e-03,-4.02,-3.78
4.765e-03,-3.98,-4.58
4.778e-03,-4.54,-3.58
4.790e-03,-4.1,-4.5
4.803e-03,-4.38,-3.9
4.816e-03,-4.14,-4.42
4.829e-03,-4.1,-3.9
4.842e-03,-4.06,-4.34
4.854e-03,-3.86,-3.78
4.867e-03,-4.38,-4.58
4.880e-03,-4.46,-4.06
4.893e-03,-4.18,-4.5
4.906e-03,-4.18,-4.02
4.918e-03,-4.42,-4.62
4.931e-03,-3.98,-3.9
4.944e-03,-3.74,-4.74
4.957e-03,-4.62,-3.66
4.970e-03,-4.3,-4.38
4.982e-03,-3.98,-3.86
4.995e-03,-3.98,-4.34
5.008e-03,-4.02,-3.74
5.021e-03,-4.22,-4.46
5.034e-03,-4.14,-4.02
5.046e-03,-4.34,-4.82
5.059e-03,-4.38,-4.14
5.072e-03,-4.02,-4.54
5.085e-03,-3.7,-3.46
5.098e-03,-4.26,-4.58
5.110e-03,-4.1,-3.9
5.123e-03,-4.22,-4.46
5.136e-03,-4.26,-3.82
5.149e-03,-4.22,-4.34
5.162e-03,-4.1,-4.02
5.174e-03,-4.3,-4.58
5.187e-03,-3.94,-3.9
5.200e-03,-4.14,-4.38
5.213e-03,-4.26,-3.7
5.226e-03,-4.22,-4.5
5.238e-03,-4.18,-3.98
5.251e-03,-4.58,-4.9
5.264e-03,-4.02,-3.54
5.277e-03,-4.3,-4.42
5.290e-03,-3.58,-3.5
5.302e-03,-3.86,-4.46
5.315e-03,-4.3,-3.7
5.328e-03,-4.18,-4.38
5.341e-03,-4.3,-3.82
5.354e-03,-4.06,-4.42
5.366e-03,-4.3,-3.9
5.379e-03,-3.86,-4.3
5.392e-03,-4.02,-3.66
5.405e-03,-4.26,-4.54
5.418e-03,-4.3,-3.94
5.430e-03,-4.14,-4.54
5.443e-03,-3.74,-3.66
5.456e-03,-4.02,-4.62
5.469e-03,-4.26,-3.74
5.482e-03,-4.02,-4.3
5.494e-03,-3.98,-3.62
5.507e-03,-4.26,-4.62
5.520e-03,-4.22,-4.06
5.533e-03,-4.22,-4.46
5.546e-03,-3.78,-3.74
5.558e-03,-3.9,-4.3
5.571e-03,-4.02,-3.82
5.584e-03,-4.02,-4.46
5.597e-03,-4.22,-3.9
5.610e-03,-4.1,-4.42
5.622e-03,-3.98,-3.74
5.635e-03,-4.3,-4.38
5.648e-03,-3.98,-3.78
5.661e-03,-4.22,-4.7
5.674e-03,-4.54,-3.82
5.686e-03,-4.14,-4.62
5.699e-03,-4.22,-4.1
5.712e-03,-4.14,-4.34
5.725e-03,-4.14,-3.98
5.738e-03,-4.1,-4.3
5.750e-03,-3.82,-3.74
5.763e-03,-4.22,-4.42
5.776e-03,-3.94,-3.86
5.789e-03,-4.06,-4.5
5.802e-03,-4.34,-3.82
5.814e-03,-4.02,-4.54
5.827e-03,-4.14,-3.82
5.840e-03,-4.1,-4.34
5.853e-03,-4.26,-3.86
5.866e-03,-3.86,-4.54
5.878e-03,-4.1,-3.54
5.891e-03,-4.1,-4.46
5.904e-03,-4.22,-3.98
5.917e-03,-4.38,-4.5
5.930e-03,-3.74,-3.66
5.942e-03,-4.06,-4.34
5.955e-03,-3.9,-3.7
5.968e-03,-4.18,-4.38
5.981e-03,-3.98,-3.86
5.994e-03,-4.38,-4.5
6.006e-03,-3.98,-3.66
6.019e-03,-4.02,-4.86
6.032e-03,-4.7,-3.74
6.045e-03,-4.06,-4.5
6.058e-03,-3.94,-3.86
6.070e-03,-4.38,-4.5
6.083e-03,-4.14,-4.02
6.096e-03,-4.26,-4.58
6.109e-03,-4.22,-3.86
6.122e-03,-4.26,-4.62
6.134e-03,-4.22,-3.98
6.147e-03,-3.98,-4.3
6.160e-03,-4.06,-3.86
6.173e-03,-4.18,-4.58
6.186e-03,-4.34,-4.02
6.198e-03,-4.14,-4.62
6.211e-03,-4.18,-3.98
6.224e-03,-4.46,-4.58
6.237e-03,-4.14,-3.9
6.250e-03,-4.18,-4.46
6.262e-03,-4.14,-3.82
6.275e-03,-3.9,-4.22
6.288e-03,-4.1,-3.7
6.301e-03,-3.78,-4.14
6.314e-03,-3.74,-3.5
6.326e-03,-3.98,-4.38
6.339e-03,-4.18,-3.86
6.352e-03,-4.22,-4.42
6.365e-03,-4.02,-3.86
6.378e-03,-4.1,-4.3
6.390e-03,-4.22,-3.74
6.403e-03,-4.02,-4.42
6.416e-03,-4.02,-3.82
6.429e-03,-4.1,-4.54
6.442e-03,-4.14,-3.9
6.454e-03,-4.14,-4.54
6.467e-03,-3.86,-3.7
6.480e-03,-3.94,-4.02
6.493e-03,-3.22,-3.14
6.506e-03,-4.34,-4.7
6.518e-03,-4.14,-3.38
6.531e-03,-3.94,-4.3
6.544e-03,-3.58,-3.5
6.557e-03,-4.02,-4.74
6.570e-03,-4.5,-3.94
6.582e-03,-4.3,-4.66
6.595e-03,-4.06,-4.02
6.608e-03,-3.98,-4.34
6.621e-03,-3.9,-3.58
6.634e-03,-3.86,-4.42
6.646e-03,-4.3,-3.54
6.659e-03,-4.22,-4.34
6.672e-03,-4.02,-3.78
6.685e-03,-3.98,-4.62
6.698e-03,-3.94,-3.78
6.710e-03,-4.22,-4.7
6.723e-03,-4.58,-3.94
6.736e-03,-3.98,-4.54
6.749e-03,-4.22,-3.86
6.762e-03,-4.3,-4.54
6.774e-03,-4.34,-3.86
6.787e-03,-4.02,-4.62
6.800e-03,-4.1,-3.54
6.813e-03,-4.1,-4.42
6.826e-03,-4.22,-3.86
6.838e-03,-4.34,-4.82
6.851e-03,-4.66,-4.26
6.864e-03,-4.38,-4.82
6.877e-03,-3.9,-3.82
6.890e-03,-3.86,-4.54
6.902e-03,-4.42,-3.74
6.915e-03,-4.1,-4.3
6.928e-03,-3.94,-3.7
6.941e-03,-3.78,-4.1
6.954e-03,-3.82,-3.66
6.966e-03,-4.18,-4.38
6.979e-03,-3.94,-3.74
6.992e-03,-3.5,-4.42
7.005e-03,-4.18,-3.46
7.018e-03,-4.1,-4.62
7.030e-03,-4.5,-3.98
7.043e-03,-4.02,-4.7
7.056e-03,-4.1,-3.82
7.069e-03,-3.94,-4.74
7.082e-03,-3.9,-3.74
7.094e-03,-4.18,-4.42
7.107e-03,-4.26,-3.94
7.120e-03,-4.18,-4.38
7.133e-03,-4.06,-3.82
7.146e-03,-4.38,-4.54
7.158e-03,-4.22,-3.98
7.171e-03,-4.74,-4.82
7.184e-03,-3.94,-3.86
7.197e-03,-4.3,-4.46
7.210e-03,-4.1,-3.94
7.222e-03,-4.42,-4.54
7.235e-03,-4.34,-4.02
7.248e-03,-4.3,-4.62
7.261e-03,-4.3,-3.98
7.274e-03,-4.02,-4.26
7.286e-03,-3.82,-3.74
7.299e-03,-3.98,-4.26
7.312e-03,-4.1,-3.78
7.325e-03,-4.3,-4.42
7.338e-03,-4.18,-4.02
7.350e-03,-4.26,-4.42
7.363e-03,-4.02,-3.86
7.376e-03,-4.46,-4.54
7.389e-03,-4.42,-4.02
7.402e-03,-4.3,-4.66
7.414e-03,-3.98,-3.78
7.427e-03,-3.74,-4.34
7.440e-03,-4.14,-3.66
7.453e-03,-4.14,-4.26
7.466e-03,-3.98,-3.94
7.478e-03,-4.02,-4.34
7.491e-03,-4.26,-3.94
7.504e-03,-4.18,-4.7
7.517e-03,-4.34,-3.98
7.530e-03,-3.98,-4.78
7.542e-03,-4.46,-3.78
7.555e-03,-4.02,-4.82
7.568e-03,-4.14,-3.74
7.581e-03,-3.98,-4.18
7.594e-03,-4.06,-3.74
7.606e-03,-4.42,-4.5
7.619e-03,-3.9,-3.74
7.632e-03,-3.86,-4.58
7.645e-03,-4.42,-3.7
7.658e-03,-4.18,-4.54
7.670e-03,-4.1,-4.02
7.683e-03,-4.3,-4.58
7.696e-03,-3.94,-3.78
7.709e-03,-4.14,-4.34
