rawdata/T0038CH1.CSV

Model,DPO2002B
Firmware Version,1.52

Point Format,Y,
Horizontal Units,S,
Horizontal Scale,0.004,
Sample Interval,3.2e-07,
Filter Frequency,275000,
Record Length,125000,
Gating,0.0% to 100.0%,
Probe Attenuation,10,
Vertical Units,V,
Vertical Offset,0,
Vertical Scale,2,
Label,,
TIME,CH1,CH1 Peak Detect
-3.76000e-03,-4.32,-4.24
-3.75968e-03,-4.32,-4.4
-3.75936e-03,-4.32,-4.24
-3.75904e-03,-4.32,-4.4
-3.75872e-03,-4.32,-4.24
-3.75840e-03,-4.32,-4.4
-3.75808e-03,-4.32,-4.24
-3.75776e-03,-4.32,-4.4
-3.75744e-03,-4.32,-4.24
-3.75712e-03,-4.32,-4.4
-3.75680e-03,-4.32,-4.24
-3.75648e-03,-4.32,-4.4
-3.75616e-03,-4.32,-4.24
-3.75584e-03,-4.32,-4.4
-3.75552e-03,-4.32,-4.24
-3.75520e-03,-4.32,-4.4
-3.75488e-03,-4.32,-4.24
-3.75456e-03,-4.32,-4.4
-3.75424e-03,-4.32,-4.24
-3.75392e-03,-4.32,-4.4
-3.75360e-03,-4.32,-4.24
-3.75328e-03,-4.32,-4.4
-3.75296e-03,-4.32,-4.24
-3.75264e-03,-4.24,-4.4
-3.75232e-03,-4.24,-4.16
-3.75200e-03,-4.24,-4.32
-3.75168e-03,-4.24,-4.16
-3.75136e-03,-4.16,-4.32
-3.75104e-03,-4.16,-4.16
-3.75072e-03,-4.16,-4.24
-3.75040e-03,-4.08,-4.08
-3.75008e-03,-4.08,-4.24
-3.74976e-03,-4.08,-4
-3.74944e-03,-4.08,-4.16
-3.74912e-03,-4.08,-4
-3.74880e-03,-4.08,-4.16
-3.74848e-03,-4.08,-4
-3.74816e-03,-4,-4.16
-3.74784e-03,-4,-4
-3.74752e-03,-4,-4.08
-3.74720e-03,-4,-3.92
-3.74688e-03,-3.92,-4.08
-3.74656e-03,-3.92,-3.84
-3.74624e-03,-3.92,-4
-3.74592e-03,-3.92,-3.84
-3.74560e-03,-3.92,-4
-3.74528e-03,-3.84,-3.84
-3.74496e-03,-3.84,-4
-3.74464e-03,-3.84,-3.84
-3.74432e-03,-3.84,-3.92
-3.74400e-03,-3.92,-3.76
-3.74368e-03,-3.92,-3.92
-3.74336e-03,-3.92,-3.76
-3.74304e-03,-3.92,-4
-3.74272e-03,-3.92,-3.76
-3.74240e-03,-3.92,-4.08
-3.74208e-03,-3.92,-3.92
-3.74176e-03,-3.92,-4.08
-3.74144e-03,-3.92,-3.92
-3.74112e-03,-3.92,-4.08
-3.74080e-03,-3.92,-3.84
-3.74048e-03,-4,-4
-3.74016e-03,-4,-3.84
-3.73984e-03,-4,-4.08
-3.73952e-03,-4,-3.84
-3.73920e-03,-4.08,-4.08
-3.73888e-03,-4.08,-3.92
-3.73856e-03,-4.08,-4.16
-3.73824e-03,-4.08,-4
-3.73792e-03,-4.08,-4.16
-3.73760e-03,-4.08,-4
-3.73728e-03,-4.16,-4.16
-3.73696e-03,-4.16,-4
-3.73664e-03,-4.16,-4.24
-3.73632e-03,-4.24,-4
-3.73600e-03,-4.24,-4.32
-3.73568e-03,-4.24,-4.08
-3.73536e-03,-4.24,-4.32
-3.73504e-03,-4.24,-4.16
-3.73472e-03,-4.24,-4.32
-3.73440e-03,-4.16,-4.16
-3.73408e-03,-4.16,-4.32
-3.73376e-03,-4.16,-4.08
-3.73344e-03,-4.16,-4.24
-3.73312e-03,-4.16,-4.08
-3.73280e-03,-4.16,-4.24
-3.73248e-03,-4.08,-4.08
-3.73216e-03,-4.08,-4.24
-3.73184e-03,-4.08,-4
-3.73152e-03,-4,-4.16
-3.73120e-03,-4,-4
-3.73088e-03,-4,-4.08
-3.73056e-03,-4,-3.92
-3.73024e-03,-4,-4.08
-3.72992e-03,-3.92,-3.92
-3.72960e-03,-3.92,-4.08
-3.72928e-03,-3.92,-3.84
-3.72896e-03,-3.92,-4
-3.72864e-03,-3.92,-3.84
-3.72832e-03,-3.92,-4
-3.72800e-03,-3.92,-3.84
-3.72768e-03,-3.92,-4
-3.72736e-03,-3.92,-3.84
-3.72704e-03,-3.92,-4
-3.72672e-03,-3.92,-3.84
-3.72640e-03,-3.92,-4
-3.72608e-03,-3.92,-3.84
-3.72576e-03,-3.92,-4
-3.72544e-03,-3.92,-3.84
-3.72512e-03,-3.92,-4
-3.72480e-03,-3.92,-3.84
-3.72448e-03,-3.92,-4
-3.72416e-03,-3.92,-3.84
-3.72384e-03,-3.92,-4
-3.72352e-03,-3.92,-3.84
-3.72320e-03,-3.92,-4
-3.72288e-03,-3.92,-3.84
-3.72256e-03,-3.92,-4
-3.72224e-03,-3.92,-3.84
-3.72192e-03,-3.92,-4
-3.72160e-03,-3.92,-3.84
-3.72128e-03,-3.92,-4
-3.72096e-03,-3.92,-3.84
-3.72064e-03,-3.92,-4
-3.72032e-03,-3.92,-3.84
-3.72000e-03,-3.92,-4
-3.71968e-03,-3.92,-3.84
-3.71936e-03,-3.92,-4
-3.71904e-03,-3.92,-3.84
-3.71872e-03,-3.92,-4
-3.71840e-03,-3.92,-3.84
-3.71808e-03,-3.92,-4
-3.71776e-03,-3.92,-3.84
-3.71744e-03,-3.92,-4
-3.71712e-03,-3.92,-3.84
-3.71680e-03,-3.92,-4
-3.71648e-03,-3.92,-3.84
-3.71616e-03,-4,-4.08
-3.71584e-03,-4,-3.84
-3.71552e-03,-4,-4.08
-3.71520e-03,-4.08,-3.92
-3.71488e-03,-4.08,-4.08
-3.71456e-03,-4.08,-3.92
-3.71424e-03,-4.08,-4.16
-3.71392e-03,-4.08,-4
-3.71360e-03,-4.08,-4.16
-3.71328e-03,-4.08,-4
-3.71296e-03,-4.08,-4.16
-3.71264e-03,-4,-4
-3.71232e-03,-4,-4.16
-3.71200e-03,-4,-4
-3.71168e-03,-4,-4.08
-3.71136e-03,-4,-3.92
-3.71104e-03,-4,-4.08
-3.71072e-03,-3.92,-3.92
-3.71040e-03,-3.92,-4.08
-3.71008e-03,-3.92,-3.92
-3.70976e-03,-3.92,-4
-3.70944e-03,-4,-3.92
-3.70912e-03,-4,-4.08
-3.70880e-03,-4,-3.84
-3.70848e-03,-4,-4.08
-3.70816e-03,-4,-3.92
-3.70784e-03,-3.92,-4.08
-3.70752e-03,-3.92,-3.92
-3.70720e-03,-3.92,-4.08
-3.70688e-03,-3.92,-3.84
-3.70656e-03,-3.92,-4
-3.70624e-03,-3.84,-3.84
-3.70592e-03,-3.84,-4
-3.70560e-03,-3.84,-3.84
-3.70528e-03,-3.84,-3.92
-3.70496e-03,-3.84,-3.76
-3.70464e-03,-3.84,-3.92
-3.70432e-03,-3.84,-3.76
-3.70400e-03,-3.76,-3.92
-3.70368e-03,-3.76,-3.76
-3.70336e-03,-3.76,-3.92
-3.70304e-03,-3.76,-3.68
-3.70272e-03,-3.76,-3.84
-3.70240e-03,-3.68,-3.6
-3.70208e-03,-3.68,-3.84
-3.70176e-03,-3.68,-3.6
-3.70144e-03,-3.68,-3.76
-3.70112e-03,-3.76,-3.6
-3.70080e-03,-3.76,-3.84
-3.70048e-03,-3.76,-3.6
-3.70016e-03,-3.76,-3.84
-3.69984e-03,-3.76,-3.68
-3.69952e-03,-3.76,-3.84
-3.69920e-03,-3.84,-3.68
-3.69888e-03,-3.84,-3.92
-3.69856e-03,-3.84,-3.76
-3.69824e-03,-3.84,-3.92
-3.69792e-03,-3.92,-3.76
-3.69760e-03,-3.92,-4
-3.69728e-03,-3.92,-3.76
-3.69696e-03,-4,-4
-3.69664e-03,-4,-3.84
-3.69632e-03,-4.08,-4.08
-3.69600e-03,-4.08,-3.92
-3.69568e-03,-4.16,-4.16
-3.69536e-03,-4.16,-4
-3.69504e-03,-4.16,-4.24
-3.69472e-03,-4.16,-4.08
-3.69440e-03,-4.16,-4.24
-3.69408e-03,-4.24,-4.08
-3.69376e-03,-4.24,-4.32
-3.69344e-03,-4.24,-4.08
-3.69312e-03,-4.24,-4.32
-3.69280e-03,-4.24,-4.16
-3.69248e-03,-4.24,-4.32
-3.69216e-03,-4.24,-4.16
-3.69184e-03,-4.24,-4.32
-3.69152e-03,-4.24,-4.16
-3.69120e-03,-4.24,-4.32
-3.69088e-03,-4.24,-4.16
-3.69056e-03,-4.24,-4.32
-3.69024e-03,-4.24,-4.16
-3.68992e-03,-4.24,-4.32
-3.68960e-03,-4.24,-4.16
-3.68928e-03,-4.24,-4.32
-3.68896e-03,-4.24,-4.16
-3.68864e-03,-4.24,-4.32
-3.68832e-03,-4.24,-4.16
-3.68800e-03,-4.24,-4.32
-3.68768e-03,-4.24,-4.16
-3.68736e-03,-4.16,-4.32
-3.68704e-03,-4.16,-4.16
-3.68672e-03,-4.16,-4.24
-3.68640e-03,-4.08,-4.08
-3.68608e-03,-4.08,-4.24
-3.68576e-03,-4,-4
-3.68544e-03,-4,-4.16
-3.68512e-03,-3.92,-3.92
-3.68480e-03,-3.92,-4.08
-3.68448e-03,-3.92,-3.84
-3.68416e-03,-3.92,-4
-3.68384e-03,-3.92,-3.84
-3.68352e-03,-3.92,-4
-3.68320e-03,-3.92,-3.84
-3.68288e-03,-3.92,-4
-3.68256e-03,-3.92,-3.84
-3.68224e-03,-3.92,-4
-3.68192e-03,-3.92,-3.84
-3.68160e-03,-3.92,-4
-3.68128e-03,-4,-3.84
-3.68096e-03,-4,-4.08
-3.68064e-03,-4,-3.84
-3.68032e-03,-4,-4.08
-3.68000e-03,-4.08,-3.92
-3.67968e-03,-4.08,-4.16
-3.67936e-03,-4.08,-3.92
-3.67904e-03,-4.16,-4.16
-3.67872e-03,-4.16,-4
-3.67840e-03,-4.24,-4.24
-3.67808e-03,-4.24,-4.08
-3.67776e-03,-4.32,-4.32
-3.67744e-03,-4.32,-4.16
-3.67712e-03,-4.32,-4.4
-3.67680e-03,-4.32,-4.24
-3.67648e-03,-4.4,-4.48
-3.67616e-03,-4.4,-4.24
-3.67584e-03,-4.4,-4.48
-3.67552e-03,-4.4,-4.32
-3.67520e-03,-4.4,-4.48
-3.67488e-03,-4.4,-4.32
-3.67456e-03,-4.4,-4.48
-3.67424e-03,-4.4,-4.32
-3.67392e-03,-4.4,-4.48
-3.67360e-03,-4.4,-4.32
-3.67328e-03,-4.32,-4.48
-3.67296e-03,-4.32,-4.32
-3.67264e-03,-4.32,-4.4
-3.67232e-03,-4.24,-4.24
-3.67200e-03,-4.24,-4.32
-3.67168e-03,-4.16,-4.16
-3.67136e-03,-4.16,-4.32
-3.67104e-03,-4.16,-4.08
-3.67072e-03,-4.16,-4.24
-3.67040e-03,-4.08,-4.08
-3.67008e-03,-4.08,-4.24
-3.66976e-03,-4.08,-4
-3.66944e-03,-4.08,-4.16
-3.66912e-03,-4.08,-4
-3.66880e-03,-4.08,-4.16
-3.66848e-03,-4.08,-4
-3.66816e-03,-4.08,-4.08
-3.66784e-03,-4.08,-3.92
-3.66752e-03,-4.08,-4.16
-3.66720e-03,-4.08,-4
-3.66688e-03,-4.08,-4.16
-3.66656e-03,-4.08,-4
-3.66624e-03,-4.08,-4.16
-3.66592e-03,-4.16,-4
-3.66560e-03,-4.16,-4.24
-3.66528e-03,-4.16,-4
-3.66496e-03,-4.16,-4.24
-3.66464e-03,-4.16,-4.08
-3.66432e-03,-4.16,-4.24
-3.66400e-03,-4.16,-4.08
-3.66368e-03,-4.16,-4.24
-3.66336e-03,-4.16,-4.08
-3.66304e-03,-4.16,-4.24
-3.66272e-03,-4.16,-4.08
-3.66240e-03,-4.08,-4.24
-3.66208e-03,-4.08,-4
-3.66176e-03,-4.08,-4.16
-3.66144e-03,-4.08,-4
-3.66112e-03,-4.08,-4.16
-3.66080e-03,-4.08,-4
-3.66048e-03,-4,-4.16
-3.66016e-03,-4,-4
-3.65984e-03,-4,-4.08
-3.65952e-03,-4,-3.92
-3.65920e-03,-4,-4.08
-3.65888e-03,-4,-3.92
-3.65856e-03,-3.92,-4.08
-3.65824e-03,-3.92,-3.92
-3.65792e-03,-3.92,-4
-3.65760e-03,-3.92,-3.84
-3.65728e-03,-3.92,-4
-3.65696e-03,-3.92,-3.84
-3.65664e-03,-3.84,-4
-3.65632e-03,-3.84,-3.76
-3.65600e-03,-3.84,-3.92
-3.65568e-03,-3.84,-3.76
-3.65536e-03,-3.76,-3.92
-3.65504e-03,-3.76,-3.76
-3.65472e-03,-3.76,-3.84
-3.65440e-03,-3.76,-3.68
-3.65408e-03,-3.76,-3.84
-3.65376e-03,-3.76,-3.68
-3.65344e-03,-3.76,-3.84
-3.65312e-03,-3.76,-3.68
-3.65280e-03,-3.76,-3.84
-3.65248e-03,-3.76,-3.68
-3.65216e-03,-3.76,-3.84
-3.65184e-03,-3.76,-3.68
-3.65152e-03,-3.76,-3.84
-3.65120e-03,-3.84,-3.68
-3.65088e-03,-3.84,-3.84
-3.65056e-03,-3.84,-3.68
-3.65024e-03,-3.92,-3.92
-3.64992e-03,-3.92,-3.76
-3.64960e-03,-3.92,-4
-3.64928e-03,-4,-3.84
-3.64896e-03,-4,-4.08
-3.64864e-03,-4,-3.92
-3.64832e-03,-4,-4.08
-3.64800e-03,-4,-3.92
-3.64768e-03,-4,-4.08
-3.64736e-03,-4,-3.92
-3.64704e-03,-4.08,-4.08
-3.64672e-03,-4.08,-3.92
-3.64640e-03,-4.08,-4.16
-3.64608e-03,-4.08,-4
-3.64576e-03,-4.16,-4.16
-3.64544e-03,-4.16,-4.08
-3.64512e-03,-4.08,-4.24
-3.64480e-03,-4.08,-4.08
-3.64448e-03,-4.08,-4.16
-3.64416e-03,-4.08,-4
-3.64384e-03,-4.08,-4.16
-3.64352e-03,-4.16,-4
-3.64320e-03,-4.16,-4.24
-3.64288e-03,-4.16,-4
-3.64256e-03,-4.16,-4.24
-3.64224e-03,-4.24,-4.08
-3.64192e-03,-4.24,-4.32
-3.64160e-03,-4.24,-4.16
-3.64128e-03,-4.32,-4.4
-3.64096e-03,-4.32,-4.16
-3.64064e-03,-4.32,-4.4
-3.64032e-03,-4.32,-4.16
-3.64000e-03,-4.4,-4.4
-3.63968e-03,-4.4,-4.24
-3.63936e-03,-4.48,-4.48
-3.63904e-03,-4.48,-4.24
-3.63872e-03,-4.48,-4.56
-3.63840e-03,-4.48,-4.4
-3.63808e-03,-4.48,-4.64
-3.63776e-03,-4.56,-4.4
-3.63744e-03,-4.56,-4.64
-3.63712e-03,-4.48,-4.4
-3.63680e-03,-4.48,-4.64
-3.63648e-03,-4.48,-4.4
-3.63616e-03,-4.48,-4.64
-3.63584e-03,-4.48,-4.4
-3.63552e-03,-4.48,-4.56
-3.63520e-03,-4.48,-4.4
-3.63488e-03,-4.48,-4.56
-3.63456e-03,-4.48,-4.4
-3.63424e-03,-4.48,-4.56
-3.63392e-03,-4.48,-4.4
-3.63360e-03,-4.48,-4.56
-3.63328e-03,-4.48,-4.4
-3.63296e-03,-4.4,-4.56
-3.63264e-03,-4.4,-4.32
-3.63232e-03,-4.4,-4.56
-3.63200e-03,-4.4,-4.32
-3.63168e-03,-4.4,-4.48
-3.63136e-03,-4.4,-4.32
-3.63104e-03,-4.4,-4.48
-3.63072e-03,-4.4,-4.32
-3.63040e-03,-4.4,-4.56
-3.63008e-03,-4.4,-4.32
-3.62976e-03,-4.4,-4.48
-3.62944e-03,-4.4,-4.32
-3.62912e-03,-4.4,-4.48
-3.62880e-03,-4.4,-4.32
-3.62848e-03,-4.4,-4.48
-3.62816e-03,-4.4,-4.32
-3.62784e-03,-4.4,-4.48
-3.62752e-03,-4.4,-4.24
-3.62720e-03,-4.48,-4.48
-3.62688e-03,-4.48,-4.32
-3.62656e-03,-4.48,-4.56
-3.62624e-03,-4.48,-4.4
-3.62592e-03,-4.48,-4.56
-3.62560e-03,-4.48,-4.4
-3.62528e-03,-4.56,-4.56
-3.62496e-03,-4.56,-4.4
-3.62464e-03,-4.56,-4.64
-3.62432e-03,-4.56,-4.4
-3.62400e-03,-4.64,-4.72
-3.62368e-03,-4.64,-4.48
-3.62336e-03,-4.64,-4.72
-3.62304e-03,-4.64,-4.56
-3.62272e-03,-4.64,-4.8
-3.62240e-03,-4.64,-4.56
-3.62208e-03,-4.64,-4.72
-3.62176e-03,-4.64,-4.56
-3.62144e-03,-4.64,-4.72
-3.62112e-03,-4.64,-4.48
-3.62080e-03,-4.64,-4.72
-3.62048e-03,-4.64,-4.48
-3.62016e-03,-4.64,-4.72
-3.61984e-03,-4.72,-4.48
-3.61952e-03,-4.72,-4.8
-3.61920e-03,-4.72,-4.56
-3.61888e-03,-4.72,-4.8
-3.61856e-03,-4.72,-4.64
-3.61824e-03,-4.72,-4.8
-3.61792e-03,-4.72,-4.64
-3.61760e-03,-4.72,-4.8
-3.61728e-03,-4.64,-4.64
-3.61696e-03,-4.64,-4.8
-3.61664e-03,-4.64,-4.64
-3.61632e-03,-4.64,-4.72
-3.61600e-03,-4.56,-4.56
-3.61568e-03,-4.56,-4.64
-3.61536e-03,-4.56,-4.48
-3.61504e-03,-4.48,-4.64
-3.61472e-03,-4.48,-4.4
-3.61440e-03,-4.4,-4.56
-3.61408e-03,-4.4,-4.4
-3.61376e-03,-4.32,-4.48
-3.61344e-03,-4.32,-4.32
-3.61312e-03,-4.32,-4.48
-3.61280e-03,-4.24,-4.24
-3.61248e-03,-4.24,-4.4
-3.61216e-03,-4.24,-4.16
-3.61184e-03,-4.24,-4.32
-3.61152e-03,-4.24,-4.16
-3.61120e-03,-4.24,-4.32
-3.61088e-03,-4.24,-4.16
-3.61056e-03,-4.24,-4.32
-3.61024e-03,-4.24,-4.16
-3.60992e-03,-4.24,-4.32
-3.60960e-03,-4.24,-4.16
-3.60928e-03,-4.24,-4.32
-3.60896e-03,-4.24,-4.16
-3.60864e-03,-4.16,-4.32
-3.60832e-03,-4.16,-4.16
-3.60800e-03,-4.16,-4.24
-3.60768e-03,-4.16,-4.08
-3.60736e-03,-4.16,-4.24
-3.60704e-03,-4.16,-4.08
-3.60672e-03,-4.16,-4.24
-3.60640e-03,-4.16,-4.08
-3.60608e-03,-4.16,-4.24
-3.60576e-03,-4.24,-4.08
-3.60544e-03,-4.24,-4.32
-3.60512e-03,-4.24,-4.08
-3.60480e-03,-4.24,-4.32
-3.60448e-03,-4.24,-4.16
-3.60416e-03,-4.24,-4.32
-3.60384e-03,-4.24,-4.16
-3.60352e-03,-4.24,-4.32
-3.60320e-03,-4.24,-4.16
-3.60288e-03,-4.24,-4.32
-3.60256e-03,-4.24,-4.16
-3.60224e-03,-4.24,-4.32
-3.60192e-03,-4.24,-4.16
-3.60160e-03,-4.24,-4.32
-3.60128e-03,-4.24,-4.16
-3.60096e-03,-4.24,-4.4
-3.60064e-03,-4.24,-4.16
-3.60032e-03,-4.24,-4.4
-3.60000e-03,-4.24,-4.16
-3.59968e-03,-4.16,-4.32
-3.59936e-03,-4.16,-4.16
-3.59904e-03,-4.16,-4.24
-3.59872e-03,-4.08,-4.08
-3.59840e-03,-4.08,-4.24
-3.59808e-03,-4.08,-4
-3.59776e-03,-4.08,-4.16
-3.59744e-03,-4.08,-4
-3.59712e-03,-4.08,-4.16
-3.59680e-03,-4.08,-4
-3.59648e-03,-4,-4.16
-3.59616e-03,-4,-3.92
-3.59584e-03,-4,-4.16
-3.59552e-03,-4,-3.92
-3.59520e-03,-4.08,-4.08
-3.59488e-03,-4.08,-3.92
-3.59456e-03,-4.08,-4.16
-3.59424e-03,-4.08,-3.92
-3.59392e-03,-4.16,-4.24
-3.59360e-03,-4.16,-4
-3.59328e-03,-4.16,-4.24
-3.59296e-03,-4.16,-4.08
-3.59264e-03,-4.16,-4.24
-3.59232e-03,-4.16,-4.08
-3.59200e-03,-4.24,-4.32
-3.59168e-03,-4.24,-4.16
-3.59136e-03,-4.24,-4.32
-3.59104e-03,-4.24,-4.16
-3.59072e-03,-4.24,-4.32
-3.59040e-03,-4.32,-4.16
-3.59008e-03,-4.32,-4.4
-3.58976e-03,-4.32,-4.16
-3.58944e-03,-4.32,-4.4
-3.58912e-03,-4.32,-4.24
-3.58880e-03,-4.32,-4.4
-3.58848e-03,-4.32,-4.24
-3.58816e-03,-4.32,-4.4
-3.58784e-03,-4.32,-4.24
-3.58752e-03,-4.32,-4.4
-3.58720e-03,-4.32,-4.24
-3.58688e-03,-4.24,-4.4
-3.58656e-03,-4.24,-4.24
-3.58624e-03,-4.24,-4.4
-3.58592e-03,-4.24,-4.16
-3.58560e-03,-4.24,-4.32
-3.58528e-03,-4.24,-4.16
-3.58496e-03,-4.24,-4.32
-3.58464e-03,-4.16,-4.16
-3.58432e-03,-4.16,-4.32
-3.58400e-03,-4.16,-4.16
-3.58368e-03,-4.16,-4.24
-3.58336e-03,-4.16,-4.08
-3.58304e-03,-4.16,-4.24
-3.58272e-03,-4.08,-4.08
-3.58240e-03,-4.08,-4.24
-3.58208e-03,-4.08,-4
-3.58176e-03,-4,-4.16
-3.58144e-03,-4,-4
-3.58112e-03,-4,-4.08
-3.58080e-03,-3.92,-3.92
-3.58048e-03,-3.92,-4.08
-3.58016e-03,-3.92,-3.92
-3.57984e-03,-3.92,-4
-3.57952e-03,-3.92,-3.84
-3.57920e-03,-3.84,-3.92
-3.57888e-03,-3.84,-3.76
-3.57856e-03,-3.84,-3.92
-3.57824e-03,-3.84,-3.76
-3.57792e-03,-3.92,-4
-3.57760e-03,-3.92,-3.76
-3.57728e-03,-3.92,-4
-3.57696e-03,-3.92,-3.76
-3.57664e-03,-3.92,-4
-3.57632e-03,-3.92,-3.84
-3.57600e-03,-3.92,-4
-3.57568e-03,-3.92,-3.84
-3.57536e-03,-3.92,-4
-3.57504e-03,-3.92,-3.84
-3.57472e-03,-3.92,-4
-3.57440e-03,-3.92,-3.84
-3.57408e-03,-3.92,-4
-3.57376e-03,-3.92,-3.84
-3.57344e-03,-3.92,-4
-3.57312e-03,-4,-3.84
-3.57280e-03,-4,-4.08
-3.57248e-03,-4,-3.84
-3.57216e-03,-4,-4.08
-3.57184e-03,-4,-3.92
-3.57152e-03,-4,-4.08
-3.57120e-03,-4.08,-3.92
-3.57088e-03,-4.08,-4.16
-3.57056e-03,-4.08,-4
-3.57024e-03,-4.08,-4.16
-3.56992e-03,-4.08,-3.92
-3.56960e-03,-4.08,-4.16
-3.56928e-03,-4.16,-4
-3.56896e-03,-4.16,-4.24
-3.56864e-03,-4.16,-4
-3.56832e-03,-4.24,-4.24
-3.56800e-03,-4.24,-4.08
-3.56768e-03,-4.24,-4.32
-3.56736e-03,-4.24,-4.16
-3.56704e-03,-4.32,-4.4
-3.56672e-03,-4.32,-4.16
-3.56640e-03,-4.32,-4.4
-3.56608e-03,-4.32,-4.24
-3.56576e-03,-4.32,-4.4
-3.56544e-03,-4.32,-4.24
-3.56512e-03,-4.32,-4.4
-3.56480e-03,-4.32,-4.24
-3.56448e-03,-4.32,-4.4
-3.56416e-03,-4.32,-4.24
-3.56384e-03,-4.32,-4.4
-3.56352e-03,-4.32,-4.24
-3.56320e-03,-4.32,-4.4
-3.56288e-03,-4.32,-4.24
-3.56256e-03,-4.32,-4.4
-3.56224e-03,-4.32,-4.24
-3.56192e-03,-4.32,-4.4
-3.56160e-03,-4.24,-4.16
-3.56128e-03,-4.24,-4.4
-3.56096e-03,-4.24,-4.16
-3.56064e-03,-4.24,-4.32
-3.56032e-03,-4.24,-4.16
-3.56000e-03,-4.16,-4.32
-3.55968e-03,-4.16,-4.16
-3.55936e-03,-4.16,-4.24
-3.55904e-03,-4.24,-4.08
-3.55872e-03,-4.24,-4.32
-3.55840e-03,-4.24,-4.08
-3.55808e-03,-4.24,-4.32
-3.55776e-03,-4.24,-4.16
-3.55744e-03,-4.24,-4.32
-3.55712e-03,-4.24,-4.16
-3.55680e-03,-4.24,-4.32
-3.55648e-03,-4.32,-4.16
-3.55616e-03,-4.32,-4.4
-3.55584e-03,-4.32,-4.16
-3.55552e-03,-4.32,-4.4
-3.55520e-03,-4.32,-4.16
-3.55488e-03,-4.32,-4.4
-3.55456e-03,-4.32,-4.24
-3.55424e-03,-4.32,-4.4
-3.55392e-03,-4.32,-4.24
-3.55360e-03,-4.24,-4.4
-3.55328e-03,-4.24,-4.16
-3.55296e-03,-4.24,-4.4
-3.55264e-03,-4.24,-4.16
-3.55232e-03,-4.16,-4.32
-3.55200e-03,-4.16,-4.16
-3.55168e-03,-4.16,-4.24
-3.55136e-03,-4.16,-4.16
-3.55104e-03,-4.16,-4.24
-3.55072e-03,-4.16,-4.08
-3.55040e-03,-4.16,-4.24
-3.55008e-03,-4.16,-4.08
-3.54976e-03,-4.08,-4.24
-3.54944e-03,-4.08,-4.08
-3.54912e-03,-4.08,-4.24
-3.54880e-03,-4.08,-4
-3.54848e-03,-4.08,-4.16
-3.54816e-03,-4.08,-4
-3.54784e-03,-4.08,-4.16
-3.54752e-03,-4,-4
-3.54720e-03,-4,-4.16
-3.54688e-03,-4,-3.92
-3.54656e-03,-4,-4.08
-3.54624e-03,-4,-3.92
-3.54592e-03,-4,-4.08
-3.54560e-03,-3.92,-3.92
-3.54528e-03,-3.92,-4.08
-3.54496e-03,-3.92,-3.84
-3.54464e-03,-3.92,-4
-3.54432e-03,-4,-3.84
-3.54400e-03,-4,-4.08
-3.54368e-03,-3.92,-3.92
-3.54336e-03,-3.92,-4.08
-3.54304e-03,-3.92,-3.92
-3.54272e-03,-4,-4
-3.54240e-03,-4,-3.84
-3.54208e-03,-4,-4.08
-3.54176e-03,-4,-3.92
-3.54144e-03,-4,-4.08
-3.54112e-03,-4,-3.92
-3.54080e-03,-4,-4.08
-3.54048e-03,-4,-3.92
-3.54016e-03,-4,-4.08
-3.53984e-03,-4,-3.92
-3.53952e-03,-4,-4.08
-3.53920e-03,-3.92,-3.92
-3.53888e-03,-3.92,-4.08
-3.53856e-03,-3.92,-3.84
-3.53824e-03,-3.92,-4
-3.53792e-03,-3.92,-3.84
-3.53760e-03,-3.92,-4
-3.53728e-03,-3.92,-3.84
-3.53696e-03,-3.92,-4
-3.53664e-03,-3.92,-3.84
-3.53632e-03,-3.92,-4
-3.53600e-03,-3.92,-3.84
-3.53568e-03,-4,-4
-3.53536e-03,-4,-3.84
-3.53504e-03,-4,-4.08
-3.53472e-03,-4.08,-3.92
-3.53440e-03,-4.08,-4.16
-3.53408e-03,-4.08,-3.92
-3.53376e-03,-4.16,-4.16
-3.53344e-03,-4.16,-4
-3.53312e-03,-4.16,-4.24
-3.53280e-03,-4.16,-4.08
-3.53248e-03,-4.16,-4.24
-3.53216e-03,-4.16,-4.08
-3.53184e-03,-4.24,-4.24
-3.53152e-03,-4.24,-4.08
-3.53120e-03,-4.24,-4.32
-3.53088e-03,-4.24,-4.08
-3.53056e-03,-4.24,-4.32
-3.53024e-03,-4.24,-4.16
-3.52992e-03,-4.24,-4.32
-3.52960e-03,-4.24,-4.16
-3.52928e-03,-4.32,-4.32
-3.52896e-03,-4.32,-4.16
-3.52864e-03,-4.32,-4.4
-3.52832e-03,-4.32,-4.24
-3.52800e-03,-4.24,-4.4
-3.52768e-03,-4.24,-4.24
-3.52736e-03,-4.24,-4.32
-3.52704e-03,-4.24,-4.16
-3.52672e-03,-4.24,-4.32
-3.52640e-03,-4.32,-4.16
-3.52608e-03,-4.32,-4.4
-3.52576e-03,-4.32,-4.16
-3.52544e-03,-4.32,-4.4
-3.52512e-03,-4.32,-4.16
-3.52480e-03,-4.32,-4.4
-3.52448e-03,-4.4,-4.24
-3.52416e-03,-4.4,-4.48
-3.52384e-03,-4.4,-4.32
-3.52352e-03,-4.4,-4.48
-3.52320e-03,-4.4,-4.32
-3.52288e-03,-4.4,-4.48
-3.52256e-03,-4.4,-4.32
-3.52224e-03,-4.48,-4.56
-3.52192e-03,-4.48,-4.32
-3.52160e-03,-4.48,-4.56
-3.52128e-03,-4.48,-4.4
-3.52096e-03,-4.48,-4.56
-3.52064e-03,-4.48,-4.4
-3.52032e-03,-4.48,-4.56
-3.52000e-03,-4.48,-4.4
-3.51968e-03,-4.48,-4.56
-3.51936e-03,-4.48,-4.4
-3.51904e-03,-4.48,-4.64
-3.51872e-03,-4.48,-4.4
-3.51840e-03,-4.48,-4.64
-3.51808e-03,-4.48,-4.4
-3.51776e-03,-4.48,-4.64
-3.51744e-03,-4.56,-4.4
-3.51712e-03,-4.56,-4.64
-3.51680e-03,-4.56,-4.4
-3.51648e-03,-4.56,-4.64
-3.51616e-03,-4.56,-4.48
-3.51584e-03,-4.56,-4.72
-3.51552e-03,-4.56,-4.48
-3.51520e-03,-4.56,-4.72
-3.51488e-03,-4.56,-4.48
-3.51456e-03,-4.56,-4.64
-3.51424e-03,-4.56,-4.48
-3.51392e-03,-4.56,-4.64
-3.51360e-03,-4.56,-4.48
-3.51328e-03,-4.56,-4.64
-3.51296e-03,-4.56,-4.48
-3.51264e-03,-4.56,-4.64
-3.51232e-03,-4.56,-4.48
-3.51200e-03,-4.48,-4.64
-3.51168e-03,-4.48,-4.48
-3.51136e-03,-4.48,-4.56
-3.51104e-03,-4.48,-4.4
-3.51072e-03,-4.48,-4.56
-3.51040e-03,-4.48,-4.4
-3.51008e-03,-4.48,-4.56
-3.50976e-03,-4.4,-4.4
-3.50944e-03,-4.4,-4.56
-3.50912e-03,-4.4,-4.32
-3.50880e-03,-4.32,-4.48
-3.50848e-03,-4.32,-4.32
-3.50816e-03,-4.24,-4.4
-3.50784e-03,-4.24,-4.16
-3.50752e-03,-4.24,-4.32
-3.50720e-03,-4.24,-4.16
-3.50688e-03,-4.16,-4.32
-3.50656e-03,-4.16,-4.08
-3.50624e-03,-4.16,-4.24
-3.50592e-03,-4.16,-4.08
-3.50560e-03,-4.16,-4.24
-3.50528e-03,-4.16,-4.08
-3.50496e-03,-4.16,-4.24
-3.50464e-03,-4.16,-4.08
-3.50432e-03,-4.16,-4.24
-3.50400e-03,-4.16,-4.08
-3.50368e-03,-4.16,-4.24
-3.50336e-03,-4.08,-4
-3.50304e-03,-4.08,-4.24
-3.50272e-03,-4.08,-4.08
-3.50240e-03,-4.16,-4.24
-3.50208e-03,-4.16,-4
-3.50176e-03,-4.16,-4.24
-3.50144e-03,-4.24,-4
-3.50112e-03,-4.24,-4.32
-3.50080e-03,-4.32,-4.08
-3.50048e-03,-4.32,-4.4
-3.50016e-03,-4.4,-4.16
-3.49984e-03,-4.4,-4.48
-3.49952e-03,-4.4,-4.32
