rawdata/T0042CH1.CSV

Model,DPO2002B
Firmware Version,1.52

Point Format,Y,
Horizontal Units,S,
Horizontal Scale,0.01,
Sample Interval,8e-07,
Filter Frequency,262641,
Record Length,125000,
Gating,0.0% to 100.0%,
Probe Attenuation,10,
Vertical Units,V,
Vertical Offset,0,
Vertical Scale,2,
Label,,
TIME,CH1,CH1 Peak Detect
-9.40000e-03,-4.2,-3.96
-9.39920e-03,-4.28,-4.44
-9.39840e-03,-4.36,-4.12
-9.39760e-03,-4.36,-4.44
-9.39680e-03,-4.36,-4.28
-9.39600e-03,-4.28,-4.36
-9.39520e-03,-4.2,-4.12
-9.39440e-03,-4.12,-4.2
-9.39360e-03,-3.96,-3.88
-9.39280e-03,-3.96,-4.04
-9.39200e-03,-3.96,-3.8
-9.39120e-03,-3.96,-4.04
-9.39040e-03,-3.96,-3.88
-9.38960e-03,-4.04,-4.12
-9.38880e-03,-4.04,-3.96
-9.38800e-03,-4.04,-4.12
-9.38720e-03,-4.04,-3.96
-9.38640e-03,-4.04,-4.12
-9.38560e-03,-3.96,-3.88
-9.38480e-03,-3.96,-4.04
-9.38400e-03,-3.96,-3.88
-9.38320e-03,-3.96,-4.04
-9.38240e-03,-3.96,-3.88
-9.38160e-03,-4.04,-4.2
-9.38080e-03,-4.12,-3.96
-9.38000e-03,-4.2,-4.28
-9.37920e-03,-4.28,-4.12
-9.37840e-03,-4.28,-4.36
-9.37760e-03,-4.28,-4.2
-9.37680e-03,-4.2,-4.36
-9.37600e-03,-4.2,-4.12
-9.37520e-03,-4.2,-4.28
-9.37440e-03,-4.12,-4.04
-9.37360e-03,-4.12,-4.2
-9.37280e-03,-4.04,-3.96
-9.37200e-03,-3.96,-4.12
-9.37120e-03,-3.88,-3.8
-9.37040e-03,-3.8,-3.88
-9.36960e-03,-3.72,-3.64
-9.36880e-03,-3.64,-3.72
-9.36800e-03,-3.64,-3.56
-9.36720e-03,-3.64,-3.8
-9.36640e-03,-3.72,-3.56
-9.36560e-03,-3.72,-3.88
-9.36480e-03,-3.8,-3.64
-9.36400e-03,-3.8,-3.96
-9.36320e-03,-3.88,-3.72
-9.36240e-03,-3.96,-4.12
-9.36160e-03,-4.04,-3.8
-9.36080e-03,-4.04,-4.12
-9.36000e-03,-4.04,-3.96
-9.35920e-03,-4.04,-4.12
-9.35840e-03,-3.96,-3.88
-9.35760e-03,-3.96,-4.04
-9.35680e-03,-3.88,-3.8
-9.35600e-03,-3.8,-3.88
-9.35520e-03,-3.8,-3.72
-9.35440e-03,-3.8,-3.88
-9.35360e-03,-3.8,-3.72
-9.35280e-03,-3.88,-3.96
-9.35200e-03,-3.88,-3.8
-9.35120e-03,-3.8,-3.96
-9.35040e-03,-3.8,-3.72
-9.34960e-03,-3.88,-3.96
-9.34880e-03,-3.88,-3.72
-9.34800e-03,-3.96,-4.12
-9.34720e-03,-4.04,-3.88
-9.34640e-03,-4.04,-4.2
-9.34560e-03,-4.12,-3.96
-9.34480e-03,-4.12,-4.2
-9.34400e-03,-4.04,-3.96
-9.34320e-03,-4.04,-4.12
-9.34240e-03,-4.04,-3.88
-9.34160e-03,-3.96,-4.04
-9.34080e-03,-3.96,-3.88
-9.34000e-03,-3.96,-4.04
-9.33920e-03,-3.96,-3.8
-9.33840e-03,-3.96,-4.12
-9.33760e-03,-4.04,-3.88
-9.33680e-03,-4.04,-4.2
-9.33600e-03,-4.12,-3.96
-9.33520e-03,-4.2,-4.28
-9.33440e-03,-4.2,-4.04
-9.33360e-03,-4.28,-4.36
-9.33280e-03,-4.28,-4.2
-9.33200e-03,-4.28,-4.36
-9.33120e-03,-4.28,-4.2
-9.33040e-03,-4.28,-4.36
-9.32960e-03,-4.28,-4.2
-9.32880e-03,-4.2,-4.36
-9.32800e-03,-4.2,-4.12
-9.32720e-03,-4.12,-4.2
-9.32640e-03,-4.12,-4.04
-9.32560e-03,-4.12,-4.2
-9.32480e-03,-4.12,-4.04
-9.32400e-03,-4.12,-4.2
-9.32320e-03,-4.12,-4.04
-9.32240e-03,-4.12,-4.2
-9.32160e-03,-4.12,-3.96
-9.32080e-03,-4.12,-4.2
-9.32000e-03,-4.12,-4.04
-9.31920e-03,-4.2,-4.28
-9.31840e-03,-4.28,-4.04
-9.31760e-03,-4.36,-4.52
-9.31680e-03,-4.44,-4.2
-9.31600e-03,-4.52,-4.68
-9.31520e-03,-4.6,-4.44
-9.31440e-03,-4.6,-4.68
-9.31360e-03,-4.6,-4.52
-9.31280e-03,-4.6,-4.68
-9.31200e-03,-4.52,-4.44
-9.31120e-03,-4.52,-4.6
-9.31040e-03,-4.44,-4.36
-9.30960e-03,-4.36,-4.44
-9.30880e-03,-4.28,-4.2
-9.30800e-03,-4.28,-4.44
-9.30720e-03,-4.28,-4.2
-9.30640e-03,-4.36,-4.44
-9.30560e-03,-4.36,-4.2
-9.30480e-03,-4.28,-4.36
-9.30400e-03,-4.28,-4.2
-9.30320e-03,-4.28,-4.36
-9.30240e-03,-4.28,-4.2
-9.30160e-03,-4.2,-4.28
-9.30080e-03,-4.2,-4.12
-9.30000e-03,-4.12,-4.2
-9.29920e-03,-4.12,-4.04
-9.29840e-03,-4.12,-4.2
-9.29760e-03,-4.12,-4.04
-9.29680e-03,-4.04,-4.12
-9.29600e-03,-3.96,-3.88
-9.29520e-03,-3.88,-4.04
-9.29440e-03,-3.96,-3.8
-9.29360e-03,-3.96,-4.12
-9.29280e-03,-4.04,-3.88
-9.29200e-03,-4.04,-4.2
-9.29120e-03,-4.12,-3.96
-9.29040e-03,-4.12,-4.28
-9.28960e-03,-4.2,-4.04
-9.28880e-03,-4.2,-4.28
-9.28800e-03,-4.2,-4.12
-9.28720e-03,-4.2,-4.28
-9.28640e-03,-4.2,-4.04
-9.28560e-03,-4.12,-4.2
-9.28480e-03,-4.12,-4.04
-9.28400e-03,-4.12,-4.2
-9.28320e-03,-4.04,-3.96
-9.28240e-03,-3.96,-4.12
-9.28160e-03,-3.88,-3.8
-9.28080e-03,-3.88,-3.96
-9.28000e-03,-3.88,-3.72
-9.27920e-03,-3.88,-3.96
-9.27840e-03,-3.88,-3.8
-9.27760e-03,-3.8,-3.88
-9.27680e-03,-3.8,-3.72
-9.27600e-03,-3.8,-3.88
-9.27520e-03,-3.8,-3.72
-9.27440e-03,-3.88,-3.96
-9.27360e-03,-3.88,-3.72
-9.27280e-03,-3.88,-3.96
-9.27200e-03,-3.88,-3.8
-9.27120e-03,-3.88,-3.96
-9.27040e-03,-3.88,-3.8
-9.26960e-03,-3.88,-4.04
-9.26880e-03,-3.96,-3.8
-9.26800e-03,-3.96,-4.2
-9.26720e-03,-4.04,-3.88
-9.26640e-03,-4.12,-4.28
-9.26560e-03,-4.2,-4.04
-9.26480e-03,-4.2,-4.36
-9.26400e-03,-4.28,-4.12
-9.26320e-03,-4.28,-4.36
-9.26240e-03,-4.28,-4.2
-9.26160e-03,-4.28,-4.36
-9.26080e-03,-4.28,-4.2
-9.26000e-03,-4.2,-4.36
-9.25920e-03,-4.2,-4.12
-9.25840e-03,-4.2,-4.28
-9.25760e-03,-4.2,-4.12
-9.25680e-03,-4.12,-4.28
-9.25600e-03,-4.12,-4.04
-9.25520e-03,-4.04,-4.2
-9.25440e-03,-4.04,-3.96
-9.25360e-03,-3.96,-4.12
-9.25280e-03,-3.96,-3.88
-9.25200e-03,-3.96,-4.12
-9.25120e-03,-4.04,-3.88
-9.25040e-03,-4.12,-4.28
-9.24960e-03,-4.2,-4.04
-9.24880e-03,-4.2,-4.36
-9.24800e-03,-4.28,-4.2
-9.24720e-03,-4.28,-4.44
-9.24640e-03,-4.36,-4.2
-9.24560e-03,-4.28,-4.36
-9.24480e-03,-4.28,-4.2
-9.24400e-03,-4.28,-4.36
-9.24320e-03,-4.2,-4.12
-9.24240e-03,-4.2,-4.28
-9.24160e-03,-4.12,-4.04
-9.24080e-03,-4.12,-4.2
-9.24000e-03,-4.04,-3.96
-9.23920e-03,-4.04,-4.12
-9.23840e-03,-4.04,-3.96
-9.23760e-03,-3.96,-4.04
-9.23680e-03,-3.96,-3.88
-9.23600e-03,-3.96,-4.04
-9.23520e-03,-3.88,-3.8
-9.23440e-03,-3.88,-3.96
-9.23360e-03,-3.8,-3.72
-9.23280e-03,-3.8,-3.88
-9.23200e-03,-3.72,-3.64
-9.23120e-03,-3.72,-3.8
-9.23040e-03,-3.64,-3.56
-9.22960e-03,-3.64,-3.8
-9.22880e-03,-3.64,-3.56
-9.22800e-03,-3.72,-3.88
-9.22720e-03,-3.8,-3.64
-9.22640e-03,-3.8,-3.88
-9.22560e-03,-3.8,-3.72
-9.22480e-03,-3.8,-3.88
-9.22400e-03,-3.8,-3.72
-9.22320e-03,-3.8,-3.96
-9.22240e-03,-3.8,-3.72
-9.22160e-03,-3.8,-3.96
-9.22080e-03,-3.8,-3.72
-9.22000e-03,-3.88,-3.96
-9.21920e-03,-3.88,-3.8
-9.21840e-03,-3.96,-4.12
-9.21760e-03,-4.04,-3.8
-9.21680e-03,-4.12,-4.2
-9.21600e-03,-4.12,-4.04
-9.21520e-03,-4.2,-4.36
-9.21440e-03,-4.28,-4.12
-9.21360e-03,-4.28,-4.44
-9.21280e-03,-4.28,-4.2
-9.21200e-03,-4.28,-4.36
-9.21120e-03,-4.28,-4.2
-9.21040e-03,-4.2,-4.28
-9.20960e-03,-4.12,-4.12
-9.20880e-03,-4.12,-4.28
-9.20800e-03,-4.12,-4.04
-9.20720e-03,-4.2,-4.28
-9.20640e-03,-4.2,-4.12
-9.20560e-03,-4.2,-4.36
-9.20480e-03,-4.2,-4.12
-9.20400e-03,-4.28,-4.36
-9.20320e-03,-4.2,-4.12
-9.20240e-03,-4.2,-4.28
-9.20160e-03,-4.2,-4.12
-9.20080e-03,-4.2,-4.28
-9.20000e-03,-4.2,-4.12
-9.19920e-03,-4.28,-4.36
-9.19840e-03,-4.28,-4.12
-9.19760e-03,-4.28,-4.44
-9.19680e-03,-4.28,-4.2
-9.19600e-03,-4.36,-4.44
-9.19520e-03,-4.28,-4.2
-9.19440e-03,-4.28,-4.36
-9.19360e-03,-4.2,-4.12
-9.19280e-03,-4.2,-4.28
-9.19200e-03,-4.12,-4.04
-9.19120e-03,-4.12,-4.2
-9.19040e-03,-4.2,-4.04
-9.18960e-03,-4.2,-4.28
-9.18880e-03,-4.2,-4.12
-9.18800e-03,-4.28,-4.36
-9.18720e-03,-4.28,-4.12
-9.18640e-03,-4.28,-4.36
-9.18560e-03,-4.28,-4.2
-9.18480e-03,-4.28,-4.36
-9.18400e-03,-4.28,-4.2
-9.18320e-03,-4.28,-4.36
-9.18240e-03,-4.28,-4.2
-9.18160e-03,-4.28,-4.36
-9.18080e-03,-4.28,-4.2
-9.18000e-03,-4.36,-4.44
-9.17920e-03,-4.28,-4.2
-9.17840e-03,-4.28,-4.36
-9.17760e-03,-4.2,-4.12
-9.17680e-03,-4.2,-4.28
-9.17600e-03,-4.12,-4.04
-9.17520e-03,-4.12,-4.2
-9.17440e-03,-4.12,-4.04
-9.17360e-03,-4.04,-4.12
-9.17280e-03,-4.04,-3.96
-9.17200e-03,-3.96,-4.04
-9.17120e-03,-3.96,-3.8
-9.17040e-03,-3.88,-3.96
-9.16960e-03,-3.88,-3.8
-9.16880e-03,-3.8,-3.88
-9.16800e-03,-3.8,-3.72
-9.16720e-03,-3.72,-3.88
-9.16640e-03,-3.64,-3.56
-9.16560e-03,-3.72,-3.88
-9.16480e-03,-3.72,-3.56
-9.16400e-03,-3.72,-3.88
-9.16320e-03,-3.8,-3.64
-9.16240e-03,-3.88,-3.96
-9.16160e-03,-3.96,-3.8
-9.16080e-03,-3.96,-4.04
-9.16000e-03,-3.96,-3.88
-9.15920e-03,-4.04,-4.12
-9.15840e-03,-4.04,-3.96
-9.15760e-03,-4.04,-4.2
-9.15680e-03,-4.04,-3.96
-9.15600e-03,-3.96,-4.04
-9.15520e-03,-3.88,-3.8
-9.15440e-03,-3.88,-3.96
-9.15360e-03,-3.88,-3.8
-9.15280e-03,-3.88,-3.96
-9.15200e-03,-3.8,-3.72
-9.15120e-03,-3.8,-3.96
-9.15040e-03,-3.8,-3.72
-9.14960e-03,-3.88,-3.96
-9.14880e-03,-3.88,-3.8
-9.14800e-03,-3.88,-3.96
-9.14720e-03,-3.88,-3.8
-9.14640e-03,-3.88,-4.04
-9.14560e-03,-3.96,-3.8
-9.14480e-03,-3.96,-4.12
-9.14400e-03,-4.04,-3.88
-9.14320e-03,-4.04,-4.2
-9.14240e-03,-4.12,-3.96
-9.14160e-03,-4.2,-4.36
-9.14080e-03,-4.28,-4.12
-9.14000e-03,-4.36,-4.52
-9.13920e-03,-4.44,-4.2
-9.13840e-03,-4.52,-4.6
-9.13760e-03,-4.52,-4.44
-9.13680e-03,-4.52,-4.6
-9.13600e-03,-4.52,-4.44
-9.13520e-03,-4.52,-4.6
-9.13440e-03,-4.44,-4.36
-9.13360e-03,-4.36,-4.44
-9.13280e-03,-4.28,-4.2
-9.13200e-03,-4.2,-4.28
-9.13120e-03,-4.04,-3.96
-9.13040e-03,-3.96,-4.12
-9.12960e-03,-3.88,-3.8
-9.12880e-03,-3.88,-3.96
-9.12800e-03,-3.88,-3.72
-9.12720e-03,-3.88,-3.96
-9.12640e-03,-3.88,-3.8
-9.12560e-03,-3.96,-4.04
-9.12480e-03,-3.96,-3.8
-9.12400e-03,-4.04,-4.12
-9.12320e-03,-4.04,-3.96
-9.12240e-03,-4.04,-4.2
-9.12160e-03,-4.12,-3.96
-9.12080e-03,-4.2,-4.36
-9.12000e-03,-4.28,-4.04
-9.11920e-03,-4.28,-4.36
-9.11840e-03,-4.28,-4.2
-9.11760e-03,-4.28,-4.36
-9.11680e-03,-4.28,-4.2
-9.11600e-03,-4.28,-4.36
-9.11520e-03,-4.28,-4.2
-9.11440e-03,-4.2,-4.36
-9.11360e-03,-4.2,-4.12
-9.11280e-03,-4.2,-4.28
-9.11200e-03,-4.2,-4.12
-9.11120e-03,-4.12,-4.2
-9.11040e-03,-4.04,-3.96
-9.10960e-03,-3.96,-4.12
-9.10880e-03,-3.96,-3.88
-9.10800e-03,-3.88,-3.96
-9.10720e-03,-3.88,-3.8
-9.10640e-03,-3.96,-4.12
-9.10560e-03,-4.04,-3.88
-9.10480e-03,-4.12,-4.28
-9.10400e-03,-4.2,-3.96
-9.10320e-03,-4.28,-4.36
-9.10240e-03,-4.28,-4.2
-9.10160e-03,-4.36,-4.44
-9.10080e-03,-4.36,-4.28
-9.10000e-03,-4.36,-4.44
-9.09920e-03,-4.28,-4.2
-9.09840e-03,-4.2,-4.36
-9.09760e-03,-4.2,-4.12
-9.09680e-03,-4.12,-4.2
-9.09600e-03,-4.12,-3.96
-9.09520e-03,-4.04,-4.12
-9.09440e-03,-4.04,-3.96
-9.09360e-03,-4.04,-4.12
-9.09280e-03,-4.04,-3.96
-9.09200e-03,-4.04,-4.2
-9.09120e-03,-4.12,-3.96
-9.09040e-03,-4.2,-4.28
-9.08960e-03,-4.2,-4.04
-9.08880e-03,-4.2,-4.28
-9.08800e-03,-4.2,-4.12
-9.08720e-03,-4.2,-4.36
-9.08640e-03,-4.28,-4.12
-9.08560e-03,-4.28,-4.36
-9.08480e-03,-4.28,-4.12
-9.08400e-03,-4.2,-4.28
-9.08320e-03,-4.2,-4.12
-9.08240e-03,-4.2,-4.28
-9.08160e-03,-4.12,-4.04
-9.08080e-03,-4.04,-4.12
-9.08000e-03,-4.04,-3.96
-9.07920e-03,-3.96,-4.04
-9.07840e-03,-3.88,-3.88
-9.07760e-03,-3.88,-4.04
-9.07680e-03,-3.88,-3.8
-9.07600e-03,-3.96,-4.12
-9.07520e-03,-3.96,-3.88
-9.07440e-03,-4.04,-4.2
-9.07360e-03,-4.12,-3.96
-9.07280e-03,-4.2,-4.28
-9.07200e-03,-4.2,-4.12
-9.07120e-03,-4.28,-4.36
-9.07040e-03,-4.28,-4.2
-9.06960e-03,-4.28,-4.36
-9.06880e-03,-4.2,-4.12
-9.06800e-03,-4.2,-4.28
-9.06720e-03,-4.12,-4.04
-9.06640e-03,-4.04,-4.2
-9.06560e-03,-3.96,-3.88
-9.06480e-03,-3.8,-3.96
-9.06400e-03,-3.8,-3.72
-9.06320e-03,-3.72,-3.88
-9.06240e-03,-3.72,-3.64
-9.06160e-03,-3.72,-3.8
-9.06080e-03,-3.72,-3.64
-9.06000e-03,-3.8,-3.96
-9.05920e-03,-3.88,-3.64
-9.05840e-03,-3.88,-4.04
-9.05760e-03,-3.96,-3.8
-9.05680e-03,-4.04,-4.2
-9.05600e-03,-4.12,-3.96
-9.05520e-03,-4.2,-4.28
-9.05440e-03,-4.2,-4.04
-9.05360e-03,-4.28,-4.36
-9.05280e-03,-4.28,-4.2
-9.05200e-03,-4.28,-4.36
-9.05120e-03,-4.28,-4.2
-9.05040e-03,-4.28,-4.36
-9.04960e-03,-4.28,-4.2
-9.04880e-03,-4.28,-4.36
-9.04800e-03,-4.28,-4.2
-9.04720e-03,-4.36,-4.44
-9.04640e-03,-4.36,-4.28
-9.04560e-03,-4.36,-4.44
-9.04480e-03,-4.36,-4.28
-9.04400e-03,-4.36,-4.44
-9.04320e-03,-4.36,-4.28
-9.04240e-03,-4.28,-4.36
-9.04160e-03,-4.28,-4.2
-9.04080e-03,-4.2,-4.36
-9.04000e-03,-4.2,-4.12
-9.03920e-03,-4.12,-4.2
-9.03840e-03,-4.04,-3.96
-9.03760e-03,-4.04,-4.12
-9.03680e-03,-3.96,-3.88
-9.03600e-03,-3.96,-4.04
-9.03520e-03,-3.96,-3.88
-9.03440e-03,-3.96,-4.12
-9.03360e-03,-4.04,-3.88
-9.03280e-03,-4.04,-4.12
-9.03200e-03,-4.04,-3.96
-9.03120e-03,-4.12,-4.2
-9.03040e-03,-4.12,-4.04
-9.02960e-03,-4.12,-4.28
-9.02880e-03,-4.2,-4.04
-9.02800e-03,-4.2,-4.28
-9.02720e-03,-4.2,-4.12
-9.02640e-03,-4.2,-4.28
-9.02560e-03,-4.2,-4.12
-9.02480e-03,-4.12,-4.2
-9.02400e-03,-4.12,-4.04
-9.02320e-03,-4.04,-4.12
-9.02240e-03,-4.04,-3.96
-9.02160e-03,-4.04,-4.12
-9.02080e-03,-4.04,-3.96
-9.02000e-03,-4.04,-4.12
-9.01920e-03,-4.04,-3.96
-9.01840e-03,-4.04,-4.12
-9.01760e-03,-4.12,-3.96
-9.01680e-03,-4.12,-4.2
-9.01600e-03,-4.12,-4.04
-9.01520e-03,-4.12,-4.2
-9.01440e-03,-4.04,-3.96
-9.01360e-03,-4.04,-4.12
-9.01280e-03,-3.96,-3.88
-9.01200e-03,-3.96,-4.04
-9.01120e-03,-3.96,-3.88
-9.01040e-03,-3.96,-4.04
-9.00960e-03,-3.96,-3.88
-9.00880e-03,-3.96,-4.04
-9.00800e-03,-3.96,-3.8
-9.00720e-03,-4.04,-4.2
-9.00640e-03,-4.12,-3.96
-9.00560e-03,-4.12,-4.2
-9.00480e-03,-4.12,-4.04
-9.00400e-03,-4.04,-4.2
-9.00320e-03,-3.96,-3.8
-9.00240e-03,-3.8,-3.96
-9.00160e-03,-3.72,-3.64
-9.00080e-03,-3.64,-3.72
-9.00000e-03,-3.56,-3.48
-8.99920e-03,-3.56,-3.64
-8.99840e-03,-3.56,-3.48
-8.99760e-03,-3.64,-3.72
-8.99680e-03,-3.72,-3.48
-8.99600e-03,-3.72,-3.88
-8.99520e-03,-3.8,-3.64
-8.99440e-03,-3.88,-4.04
-8.99360e-03,-3.96,-3.8
-8.99280e-03,-4.04,-4.2
-8.99200e-03,-4.12,-3.96
-8.99120e-03,-4.2,-4.28
-8.99040e-03,-4.2,-4.12
-8.98960e-03,-4.28,-4.36
-8.98880e-03,-4.28,-4.2
-8.98800e-03,-4.28,-4.36
-8.98720e-03,-4.28,-4.2
-8.98640e-03,-4.28,-4.36
-8.98560e-03,-4.2,-4.12
-8.98480e-03,-4.2,-4.28
-8.98400e-03,-4.12,-4.04
-8.98320e-03,-4.12,-4.2
-8.98240e-03,-4.04,-3.96
-8.98160e-03,-4.04,-4.12
-8.98080e-03,-3.88,-3.8
-8.98000e-03,-3.88,-3.96
-8.97920e-03,-3.8,-3.72
-8.97840e-03,-3.8,-3.88
-8.97760e-03,-3.8,-3.72
-8.97680e-03,-3.8,-3.96
-8.97600e-03,-3.8,-3.72
-8.97520e-03,-3.8,-3.96
-8.97440e-03,-3.8,-3.72
-8.97360e-03,-3.8,-3.88
-8.97280e-03,-3.8,-3.72
-8.97200e-03,-3.88,-3.96
-8.97120e-03,-3.88,-3.8
-8.97040e-03,-3.96,-4.12
-8.96960e-03,-4.04,-3.88
-8.96880e-03,-4.04,-4.12
-8.96800e-03,-4.12,-3.96
-8.96720e-03,-4.12,-4.2
-8.96640e-03,-4.12,-4.04
-8.96560e-03,-4.12,-4.2
-8.96480e-03,-4.04,-3.96
-8.96400e-03,-4.04,-4.12
-8.96320e-03,-3.96,-3.88
-8.96240e-03,-3.96,-4.04
-8.96160e-03,-3.88,-3.8
-8.96080e-03,-3.8,-3.88
-8.96000e-03,-3.8,-3.72
-8.95920e-03,-3.8,-3.88
-8.95840e-03,-3.8,-3.72
-8.95760e-03,-3.8,-3.96
-8.95680e-03,-3.88,-3.72
-8.95600e-03,-3.88,-4.04
-8.95520e-03,-3.96,-3.8
-8.95440e-03,-3.96,-4.04
-8.95360e-03,-3.96,-3.88
-8.95280e-03,-3.96,-4.04
-8.95200e-03,-3.96,-3.88
-8.95120e-03,-3.96,-3.96
-8.95040e-03,-3.88,-3.8
-8.94960e-03,-3.88,-4.04
-8.94880e-03,-3.96,-3.8
-8.94800e-03,-3.96,-4.04
-8.94720e-03,-3.96,-3.88
-8.94640e-03,-3.96,-4.12
-8.94560e-03,-4.04,-3.88
-8.94480e-03,-4.12,-4.2
-8.94400e-03,-4.12,-4.04
-8.94320e-03,-4.2,-4.28
-8.94240e-03,-4.2,-4.12
-8.94160e-03,-4.2,-4.28
-8.94080e-03,-4.12,-4.04
-8.94000e-03,-4.12,-4.2
-8.93920e-03,-4.12,-4.04
-8.93840e-03,-4.04,-4.12
-8.93760e-03,-3.96,-3.88
-8.93680e-03,-3.96,-4.04
-8.93600e-03,-3.96,-3.88
-8.93520e-03,-3.96,-4.12
-8.93440e-03,-4.04,-3.88
-8.93360e-03,-4.12,-4.2
-8.93280e-03,-4.12,-3.96
-8.93200e-03,-4.12,-4.2
-8.93120e-03,-4.04,-3.96
-8.93040e-03,-4.04,-4.12
-8.92960e-03,-4.04,-3.96
-8.92880e-03,-3.96,-4.04
-8.92800e-03,-3.88,-3.72
-8.92720e-03,-3.8,-3.88
-8.92640e-03,-3.8,-3.72
-8.92560e-03,-3.8,-3.88
-8.92480e-03,-3.8,-3.72
-8.92400e-03,-3.72,-3.88
-8.92320e-03,-3.72,-3.64
-8.92240e-03,-3.8,-3.88
-8.92160e-03,-3.8,-3.64
-8.92080e-03,-3.88,-3.96
-8.92000e-03,-3.88,-3.8
-8.91920e-03,-3.96,-4.12
-8.91840e-03,-4.04,-3.88
-8.91760e-03,-4.12,-4.28
-8.91680e-03,-4.2,-4.04
-8.91600e-03,-4.2,-4.28
-8.91520e-03,-4.2,-4.12
-8.91440e-03,-4.2,-4.28
-8.91360e-03,-4.2,-4.12
-8.91280e-03,-4.2,-4.28
-8.91200e-03,-4.28,-4.12
-8.91120e-03,-4.28,-4.44
-8.91040e-03,-4.36,-4.2
-8.90960e-03,-4.44,-4.52
-8.90880e-03,-4.44,-4.36
-8.90800e-03,-4.36,-4.44
-8.90720e-03,-4.36,-4.28
-8.90640e-03,-4.28,-4.36
-8.90560e-03,-4.2,-4.12
-8.90480e-03,-4.12,-4.2
-8.90400e-03,-4.12,-4.04
-8.90320e-03,-4.12,-4.12
-8.90240e-03,-4.04,-4.04
-8.90160e-03,-4.04,-4.12
-8.90080e-03,-4.04,-3.96
-8.90000e-03,-4.12,-4.28
-8.89920e-03,-4.2,-3.96
-8.89840e-03,-4.28,-4.36
-8.89760e-03,-4.28,-4.2
-8.89680e-03,-4.28,-4.44
-8.89600e-03,-4.28,-4.2
-8.89520e-03,-4.28,-4.36
-8.89440e-03,-4.28,-4.2
-8.89360e-03,-4.28,-4.36
-8.89280e-03,-4.28,-4.12
-8.89200e-03,-4.2,-4.28
-8.89120e-03,-4.2,-4.12
-8.89040e-03,-4.2,-4.28
-8.88960e-03,-4.2,-4.12
-8.88880e-03,-4.2,-4.28
-8.88800e-03,-4.12,-4.12
-8.88720e-03,-4.12,-4.2
-8.88640e-03,-4.12,-4.04
-8.88560e-03,-4.12,-4.2
-8.88480e-03,-4.04,-4.04
-8.88400e-03,-4.04,-4.12
-8.88320e-03,-4.04,-3.96
-8.88240e-03,-4.04,-4.12
-8.88160e-03,-4.04,-3.96
-8.88080e-03,-4.12,-4.28
-8.88000e-03,-4.2,-3.96
-8.87920e-03,-4.28,-4.36
-8.87840e-03,-4.28,-4.2
-8.87760e-03,-4.36,-4.44
-8.87680e-03,-4.36,-4.2
-8.87600e-03,-4.36,-4.44
-8.87520e-03,-4.36,-4.28
-8.87440e-03,-4.36,-4.44
-8.87360e-03,-4.28,-4.2
-8.87280e-03,-4.28,-4.36
-8.87200e-03,-4.28,-4.2
-8.87120e-03,-4.28,-4.36
-8.87040e-03,-4.28,-4.2
-8.86960e-03,-4.28,-4.44
-8.86880e-03,-4.28,-4.2
-8.86800e-03,-4.28,-4.36
-8.86720e-03,-4.2,-4.2
-8.86640e-03,-4.2,-4.28
-8.86560e-03,-4.2,-4.12
-8.86480e-03,-4.2,-4.28
-8.86400e-03,-4.2,-4.04
-8.86320e-03,-4.2,-4.28
-8.86240e-03,-4.2,-4.12
-8.86160e-03,-4.2,-4.28
-8.86080e-03,-4.12,-4.04
-8.86000e-03,-4.12,-4.2
-8.85920e-03,-4.12,-4.04
-8.85840e-03,-4.12,-4.2
-8.85760e-03,-4.04,-3.96
-8.85680e-03,-3.96,-4.04
-8.85600e-03,-3.96,-3.88
-8.85520e-03,-3.96,-4.04
-8.85440e-03,-3.88,-3.88
-8.85360e-03,-3.88,-4.04
-8.85280e-03,-3.96,-3.8
-8.85200e-03,-3.96,-4.12
-8.85120e-03,-4.04,-3.88
-8.85040e-03,-4.12,-4.28
-8.84960e-03,-4.12,-3.96
-8.84880e-03,-4.28,-4.44
-8.84800e-03,-4.36,-4.2
-8.84720e-03,-4.36,-4.52
-8.84640e-03,-4.44,-4.36
-8.84560e-03,-4.52,-4.6
-8.84480e-03,-4.52,-4.44
-8.84400e-03,-4.44,-4.52
-8.84320e-03,-4.44,-4.36
-8.84240e-03,-4.36,-4.52
-8.84160e-03,-4.36,-4.28
-8.84080e-03,-4.36,-4.44
-8.84000e-03,-4.36,-4.28
-8.83920e-03,-4.36,-4.44
-8.83840e-03,-4.28,-4.2
-8.83760e-03,-4.28,-4.36
-8.83680e-03,-4.2,-4.12
-8.83600e-03,-4.12,-4.2
-8.83520e-03,-4.12,-4.04
-8.83440e-03,-4.04,-4.12
-8.83360e-03,-3.96,-3.88
-8.83280e-03,-3.88,-3.96
-8.83200e-03,-3.8,-3.72
-8.83120e-03,-3.8,-3.88
-8.83040e-03,-3.8,-3.72
-8.82960e-03,-3.8,-3.88
-8.82880e-03,-3.8,-3.64
-8.82800e-03,-3.8,-3.88
-8.82720e-03,-3.8,-3.72
-8.82640e-03,-3.88,-3.96
-8.82560e-03,-3.88,-3.72
-8.82480e-03,-3.88,-3.96
-8.82400e-03,-3.88,-3.8
-8.82320e-03,-3.8,-3.88
-8.82240e-03,-3.8,-3.72
-8.82160e-03,-3.8,-3.88
-8.82080e-03,-3.8,-3.72
-8.82000e-03,-3.8,-3.88
-8.81920e-03,-3.8,-3.72
-8.81840e-03,-3.8,-3.96
-8.81760e-03,-3.88,-3.72
-8.81680e-03,-3.88,-3.96
-8.81600e-03,-3.96,-3.8
-8.81520e-03,-3.96,-4.04
-8.81440e-03,-3.96,-3.88
-8.81360e-03,-3.96,-4.04
-8.81280e-03,-3.88,-3.8
-8.81200e-03,-3.8,-3.96
-8.81120e-03,-3.72,-3.56
-8.81040e-03,-3.56,-3.72
-8.80960e-03,-3.56,-3.4
-8.80880e-03,-3.48,-3.56
-8.80800e-03,-3.48,-3.4
-8.80720e-03,-3.4,-3.48
-8.80640e-03,-3.4,-3.32
-8.80560e-03,-3.48,-3.56
-8.80480e-03,-3.48,-3.32
-8.80400e-03,-3.56,-3.64
-8.80320e-03,-3.56,-3.4
-8.80240e-03,-3.56,-3.72
-8.80160e-03,-3.64,-3.48
-8.80080e-03,-3.72,-3.88
-8.80000e-03,-3.8,-3.56
-8.79920e-03,-3.8,-3.96
-8.79840e-03,-3.88,-3.72
-8.79760e-03,-3.88,-3.96
-8.79680e-03,-3.88,-3.8
-8.79600e-03,-3.88,-4.04
-8.79520e-03,-3.96,-3.8
-8.79440e-03,-3.96,-4.12
-8.79360e-03,-4.04,-3.88
-8.79280e-03,-4.04,-4.2
-8.79200e-03,-4.12,-3.96
-8.79120e-03,-4.12,-4.2
-8.79040e-03,-4.2,-4.04
-8.78960e-03,-4.2,-4.28
-8.78880e-03,-4.2,-4.12
-8.78800e-03,-4.2,-4.28
-8.78720e-03,-4.12,-4.04
-8.78640e-03,-4.04,-4.12
-8.78560e-03,-4.04,-3.96
-8.78480e-03,-3.96,-4.04
-8.78400e-03,-3.96,-3.88
-8.78320e-03,-3.96,-4.04
-8.78240e-03,-3.88,-3.8
-8.78160e-03,-3.88,-4.04
-8.78080e-03,-3.88,-3.8
-8.78000e-03,-3.96,-4.04
-8.77920e-03,-3.96,-3.88
-8.77840e-03,-4.04,-4.2
-8.77760e-03,-4.12,-3.96
-8.77680e-03,-4.12,-4.2
-8.77600e-03,-4.12,-4.04
-8.77520e-03,-4.12,-4.2
-8.77440e-03,-4.12,-4.04
-8.77360e-03,-4.2,-4.28
-8.77280e-03,-4.2,-4.12
-8.77200e-03,-4.2,-4.28
-8.77120e-03,-4.2,-4.12
-8.77040e-03,-4.2,-4.28
-8.76960e-03,-4.2,-4.12
-8.76880e-03,-4.2,-4.36
-8.76800e-03,-4.28,-4.12
-8.76720e-03,-4.28,-4.36
-8.76640e-03,-4.28,-4.2
-8.76560e-03,-4.2,-4.36
-8.76480e-03,-4.2,-4.12
-8.76400e-03,-4.12,-4.2
-8.76320e-03,-4.04,-3.96
-8.76240e-03,-4.04,-4.12
-8.76160e-03,-3.96,-3.88
-8.76080e-03,-3.96,-4.04
-8.76000e-03,-3.96,-3.88
-8.75920e-03,-3.96,-4.12
