rawdata/T0053CH1.CSV

Model,DPO2002B
Firmware Version,1.52

Point Format,Y,
Horizontal Units,S,
Horizontal Scale,0.4,
Sample Interval,3.2e-05,
Filter Frequency,275000,
Record Length,125000,
Gating,0.0% to 100.0%,
Probe Attenuation,10,
Vertical Units,V,
Vertical Offset,0,
Vertical Scale,2,
Label,,
TIME,CH1,CH1 Peak Detect
-3.76000e-01,-4,-3.68
-3.75968e-01,-4.24,-4.4
-3.75936e-01,-4.48,-3.52
-3.75904e-01,-3.92,-4.72
-3.75872e-01,-4.24,-3.6
-3.75840e-01,-4.08,-4.72
-3.75808e-01,-3.92,-3.68
-3.75776e-01,-4.32,-4.32
-3.75744e-01,-4.08,-3.6
-3.75712e-01,-4.08,-4.48
-3.75680e-01,-3.92,-3.6
-3.75648e-01,-4.48,-4.4
-3.75616e-01,-4.08,-3.6
-3.75584e-01,-4.08,-4.56
-3.75552e-01,-4,-3.68
-3.75520e-01,-3.92,-4.32
-3.75488e-01,-4.08,-3.76
-3.75456e-01,-4.08,-4.64
-3.75424e-01,-4.24,-3.6
-3.75392e-01,-3.84,-4.56
-3.75360e-01,-4,-3.68
-3.75328e-01,-3.92,-4.48
-3.75296e-01,-4.08,-3.6
-3.75264e-01,-4,-4.4
-3.75232e-01,-4.08,-3.6
-3.75200e-01,-3.84,-4.4
-3.75168e-01,-3.76,-3.68
-3.75136e-01,-4.16,-4.56
-3.75104e-01,-4.4,-3.6
-3.75072e-01,-3.92,-4.56
-3.75040e-01,-3.76,-3.68
-3.75008e-01,-4,-4.56
-3.74976e-01,-3.92,-3.68
-3.74944e-01,-4.48,-4.4
-3.74912e-01,-4,-3.68
-3.74880e-01,-3.76,-4.64
-3.74848e-01,-3.92,-3.76
-3.74816e-01,-3.92,-4.32
-3.74784e-01,-4.32,-3.68
-3.74752e-01,-3.76,-4.48
-3.74720e-01,-4.32,-3.76
-3.74688e-01,-4.08,-4.48
-3.74656e-01,-4.08,-3.68
-3.74624e-01,-4.16,-4.4
-3.74592e-01,-4.72,-3.44
-3.74560e-01,-4.16,-4.8
-3.74528e-01,-4,-3.76
-3.74496e-01,-3.92,-4.64
-3.74464e-01,-4,-3.52
-3.74432e-01,-3.92,-4.56
-3.74400e-01,-4.08,-3.68
-3.74368e-01,-3.76,-4.4
-3.74336e-01,-4.08,-3.76
-3.74304e-01,-4.08,-4.48
-3.74272e-01,-4.24,-3.6
-3.74240e-01,-4.32,-4.48
-3.74208e-01,-4,-3.52
-3.74176e-01,-3.92,-4.64
-3.74144e-01,-4.16,-3.84
-3.74112e-01,-4.24,-4.24
-3.74080e-01,-4.4,-3.28
-3.74048e-01,-3.92,-4.64
-3.74016e-01,-4.16,-3.76
-3.73984e-01,-4.4,-4.64
-3.73952e-01,-3.92,-3.6
-3.73920e-01,-4.32,-4.56
-3.73888e-01,-3.92,-3.6
-3.73856e-01,-4.08,-4.64
-3.73824e-01,-3.92,-3.68
-3.73792e-01,-4,-4.32
-3.73760e-01,-4.24,-3.6
-3.73728e-01,-4.08,-4.72
-3.73696e-01,-4.08,-3.76
-3.73664e-01,-4.08,-4.24
-3.73632e-01,-3.84,-3.52
-3.73600e-01,-4.24,-4.32
-3.73568e-01,-4,-3.44
-3.73536e-01,-3.68,-4.4
-3.73504e-01,-3.92,-3.44
-3.73472e-01,-4,-4.56
-3.73440e-01,-3.84,-3.44
-3.73408e-01,-3.84,-4.64
-3.73376e-01,-3.68,-3.68
-3.73344e-01,-3.84,-4.24
-3.73312e-01,-4.4,-3.52
-3.73280e-01,-4.32,-4.56
-3.73248e-01,-4.16,-3.52
-3.73216e-01,-3.68,-4.64
-3.73184e-01,-3.76,-3.84
-3.73152e-01,-4.08,-4.32
-3.73120e-01,-3.76,-3.44
-3.73088e-01,-4,-4.32
-3.73056e-01,-4,-3.44
-3.73024e-01,-3.84,-4.56
-3.72992e-01,-4.24,-3.6
-3.72960e-01,-4,-4.56
-3.72928e-01,-4.16,-3.76
-3.72896e-01,-4.08,-4.48
-3.72864e-01,-4.08,-3.84
-3.72832e-01,-4.4,-4.32
-3.72800e-01,-3.92,-3.6
-3.72768e-01,-3.92,-4.56
-3.72736e-01,-4.08,-3.76
-3.72704e-01,-3.92,-4.64
-3.72672e-01,-4.32,-3.6
-3.72640e-01,-4.32,-4.4
-3.72608e-01,-4,-3.6
-3.72576e-01,-4.4,-4.8
-3.72544e-01,-4.08,-3.68
-3.72512e-01,-4.4,-4.64
-3.72480e-01,-4.4,-3.36
-3.72448e-01,-4.24,-4.64
-3.72416e-01,-4.16,-3.68
-3.72384e-01,-4.08,-4.64
-3.72352e-01,-4.48,-3.92
-3.72320e-01,-4.4,-4.72
-3.72288e-01,-4.08,-3.6
-3.72256e-01,-4.24,-4.72
-3.72224e-01,-4.08,-3.84
-3.72192e-01,-4.24,-4.48
-3.72160e-01,-4.32,-3.68
-3.72128e-01,-4.32,-4.48
-3.72096e-01,-4.4,-3.84
-3.72064e-01,-3.52,-4.72
-3.72032e-01,-4,-3.44
-3.72000e-01,-4.24,-4.32
-3.71968e-01,-4,-3.36
-3.71936e-01,-3.92,-4.64
-3.71904e-01,-4,-3.6
-3.71872e-01,-4.32,-4.64
-3.71840e-01,-4.32,-3.68
-3.71808e-01,-4.16,-4.56
-3.71776e-01,-4.32,-3.44
-3.71744e-01,-3.68,-4.56
-3.71712e-01,-4,-3.68
-3.71680e-01,-4,-4.64
-3.71648e-01,-4.08,-3.44
-3.71616e-01,-4.32,-4.56
-3.71584e-01,-3.68,-3.6
-3.71552e-01,-3.84,-4.56
-3.71520e-01,-4.16,-3.6
-3.71488e-01,-4.32,-4.56
-3.71456e-01,-4.32,-3.44
-3.71424e-01,-4.08,-4.48
-3.71392e-01,-3.68,-3.76
-3.71360e-01,-4,-4.56
-3.71328e-01,-3.76,-3.6
-3.71296e-01,-4.32,-4.8
-3.71264e-01,-4.16,-3.6
-3.71232e-01,-3.68,-4.8
-3.71200e-01,-4.4,-3.6
-3.71168e-01,-4.4,-4.48
-3.71136e-01,-3.92,-3.44
-3.71104e-01,-4.16,-4.64
-3.71072e-01,-4.08,-3.76
-3.71040e-01,-3.92,-4.4
-3.71008e-01,-3.92,-3.92
-3.70976e-01,-4.24,-4.48
-3.70944e-01,-4.24,-3.52
-3.70912e-01,-4.48,-4.48
-3.70880e-01,-4.24,-3.68
-3.70848e-01,-3.52,-4.56
-3.70816e-01,-3.84,-3.28
-3.70784e-01,-4.08,-4.48
-3.70752e-01,-3.76,-3.44
-3.70720e-01,-4,-4.8
-3.70688e-01,-4.16,-3.68
-3.70656e-01,-4,-4.72
-3.70624e-01,-4.48,-3.68
-3.70592e-01,-4.16,-4.72
-3.70560e-01,-4.08,-3.76
-3.70528e-01,-4.08,-4.32
-3.70496e-01,-4.16,-3.6
-3.70464e-01,-4,-4.64
-3.70432e-01,-4.08,-3.84
-3.70400e-01,-4.16,-4.56
-3.70368e-01,-4.24,-3.6
-3.70336e-01,-4.32,-4.4
-3.70304e-01,-4.32,-3.6
-3.70272e-01,-4.08,-4.56
-3.70240e-01,-3.92,-3.84
-3.70208e-01,-3.92,-4.32
-3.70176e-01,-4.16,-3.52
-3.70144e-01,-4,-4.48
-3.70112e-01,-4.32,-3.68
-3.70080e-01,-4.32,-4.56
-3.70048e-01,-4.16,-3.6
-3.70016e-01,-4.4,-4.48
-3.69984e-01,-4.24,-3.68
-3.69952e-01,-4.16,-4.72
-3.69920e-01,-4.24,-3.92
-3.69888e-01,-3.92,-4.64
-3.69856e-01,-4.16,-3.76
-3.69824e-01,-4.88,-4.48
-3.69792e-01,-4.24,-3.84
-3.69760e-01,-4.16,-4.96
-3.69728e-01,-3.6,-3.6
-3.69696e-01,-4.08,-4.4
-3.69664e-01,-4.16,-3.36
-3.69632e-01,-4.32,-4.32
-3.69600e-01,-4.16,-3.6
-3.69568e-01,-4.08,-4.4
-3.69536e-01,-3.92,-3.76
-3.69504e-01,-4.32,-4.48
-3.69472e-01,-4.16,-3.6
-3.69440e-01,-4.24,-4.48
-3.69408e-01,-4.16,-3.84
-3.69376e-01,-3.76,-4.48
-3.69344e-01,-4,-3.76
-3.69312e-01,-4.16,-4.8
-3.69280e-01,-4.16,-3.52
-3.69248e-01,-4.08,-4.48
-3.69216e-01,-3.92,-3.76
-3.69184e-01,-4,-4.56
-3.69152e-01,-4.24,-3.44
-3.69120e-01,-4.16,-4.56
-3.69088e-01,-4,-3.84
-3.69056e-01,-3.76,-4.64
-3.69024e-01,-4.16,-3.76
-3.68992e-01,-4.4,-4.4
-3.68960e-01,-4.16,-3.6
-3.68928e-01,-4.08,-4.56
-3.68896e-01,-4.08,-3.84
-3.68864e-01,-3.76,-4.64
-3.68832e-01,-3.92,-3.28
-3.68800e-01,-4.08,-4.48
-3.68768e-01,-4.24,-3.68
-3.68736e-01,-3.84,-4.32
-3.68704e-01,-4.08,-3.6
-3.68672e-01,-4.16,-4.4
-3.68640e-01,-4.32,-3.76
-3.68608e-01,-4.4,-4.56
-3.68576e-01,-3.76,-3.84
-3.68544e-01,-3.92,-4.56
-3.68512e-01,-3.92,-3.52
-3.68480e-01,-4.32,-4.24
-3.68448e-01,-4.08,-3.76
-3.68416e-01,-3.6,-4.56
-3.68384e-01,-4.08,-3.92
-3.68352e-01,-3.92,-4.32
-3.68320e-01,-3.92,-3.36
-3.68288e-01,-4.16,-4.24
-3.68256e-01,-3.92,-3.44
-3.68224e-01,-3.92,-4.56
-3.68192e-01,-4.24,-3.44
-3.68160e-01,-4.32,-4.48
-3.68128e-01,-4.24,-3.44
-3.68096e-01,-3.44,-4.4
-3.68064e-01,-3.84,-3.6
-3.68032e-01,-4.56,-4.48
-3.68000e-01,-3.84,-3.36
-3.67968e-01,-4.16,-4.72
-3.67936e-01,-4.24,-3.68
-3.67904e-01,-4,-4.56
-3.67872e-01,-4.16,-3.52
-3.67840e-01,-4.48,-4.32
-3.67808e-01,-3.84,-3.6
-3.67776e-01,-4.24,-4.56
-3.67744e-01,-3.92,-3.76
-3.67712e-01,-3.92,-4.4
-3.67680e-01,-4.4,-3.52
-3.67648e-01,-4.16,-5.04
-3.67616e-01,-4.08,-3.44
-3.67584e-01,-4.48,-4.8
-3.67552e-01,-3.84,-3.6
-3.67520e-01,-4.4,-4.56
-3.67488e-01,-3.84,-3.6
-3.67456e-01,-4,-4.56
-3.67424e-01,-3.84,-3.52
-3.67392e-01,-4,-4.48
-3.67360e-01,-4.24,-3.6
-3.67328e-01,-4.16,-4.4
-3.67296e-01,-3.92,-3.68
-3.67264e-01,-4,-4.4
-3.67232e-01,-3.84,-3.76
-3.67200e-01,-4.24,-4.56
-3.67168e-01,-4.32,-3.76
-3.67136e-01,-4.24,-4.56
-3.67104e-01,-3.76,-3.6
-3.67072e-01,-3.84,-4.8
-3.67040e-01,-4.16,-3.68
-3.67008e-01,-3.92,-4.48
-3.66976e-01,-4.16,-3.6
-3.66944e-01,-4.08,-4.48
-3.66912e-01,-3.76,-3.6
-3.66880e-01,-4.24,-4.56
-3.66848e-01,-4.16,-3.6
-3.66816e-01,-4.24,-4.4
-3.66784e-01,-4.08,-3.6
-3.66752e-01,-3.68,-4.64
-3.66720e-01,-3.76,-3.92
-3.66688e-01,-4.08,-4.24
-3.66656e-01,-3.68,-3.36
-3.66624e-01,-4.48,-4.56
-3.66592e-01,-3.76,-3.52
-3.66560e-01,-4.08,-4.72
-3.66528e-01,-3.92,-3.52
-3.66496e-01,-4.16,-4.4
-3.66464e-01,-4.24,-3.52
-3.66432e-01,-3.92,-4.48
-3.66400e-01,-4.24,-3.76
-3.66368e-01,-4.08,-4.64
-3.66336e-01,-4.4,-3.68
-3.66304e-01,-4,-4.72
-3.66272e-01,-4.08,-3.52
-3.66240e-01,-3.76,-4.64
-3.66208e-01,-4.08,-3.68
-3.66176e-01,-4.16,-4.32
-3.66144e-01,-4.24,-3.52
-3.66112e-01,-3.92,-4.64
-3.66080e-01,-3.84,-3.68
-3.66048e-01,-4.08,-4.4
-3.66016e-01,-3.92,-3.68
-3.65984e-01,-4.16,-4.56
-3.65952e-01,-4.08,-3.68
-3.65920e-01,-3.76,-4.56
-3.65888e-01,-3.84,-3.76
-3.65856e-01,-3.92,-4.16
-3.65824e-01,-3.92,-3.6
-3.65792e-01,-4.08,-4.56
-3.65760e-01,-4,-3.76
-3.65728e-01,-3.84,-4.72
-3.65696e-01,-4.32,-3.52
-3.65664e-01,-4,-4.56
-3.65632e-01,-3.84,-3.76
-3.65600e-01,-4.08,-4.4
-3.65568e-01,-3.76,-3.36
-3.65536e-01,-3.92,-4.48
-3.65504e-01,-4.24,-3.6
-3.65472e-01,-4,-4.72
-3.65440e-01,-4.08,-3.68
-3.65408e-01,-4.16,-4.48
-3.65376e-01,-4.4,-3.6
-3.65344e-01,-4.4,-4.56
-3.65312e-01,-4.4,-3.52
-3.65280e-01,-3.84,-4.64
-3.65248e-01,-3.84,-3.76
-3.65216e-01,-4.24,-4.32
-3.65184e-01,-4.4,-3.68
-3.65152e-01,-4.32,-4.56
-3.65120e-01,-4.16,-3.36
-3.65088e-01,-4,-4.64
-3.65056e-01,-4,-3.84
-3.65024e-01,-4.24,-4.56
-3.64992e-01,-4.16,-3.76
-3.64960e-01,-4.32,-4.8
-3.64928e-01,-3.92,-3.68
-3.64896e-01,-4.16,-4.56
-3.64864e-01,-4.16,-3.68
-3.64832e-01,-4.16,-4.48
-3.64800e-01,-4.16,-3.76
-3.64768e-01,-4.48,-4.48
-3.64736e-01,-4.08,-3.36
-3.64704e-01,-3.84,-4.64
-3.64672e-01,-4.08,-3.6
-3.64640e-01,-4.16,-4.64
-3.64608e-01,-3.68,-3.76
-3.64576e-01,-4,-4.48
-3.64544e-01,-4.32,-3.52
-3.64512e-01,-3.84,-4.48
-3.64480e-01,-4.32,-3.6
-3.64448e-01,-4.32,-4.48
-3.64416e-01,-3.76,-3.68
-3.64384e-01,-3.84,-4.48
-3.64352e-01,-4.24,-3.36
-3.64320e-01,-4.08,-4.4
-3.64288e-01,-3.92,-3.44
-3.64256e-01,-4.08,-4.4
-3.64224e-01,-4.08,-3.28
-3.64192e-01,-4.16,-4.4
-3.64160e-01,-3.92,-3.6
-3.64128e-01,-4.16,-4.56
-3.64096e-01,-3.68,-3.68
-3.64064e-01,-4.08,-4.32
-3.64032e-01,-3.76,-3.6
-3.64000e-01,-3.92,-4.4
-3.63968e-01,-4.08,-3.52
-3.63936e-01,-3.92,-4.56
-3.63904e-01,-3.84,-3.52
-3.63872e-01,-4.08,-4.32
-3.63840e-01,-4.32,-3.6
-3.63808e-01,-4.4,-4.64
-3.63776e-01,-3.84,-3.68
-3.63744e-01,-3.84,-4.64
-3.63712e-01,-4.08,-3.68
-3.63680e-01,-4.08,-4.64
-3.63648e-01,-3.92,-3.52
-3.63616e-01,-3.6,-4.64
-3.63584e-01,-3.76,-3.76
-3.63552e-01,-4.08,-4.64
-3.63520e-01,-3.92,-3.52
-3.63488e-01,-4.32,-4.72
-3.63456e-01,-3.92,-3.68
-3.63424e-01,-4.16,-4.64
-3.63392e-01,-3.92,-3.36
-3.63360e-01,-3.92,-4.48
-3.63328e-01,-4.16,-3.68
-3.63296e-01,-4.24,-4.72
-3.63264e-01,-4.32,-3.68
-3.63232e-01,-4,-4.4
-3.63200e-01,-4.4,-3.6
-3.63168e-01,-4.32,-4.56
-3.63136e-01,-3.68,-3.84
-3.63104e-01,-3.52,-4.48
-3.63072e-01,-4,-3.6
-3.63040e-01,-4.4,-4.4
-3.63008e-01,-3.76,-3.36
-3.62976e-01,-4.24,-4.64
-3.62944e-01,-3.84,-3.6
-3.62912e-01,-4.08,-4.4
-3.62880e-01,-4,-3.68
-3.62848e-01,-4.24,-4.4
-3.62816e-01,-4.48,-3.6
-3.62784e-01,-4.16,-4.64
-3.62752e-01,-4.24,-3.84
-3.62720e-01,-4.24,-4.4
-3.62688e-01,-4.16,-3.44
-3.62656e-01,-4,-4.64
-3.62624e-01,-4.16,-3.84
-3.62592e-01,-4,-4.4
-3.62560e-01,-4.32,-3.44
-3.62528e-01,-4,-4.48
-3.62496e-01,-4.08,-3.68
-3.62464e-01,-4.16,-4.64
-3.62432e-01,-4.16,-3.76
-3.62400e-01,-3.6,-4.56
-3.62368e-01,-3.76,-3.6
-3.62336e-01,-4.08,-4.4
-3.62304e-01,-3.68,-3.2
-3.62272e-01,-4.24,-4.4
-3.62240e-01,-4.4,-3.52
-3.62208e-01,-4.24,-4.48
-3.62176e-01,-3.68,-3.6
-3.62144e-01,-4,-4.64
-3.62112e-01,-4.08,-3.6
-3.62080e-01,-4,-4.56
-3.62048e-01,-4.16,-3.6
-3.62016e-01,-4,-4.48
-3.61984e-01,-4.16,-3.68
-3.61952e-01,-3.68,-4.72
-3.61920e-01,-4.16,-3.68
-3.61888e-01,-3.92,-4.32
-3.61856e-01,-4.24,-3.44
-3.61824e-01,-4.08,-4.8
-3.61792e-01,-4.08,-3.84
-3.61760e-01,-4.4,-4.56
-3.61728e-01,-4.4,-3.6
-3.61696e-01,-4.48,-4.72
-3.61664e-01,-4.32,-3.44
-3.61632e-01,-4.08,-4.64
-3.61600e-01,-3.84,-3.84
-3.61568e-01,-4.48,-4.64
-3.61536e-01,-4.32,-3.6
-3.61504e-01,-4.24,-4.72
-3.61472e-01,-3.92,-3.68
-3.61440e-01,-3.84,-4.48
-3.61408e-01,-4.4,-3.36
-3.61376e-01,-4.24,-4.48
-3.61344e-01,-4.4,-3.52
-3.61312e-01,-4,-4.64
-3.61280e-01,-3.92,-3.92
-3.61248e-01,-3.92,-4.48
-3.61216e-01,-4.32,-3.52
-3.61184e-01,-4.32,-4.48
-3.61152e-01,-3.6,-3.6
-3.61120e-01,-4,-4.56
-3.61088e-01,-4.24,-3.52
-3.61056e-01,-3.92,-4.4
-3.61024e-01,-4.24,-3.68
-3.60992e-01,-3.92,-4.48
-3.60960e-01,-4,-3.76
-3.60928e-01,-3.92,-4.32
-3.60896e-01,-4.24,-3.76
-3.60864e-01,-4,-4.56
-3.60832e-01,-3.92,-3.68
-3.60800e-01,-4.08,-4.88
-3.60768e-01,-4.16,-3.76
-3.60736e-01,-4.08,-4.32
-3.60704e-01,-4.4,-3.44
-3.60672e-01,-3.92,-4.64
-3.60640e-01,-4.24,-3.76
-3.60608e-01,-4.16,-4.48
-3.60576e-01,-4,-3.76
-3.60544e-01,-4.32,-4.4
-3.60512e-01,-4.08,-3.36
-3.60480e-01,-3.84,-4.72
-3.60448e-01,-4.32,-3.68
-3.60416e-01,-4.08,-4.4
-3.60384e-01,-4.64,-3.44
-3.60352e-01,-4.4,-4.8
-3.60320e-01,-3.84,-3.68
-3.60288e-01,-3.44,-4.8
-3.60256e-01,-4.16,-3.68
-3.60224e-01,-4.08,-4.32
-3.60192e-01,-4.4,-3.2
-3.60160e-01,-4,-4.56
-3.60128e-01,-3.84,-3.68
-3.60096e-01,-4.32,-4.32
-3.60064e-01,-3.92,-3.52
-3.60032e-01,-4,-4.56
-3.60000e-01,-3.76,-3.6
-3.59968e-01,-3.92,-4.48
-3.59936e-01,-4.08,-3.68
-3.59904e-01,-4.32,-4.16
-3.59872e-01,-4.08,-3.44
-3.59840e-01,-4.16,-4.4
-3.59808e-01,-3.84,-3.92
-3.59776e-01,-4,-4.56
-3.59744e-01,-4.4,-3.52
-3.59712e-01,-4.16,-4.56
-3.59680e-01,-3.92,-3.68
-3.59648e-01,-4,-4.64
-3.59616e-01,-4.24,-3.76
-3.59584e-01,-4,-4.48
-3.59552e-01,-4.32,-3.44
-3.59520e-01,-4.16,-4.48
-3.59488e-01,-4.08,-3.68
-3.59456e-01,-4.08,-4.48
-3.59424e-01,-4,-3.68
-3.59392e-01,-4.08,-4.48
-3.59360e-01,-4.16,-3.6
-3.59328e-01,-3.92,-4.56
-3.59296e-01,-4,-3.68
-3.59264e-01,-4.24,-4.56
-3.59232e-01,-4.32,-3.6
-3.59200e-01,-4.08,-4.64
-3.59168e-01,-4.08,-3.76
-3.59136e-01,-4,-4.48
-3.59104e-01,-4.48,-3.6
-3.59072e-01,-3.92,-4.56
-3.59040e-01,-4.24,-3.44
-3.59008e-01,-4.16,-4.56
-3.58976e-01,-3.76,-3.68
-3.58944e-01,-4,-4.32
-3.58912e-01,-4.4,-3.68
-3.58880e-01,-3.76,-4.48
-3.58848e-01,-4.32,-3.76
-3.58816e-01,-4.08,-4.88
-3.58784e-01,-3.84,-3.6
-3.58752e-01,-4.24,-4.32
-3.58720e-01,-4.48,-3.6
-3.58688e-01,-4,-4.64
-3.58656e-01,-4.24,-3.52
-3.58624e-01,-3.76,-4.56
-3.58592e-01,-4.48,-3.68
-3.58560e-01,-3.92,-4.72
-3.58528e-01,-4,-3.52
-3.58496e-01,-3.76,-4.72
-3.58464e-01,-4.32,-3.68
-3.58432e-01,-4.08,-4.48
-3.58400e-01,-4.08,-3.52
-3.58368e-01,-4.48,-4.56
-3.58336e-01,-3.84,-3.76
-3.58304e-01,-4.24,-4.96
-3.58272e-01,-4.32,-3.68
-3.58240e-01,-4.08,-4.64
-3.58208e-01,-4.16,-3.6
-3.58176e-01,-3.6,-4.48
-3.58144e-01,-4.16,-3.84
-3.58112e-01,-3.84,-4.4
-3.58080e-01,-4.08,-3.36
-3.58048e-01,-4.24,-4.32
-3.58016e-01,-4.08,-3.6
-3.57984e-01,-4,-4.64
-3.57952e-01,-4,-3.68
-3.57920e-01,-4.08,-4.32
-3.57888e-01,-3.84,-3.76
-3.57856e-01,-4.32,-4.48
-3.57824e-01,-4.08,-3.68
-3.57792e-01,-4.24,-4.4
-3.57760e-01,-4.08,-3.68
-3.57728e-01,-3.84,-4.4
-3.57696e-01,-3.92,-3.68
-3.57664e-01,-4.24,-4.48
-3.57632e-01,-4.08,-3.68
-3.57600e-01,-4.16,-4.48
-3.57568e-01,-4.32,-3.44
-3.57536e-01,-4.08,-4.4
-3.57504e-01,-4,-3.84
-3.57472e-01,-4.24,-4.4
-3.57440e-01,-3.92,-3.68
-3.57408e-01,-4.4,-4.4
-3.57376e-01,-4.08,-3.52
-3.57344e-01,-4,-4.48
-3.57312e-01,-4.16,-3.84
-3.57280e-01,-4.08,-4.8
-3.57248e-01,-4.08,-3.68
-3.57216e-01,-4.16,-4.4
-3.57184e-01,-3.92,-3.6
-3.57152e-01,-3.92,-4.8
-3.57120e-01,-4,-3.76
-3.57088e-01,-4.32,-4.48
-3.57056e-01,-3.92,-3.6
-3.57024e-01,-4.24,-4.64
-3.56992e-01,-4.16,-3.68
-3.56960e-01,-4,-4.4
-3.56928e-01,-4,-3.76
-3.56896e-01,-4.16,-4.48
-3.56864e-01,-4.16,-3.6
-3.56832e-01,-4,-4.48
-3.56800e-01,-3.76,-3.68
-3.56768e-01,-4.16,-4.24
-3.56736e-01,-4.24,-3.6
-3.56704e-01,-3.92,-4.4
-3.56672e-01,-3.92,-3.52
-3.56640e-01,-4.08,-4.32
-3.56608e-01,-3.92,-3.6
-3.56576e-01,-4.32,-4.56
-3.56544e-01,-4,-3.36
-3.56512e-01,-4.24,-4.48
-3.56480e-01,-4.16,-3.68
-3.56448e-01,-4.16,-4.4
-3.56416e-01,-4.08,-3.6
-3.56384e-01,-4.32,-4.32
-3.56352e-01,-4,-3.6
-3.56320e-01,-3.84,-4.48
-3.56288e-01,-4,-3.6
-3.56256e-01,-4.48,-4.4
-3.56224e-01,-4.8,-3.52
-3.56192e-01,-4.08,-4.88
-3.56160e-01,-4,-3.84
-3.56128e-01,-4,-4.72
-3.56096e-01,-4.64,-3.44
-3.56064e-01,-4.32,-4.8
-3.56032e-01,-4.24,-3.6
-3.56000e-01,-3.84,-4.64
-3.55968e-01,-3.76,-3.68
-3.55936e-01,-3.92,-4.4
-3.55904e-01,-3.76,-3.28
-3.55872e-01,-4.24,-4.48
-3.55840e-01,-3.76,-3.52
-3.55808e-01,-4.16,-4.4
-3.55776e-01,-3.92,-3.6
-3.55744e-01,-4.16,-4.32
-3.55712e-01,-4,-3.44
-3.55680e-01,-4.08,-4.72
-3.55648e-01,-4.16,-3.44
-3.55616e-01,-4.4,-4.72
-3.55584e-01,-4.56,-3.52
-3.55552e-01,-4.16,-4.64
-3.55520e-01,-4,-3.36
-3.55488e-01,-3.92,-4.56
-3.55456e-01,-4.32,-3.76
-3.55424e-01,-4.08,-4.48
-3.55392e-01,-4.32,-3.6
-3.55360e-01,-4.16,-4.48
-3.55328e-01,-4.32,-3.68
-3.55296e-01,-3.92,-4.64
-3.55264e-01,-4.16,-3.76
-3.55232e-01,-4.16,-4.4
-3.55200e-01,-3.76,-3.52
-3.55168e-01,-4,-4.56
-3.55136e-01,-4.24,-3.68
-3.55104e-01,-4.24,-4.32
-3.55072e-01,-4,-3.6
-3.55040e-01,-4.24,-4.56
-3.55008e-01,-3.76,-3.6
-3.54976e-01,-3.68,-4.48
-3.54944e-01,-4.08,-3.68
-3.54912e-01,-4.32,-4.48
-3.54880e-01,-3.84,-3.52
-3.54848e-01,-4.24,-4.56
-3.54816e-01,-4.16,-3.68
-3.54784e-01,-4.24,-4.4
-3.54752e-01,-4.24,-3.6
-3.54720e-01,-4.4,-4.32
-3.54688e-01,-3.6,-3.92
-3.54656e-01,-4,-4.48
-3.54624e-01,-4,-3.44
-3.54592e-01,-4.64,-4.56
-3.54560e-01,-4.48,-3.52
-3.54528e-01,-3.68,-4.72
-3.54496e-01,-4,-3.84
-3.54464e-01,-4.08,-4.8
-3.54432e-01,-4.08,-3.52
-3.54400e-01,-4.24,-4.56
-3.54368e-01,-4.32,-3.52
-3.54336e-01,-3.68,-4.64
-3.54304e-01,-4.08,-3.84
-3.54272e-01,-4.08,-4.48
-3.54240e-01,-4.08,-3.52
-3.54208e-01,-4.08,-4.48
-3.54176e-01,-4.08,-3.68
-3.54144e-01,-3.92,-4.56
-3.54112e-01,-4.24,-3.76
-3.54080e-01,-4.16,-4.64
-3.54048e-01,-3.76,-3.6
-3.54016e-01,-4,-4.48
-3.53984e-01,-4.08,-3.52
-3.53952e-01,-4.32,-4.4
-3.53920e-01,-4.32,-3.52
-3.53888e-01,-4.48,-4.56
-3.53856e-01,-3.6,-3.92
-3.53824e-01,-3.84,-4.64
-3.53792e-01,-4.08,-3.36
-3.53760e-01,-4.16,-4.32
-3.53728e-01,-4.08,-3.52
-3.53696e-01,-4.08,-4.56
-3.53664e-01,-4,-3.76
-3.53632e-01,-4.08,-4.56
-3.53600e-01,-4.08,-3.68
-3.53568e-01,-3.68,-4.48
-3.53536e-01,-4.08,-3.52
-3.53504e-01,-3.92,-4.72
-3.53472e-01,-4.24,-3.52
-3.53440e-01,-3.84,-4.32
-3.53408e-01,-4.24,-3.6
-3.53376e-01,-3.92,-4.48
-3.53344e-01,-4,-3.76
-3.53312e-01,-3.6,-4.48
-3.53280e-01,-4.16,-3.44
-3.53248e-01,-4.56,-4.56
-3.53216e-01,-4.08,-3.36
-3.53184e-01,-4.16,-4.72
-3.53152e-01,-4.24,-3.52
-3.53120e-01,-4.32,-4.4
-3.53088e-01,-3.76,-3.6
-3.53056e-01,-4.32,-4.48
-3.53024e-01,-3.76,-3.68
-3.52992e-01,-3.92,-4.64
-3.52960e-01,-4.16,-3.36
-3.52928e-01,-3.84,-4.32
-3.52896e-01,-4,-3.52
-3.52864e-01,-4,-4.48
-3.52832e-01,-4.32,-3.76
-3.52800e-01,-3.52,-4.56
-3.52768e-01,-4.32,-3.6
-3.52736e-01,-4.4,-4.56
-3.52704e-01,-4,-3.44
-3.52672e-01,-4,-4.8
-3.52640e-01,-4.32,-3.76
-3.52608e-01,-4.16,-4.48
-3.52576e-01,-3.84,-3.44
-3.52544e-01,-4.16,-4.48
-3.52512e-01,-4,-3.68
-3.52480e-01,-4.4,-4.24
-3.52448e-01,-4.16,-3.6
-3.52416e-01,-4.56,-4.48
-3.52384e-01,-4.32,-3.6
-3.52352e-01,-3.6,-4.8
-3.52320e-01,-4,-3.68
-3.52288e-01,-4.32,-4.4
-3.52256e-01,-4.08,-3.52
-3.52224e-01,-4.16,-4.64
-3.52192e-01,-4,-3.84
-3.52160e-01,-4.08,-4.64
-3.52128e-01,-4.16,-3.84
-3.52096e-01,-4.16,-4.24
-3.52064e-01,-4.16,-3.36
-3.52032e-01,-4.08,-4.48
-3.52000e-01,-4.16,-3.6
-3.51968e-01,-4,-4.32
-3.51936e-01,-4.08,-3.68
-3.51904e-01,-4,-4.72
-3.51872e-01,-3.92,-3.84
-3.51840e-01,-4.16,-4.72
-3.51808e-01,-4.24,-3.76
-3.51776e-01,-4.32,-4.48
-3.51744e-01,-4.24,-3.68
-3.51712e-01,-4.32,-4.48
-3.51680e-01,-3.92,-3.52
-3.51648e-01,-3.52,-4.48
-3.51616e-01,-4.24,-3.52
-3.51584e-01,-4.32,-4.64
-3.51552e-01,-3.68,-3.44
-3.51520e-01,-4.08,-4.64
-3.51488e-01,-3.92,-3.52
-3.51456e-01,-4.08,-4.4
-3.51424e-01,-4.24,-3.52
-3.51392e-01,-4,-4.56
-3.51360e-01,-4.24,-3.68
-3.51328e-01,-4.08,-4.4
-3.51296e-01,-4.24,-3.52
-3.51264e-01,-4.48,-4.64
-3.51232e-01,-4.24,-3.68
-3.51200e-01,-4.48,-4.64
-3.51168e-01,-4.32,-3.84
-3.51136e-01,-4.48,-4.64
-3.51104e-01,-4.16,-3.52
-3.51072e-01,-3.76,-4.72
-3.51040e-01,-3.84,-3.68
-3.51008e-01,-4.24,-4.8
-3.50976e-01,-4.16,-3.44
-3.50944e-01,-3.84,-4.48
-3.50912e-01,-3.68,-3.6
-3.50880e-01,-3.92,-4.64
-3.50848e-01,-3.68,-3.52
-3.50816e-01,-4.08,-4.48
-3.50784e-01,-4.4,-3.44
-3.50752e-01,-4.16,-4.56
-3.50720e-01,-3.76,-3.36
-3.50688e-01,-3.68,-4.56
-3.50656e-01,-4.16,-3.6
-3.50624e-01,-4.08,-4.48
-3.50592e-01,-4.24,-3.6
-3.50560e-01,-3.84,-4.72
-3.50528e-01,-4.24,-3.76
-3.50496e-01,-4.08,-4.56
-3.50464e-01,-4.08,-3.68
-3.50432e-01,-4,-4.72
-3.50400e-01,-3.68,-3.36
-3.50368e-01,-4.08,-4.48
-3.50336e-01,-3.76,-3.52
-3.50304e-01,-4.08,-4.32
-3.50272e-01,-4,-3.52
-3.50240e-01,-4.16,-4.8
-3.50208e-01,-3.76,-3.52
-3.50176e-01,-3.84,-4.48
-3.50144e-01,-4.4,-3.6
