rawdata/T0063CH1.CSV

Model,DPO2002B
Firmware Version,1.52

Point Format,Y,
Horizontal Units,S,
Horizontal Scale,0.004,
Sample Interval,7.68049e-06,
Filter Frequency,290000,
Record Length,5207,
Gating,0.0% to 100.0%,
Probe Attenuation,10,
Vertical Units,V,
Vertical Offset,0,
Vertical Scale,2,
Label,,
TIME,CH1,CH1 Peak Detect
-3.7600e-03,-4.08,-4.24
-3.7523e-03,-4,-3.68
-3.7446e-03,-3.76,-4.4
-3.7370e-03,-3.84,-3.52
-3.7293e-03,-4.24,-4.4
-3.7216e-03,-4.24,-4
-3.7139e-03,-4.16,-4.32
-3.7062e-03,-4,-3.76
-3.6986e-03,-3.84,-4.48
-3.6909e-03,-4.24,-3.76
-3.6832e-03,-4.32,-4.64
-3.6755e-03,-4.4,-4.16
-3.6678e-03,-4.32,-4.48
-3.6602e-03,-4.08,-3.92
-3.6525e-03,-4.16,-4.4
-3.6448e-03,-3.92,-3.76
-3.6371e-03,-4.16,-4.4
-3.6294e-03,-4.24,-4
-3.6218e-03,-4,-4.4
-3.6141e-03,-4.16,-3.76
-3.6064e-03,-4.08,-4.4
-3.5987e-03,-4.16,-3.76
-3.5910e-03,-3.84,-4.32
-3.5833e-03,-3.68,-3.44
-3.5757e-03,-3.6,-3.76
-3.5680e-03,-3.36,-3.2
-3.5603e-03,-3.68,-4.32
-3.5526e-03,-3.84,-3.36
-3.5449e-03,-4.16,-4.4
-3.5373e-03,-4.08,-3.84
-3.5296e-03,-4.16,-4.4
-3.5219e-03,-3.92,-3.84
-3.5142e-03,-4.16,-4.56
-3.5065e-03,-4.4,-4
-3.4989e-03,-4,-4.48
-3.4912e-03,-4.32,-3.92
-3.4835e-03,-4.24,-4.4
-3.4758e-03,-4.32,-3.84
-3.4681e-03,-4,-4.4
-3.4605e-03,-4.16,-3.84
-3.4528e-03,-4.16,-4.56
-3.4451e-03,-4.32,-3.84
-3.4374e-03,-3.92,-4
-3.4297e-03,-3.92,-3.68
-3.4221e-03,-4.16,-4.4
-3.4144e-03,-4.08,-3.76
-3.4067e-03,-3.84,-4.08
-3.3990e-03,-3.84,-3.76
-3.3913e-03,-3.92,-4.16
-3.3837e-03,-3.92,-3.84
-3.3760e-03,-4.08,-4.16
-3.3683e-03,-3.92,-3.84
-3.3606e-03,-3.84,-4.4
-3.3529e-03,-4.24,-3.68
-3.3453e-03,-4,-4.4
-3.3376e-03,-4.32,-3.84
-3.3299e-03,-3.84,-4.32
-3.3222e-03,-4,-3.68
-3.3145e-03,-4.4,-4.48
-3.3069e-03,-4.08,-3.84
-3.2992e-03,-4.08,-4.32
-3.2915e-03,-4.24,-3.92
-3.2838e-03,-4.24,-4.48
-3.2761e-03,-4.32,-3.92
-3.2684e-03,-3.92,-4.16
-3.2608e-03,-4.08,-3.84
-3.2531e-03,-4,-4.16
-3.2454e-03,-3.76,-3.6
-3.2377e-03,-3.84,-4.16
-3.2300e-03,-3.76,-3.52
-3.2224e-03,-4.24,-4.4
-3.2147e-03,-4.24,-4
-3.2070e-03,-4.16,-4.4
-3.1993e-03,-4,-3.92
-3.1916e-03,-4.32,-4.48
-3.1840e-03,-4.16,-4
-3.1763e-03,-4.16,-4.56
-3.1686e-03,-4.08,-3.76
-3.1609e-03,-4.4,-4.56
-3.1532e-03,-4.16,-4
-3.1456e-03,-4.24,-4.4
-3.1379e-03,-3.84,-3.76
-3.1302e-03,-4.24,-4.56
-3.1225e-03,-4.32,-4.08
-3.1148e-03,-4.48,-4.64
-3.1072e-03,-4.48,-4
-3.0995e-03,-3.84,-4.48
-3.0918e-03,-4.08,-3.76
-3.0841e-03,-4.24,-4.4
-3.0764e-03,-3.84,-3.68
-3.0688e-03,-4.08,-4.32
-3.0611e-03,-4,-3.84
-3.0534e-03,-3.92,-4.56
-3.0457e-03,-4.32,-3.84
-3.0380e-03,-4.24,-4.56
-3.0304e-03,-4.08,-3.84
-3.0227e-03,-4.16,-4.48
-3.0150e-03,-4.24,-4.08
-3.0073e-03,-4.32,-4.48
-2.9996e-03,-4.32,-4.08
-2.9920e-03,-4.16,-4.4
-2.9843e-03,-3.84,-3.76
-2.9766e-03,-4.16,-4.32
-2.9689e-03,-3.92,-3.52
-2.9612e-03,-3.68,-4.24
-2.9535e-03,-4.16,-3.52
-2.9459e-03,-4.24,-4.32
-2.9382e-03,-3.68,-3.6
-2.9305e-03,-3.76,-4.08
-2.9228e-03,-3.92,-3.68
-2.9151e-03,-4,-4.08
-2.9075e-03,-3.6,-3.52
-2.8998e-03,-3.84,-4.08
-2.8921e-03,-3.92,-3.68
-2.8844e-03,-4.16,-4.32
-2.8767e-03,-4.24,-4
-2.8691e-03,-4,-4.16
-2.8614e-03,-3.84,-3.6
-2.8537e-03,-4.16,-4.4
-2.8460e-03,-3.92,-3.68
-2.8383e-03,-4.08,-4.56
-2.8307e-03,-4.48,-3.92
-2.8230e-03,-4,-4.32
-2.8153e-03,-4.08,-3.92
-2.8076e-03,-4.32,-4.64
-2.7999e-03,-4.48,-4.08
-2.7923e-03,-4.08,-4.24
-2.7846e-03,-3.92,-3.6
-2.7769e-03,-3.84,-4.08
-2.7692e-03,-3.92,-3.68
-2.7615e-03,-3.68,-4.16
-2.7539e-03,-4,-3.6
-2.7462e-03,-4.16,-4.24
-2.7385e-03,-3.84,-3.68
-2.7308e-03,-4,-4.24
-2.7231e-03,-4.16,-3.92
-2.7155e-03,-4.24,-4.56
-2.7078e-03,-4.32,-4.16
-2.7001e-03,-4.4,-4.56
-2.6924e-03,-4,-3.84
-2.6847e-03,-3.84,-4.4
-2.6771e-03,-4.24,-3.76
-2.6694e-03,-4.08,-4.32
-2.6617e-03,-4.16,-3.92
-2.6540e-03,-4.24,-4.4
-2.6463e-03,-4.16,-4
-2.6386e-03,-4.32,-4.4
-2.6310e-03,-3.84,-3.76
-2.6233e-03,-4,-4.32
-2.6156e-03,-4.08,-3.84
-2.6079e-03,-3.84,-4.4
-2.6002e-03,-4.24,-3.76
-2.5926e-03,-4.16,-4.32
-2.5849e-03,-3.84,-3.68
-2.5772e-03,-3.92,-4.16
-2.5695e-03,-3.84,-3.68
-2.5618e-03,-4.16,-4.32
-2.5542e-03,-4.16,-4
-2.5465e-03,-4,-4.48
-2.5388e-03,-4.24,-3.92
-2.5311e-03,-4.32,-4.4
-2.5234e-03,-4.16,-4
-2.5158e-03,-4.08,-4.24
-2.5081e-03,-4.08,-4
-2.5004e-03,-4.24,-4.56
-2.4927e-03,-4.48,-4.08
-2.4850e-03,-4.08,-4.24
-2.4774e-03,-4.08,-3.92
-2.4697e-03,-4.08,-4.48
-2.4620e-03,-4.32,-4
-2.4543e-03,-4,-4.56
-2.4466e-03,-4.4,-3.92
-2.4390e-03,-4,-4.16
-2.4313e-03,-3.84,-3.68
-2.4236e-03,-4,-4.24
-2.4159e-03,-4.16,-3.84
-2.4082e-03,-3.84,-4.08
-2.4006e-03,-4,-3.6
-2.3929e-03,-3.92,-4.16
-2.3852e-03,-3.84,-3.68
-2.3775e-03,-4.16,-4.24
-2.3698e-03,-3.92,-3.68
-2.3622e-03,-4,-4.4
-2.3545e-03,-4.24,-3.76
-2.3468e-03,-4.08,-4.24
-2.3391e-03,-4.08,-3.84
-2.3314e-03,-4.08,-4.64
-2.3237e-03,-4.48,-3.92
-2.3161e-03,-4.08,-4.48
-2.3084e-03,-3.92,-3.68
-2.3007e-03,-4.08,-4.4
-2.2930e-03,-4.24,-3.84
-2.2853e-03,-4.32,-4.4
-2.2777e-03,-3.76,-3.6
-2.2700e-03,-4,-4.08
-2.2623e-03,-3.68,-3.6
-2.2546e-03,-3.92,-4.08
-2.2469e-03,-3.84,-3.68
-2.2393e-03,-4.08,-4.56
-2.2316e-03,-4.16,-3.84
-2.2239e-03,-4.4,-4.56
-2.2162e-03,-4,-3.92
-2.2085e-03,-4.08,-4.16
-2.2009e-03,-3.76,-3.68
-2.1932e-03,-4.24,-4.56
-2.1855e-03,-4.16,-4.08
-2.1778e-03,-4.4,-4.64
-2.1701e-03,-4.16,-4
-2.1625e-03,-4.24,-4.32
-2.1548e-03,-4.16,-3.92
-2.1471e-03,-4.08,-4.32
-2.1394e-03,-4,-3.76
-2.1317e-03,-4.16,-4.32
-2.1241e-03,-4,-3.84
-2.1164e-03,-4.08,-4.24
-2.1087e-03,-4,-3.92
-2.1010e-03,-3.92,-4.16
-2.0933e-03,-3.84,-3.6
-2.0857e-03,-3.92,-4.4
-2.0780e-03,-4.32,-3.68
-2.0703e-03,-3.92,-4.16
-2.0626e-03,-4,-3.84
-2.0549e-03,-3.92,-4.08
-2.0473e-03,-3.84,-3.6
-2.0396e-03,-3.76,-4.16
-2.0319e-03,-4.08,-3.52
-2.0242e-03,-4.08,-4.4
-2.0165e-03,-4.16,-3.76
-2.0088e-03,-4.24,-4.32
-2.0012e-03,-4.08,-4
-1.9935e-03,-4.16,-4.32
-1.9858e-03,-4.08,-4
-1.9781e-03,-4.08,-4.48
-1.9704e-03,-4.32,-3.92
-1.9628e-03,-4.24,-4.48
-1.9551e-03,-3.84,-3.68
-1.9474e-03,-4,-4.08
-1.9397e-03,-3.92,-3.76
-1.9320e-03,-3.92,-4.32
-1.9244e-03,-4.16,-3.76
-1.9167e-03,-3.76,-4.16
-1.9090e-03,-4,-3.6
-1.9013e-03,-3.6,-4.16
-1.8936e-03,-4,-3.44
-1.8860e-03,-3.92,-4.16
-1.8783e-03,-3.92,-3.68
-1.8706e-03,-4.16,-4.4
-1.8629e-03,-4.32,-4
-1.8552e-03,-4.08,-4.16
-1.8476e-03,-3.92,-3.84
-1.8399e-03,-4.24,-4.48
-1.8322e-03,-4.24,-4
-1.8245e-03,-4.24,-4.4
-1.8168e-03,-4.08,-4
-1.8092e-03,-4.48,-4.56
-1.8015e-03,-4,-3.68
-1.7938e-03,-3.68,-4.24
-1.7861e-03,-4.16,-3.6
-1.7784e-03,-3.92,-4.56
-1.7708e-03,-4,-3.76
-1.7631e-03,-4.4,-4.56
-1.7554e-03,-4.16,-4
-1.7477e-03,-4.16,-4.4
-1.7400e-03,-3.84,-3.6
-1.7324e-03,-4,-4.08
-1.7247e-03,-3.92,-3.76
-1.7170e-03,-4,-4.16
-1.7093e-03,-3.68,-3.52
-1.7016e-03,-4.32,-4.48
-1.6939e-03,-4.24,-4
-1.6863e-03,-3.92,-4.24
-1.6786e-03,-4.08,-3.84
-1.6709e-03,-4.16,-4.56
-1.6632e-03,-4.24,-4
-1.6555e-03,-4.16,-4.4
-1.6479e-03,-4.24,-4
-1.6402e-03,-4.24,-4.4
-1.6325e-03,-4.08,-4
-1.6248e-03,-4.16,-4.48
-1.6171e-03,-4.4,-4
-1.6095e-03,-4.08,-4.4
-1.6018e-03,-3.92,-3.76
-1.5941e-03,-3.84,-4.24
-1.5864e-03,-4.08,-3.76
-1.5787e-03,-3.84,-4.24
-1.5711e-03,-4.16,-3.68
-1.5634e-03,-3.84,-4.08
-1.5557e-03,-3.84,-3.68
-1.5480e-03,-3.68,-4
-1.5403e-03,-3.84,-3.52
-1.5327e-03,-3.92,-4.48
-1.5250e-03,-4.32,-3.76
-1.5173e-03,-4.08,-4.4
-1.5096e-03,-4.16,-3.84
-1.5019e-03,-4.16,-4.32
-1.4943e-03,-4.08,-3.84
-1.4866e-03,-3.92,-4.4
-1.4789e-03,-4.24,-3.84
-1.4712e-03,-4.32,-4.48
-1.4635e-03,-3.92,-3.76
-1.4559e-03,-3.84,-4.08
-1.4482e-03,-4,-3.68
-1.4405e-03,-4.24,-4.4
-1.4328e-03,-4.16,-3.92
-1.4251e-03,-4.16,-4.32
-1.4175e-03,-4,-3.92
-1.4098e-03,-4,-4.16
-1.4021e-03,-4,-3.76
-1.3944e-03,-3.84,-4.48
-1.3867e-03,-3.92,-3.52
-1.3790e-03,-4.24,-4.48
-1.3714e-03,-3.92,-3.76
-1.3637e-03,-4.24,-4.56
-1.3560e-03,-4.48,-4
-1.3483e-03,-4.08,-4.24
-1.3406e-03,-4,-3.92
-1.3330e-03,-4.48,-4.56
-1.3253e-03,-4,-3.92
-1.3176e-03,-4.08,-4.16
-1.3099e-03,-3.76,-3.68
-1.3022e-03,-4.08,-4.32
-1.2946e-03,-4.16,-3.92
-1.2869e-03,-4.32,-4.4
-1.2792e-03,-3.76,-3.68
-1.2715e-03,-3.84,-4.16
-1.2638e-03,-4.08,-3.76
-1.2562e-03,-4,-4.16
-1.2485e-03,-3.92,-3.68
-1.2408e-03,-3.84,-4.16
-1.2331e-03,-3.92,-3.76
-1.2254e-03,-4.16,-4.4
-1.2178e-03,-4.16,-3.92
-1.2101e-03,-4,-4.56
-1.2024e-03,-4.4,-3.84
-1.1947e-03,-4.32,-4.64
-1.1870e-03,-4.48,-4.24
-1.1794e-03,-4.16,-4.4
-1.1717e-03,-3.76,-3.6
-1.1640e-03,-4.24,-4.4
-1.1563e-03,-4.16,-3.84
-1.1486e-03,-4,-4.4
-1.1410e-03,-4.16,-3.84
-1.1333e-03,-4.24,-4.4
-1.1256e-03,-3.84,-3.68
-1.1179e-03,-4,-4.56
-1.1102e-03,-4.24,-3.76
-1.1025e-03,-4,-4.4
-1.0949e-03,-3.6,-3.44
-1.0872e-03,-3.52,-4.32
-1.0795e-03,-4.08,-3.44
-1.0718e-03,-4.08,-4.32
-1.0641e-03,-3.92,-3.68
-1.0565e-03,-4.24,-4.56
-1.0488e-03,-4.48,-4.08
-1.0411e-03,-4.08,-4.88
-1.0334e-03,-4.64,-4
-1.0257e-03,-4.56,-4.64
-1.0181e-03,-4.16,-4
-1.0104e-03,-4.32,-4.48
-1.0027e-03,-4.32,-4.08
-9.9502e-04,-4.24,-4.4
-9.8734e-04,-4.16,-4
-9.7966e-04,-4,-4.32
-9.7198e-04,-3.84,-3.6
-9.6430e-04,-4.4,-4.56
-9.5662e-04,-4.4,-3.76
-9.4894e-04,-3.68,-4.08
-9.4126e-04,-3.84,-3.6
-9.3358e-04,-3.92,-4.4
-9.2590e-04,-4.24,-3.84
-9.1822e-04,-4.08,-4.4
-9.1054e-04,-4,-3.76
-9.0286e-04,-3.76,-4.24
-8.9518e-04,-4,-3.6
-8.8750e-04,-4.16,-4.4
-8.7982e-04,-4.24,-3.92
-8.7214e-04,-4.16,-4.4
-8.6445e-04,-4.24,-4
-8.5677e-04,-4,-4.32
-8.4909e-04,-4.24,-3.92
-8.4141e-04,-4,-4.56
-8.3373e-04,-4.4,-3.92
-8.2605e-04,-4.16,-4.48
-8.1837e-04,-4.4,-4
-8.1069e-04,-4.24,-4.48
-8.0301e-04,-3.76,-3.68
-7.9533e-04,-3.76,-4.24
-7.8765e-04,-4,-3.6
-7.7997e-04,-3.84,-4.16
-7.7229e-04,-3.68,-3.44
-7.6461e-04,-3.92,-4
-7.5693e-04,-3.76,-3.6
-7.4925e-04,-4,-4.08
-7.4157e-04,-3.84,-3.68
-7.3389e-04,-4.24,-5.04
-7.2621e-04,-4.64,-3.84
-7.1853e-04,-3.84,-4.24
-7.1084e-04,-4.08,-3.76
-7.0316e-04,-4.08,-4.4
-6.9548e-04,-4.24,-3.76
-6.8780e-04,-4.48,-4.56
-6.8012e-04,-4.48,-4.08
-6.7244e-04,-4,-4.16
-6.6476e-04,-3.68,-3.52
-6.5708e-04,-4.16,-4.32
-6.4940e-04,-4,-3.84
-6.4172e-04,-4.08,-4.16
-6.3404e-04,-3.68,-3.52
-6.2636e-04,-4.08,-4.24
-6.1868e-04,-4,-3.76
-6.1100e-04,-3.92,-4.32
-6.0332e-04,-3.92,-3.6
-5.9564e-04,-3.92,-4.32
-5.8796e-04,-4.16,-3.6
-5.8028e-04,-3.92,-4.32
-5.7260e-04,-4.24,-3.84
-5.6492e-04,-3.84,-4.16
-5.5724e-04,-4.08,-3.6
-5.4955e-04,-4,-4.32
-5.4187e-04,-4,-3.84
-5.3419e-04,-4.16,-4.48
-5.2651e-04,-4.32,-4
-5.1883e-04,-4.24,-4.48
-5.1115e-04,-4.4,-4.16
-5.0347e-04,-4.16,-4.56
-4.9579e-04,-4.48,-4.08
-4.8811e-04,-4.16,-4.48
-4.8043e-04,-4.4,-4
-4.7275e-04,-4.24,-4.4
-4.6507e-04,-4.24,-4
-4.5739e-04,-4.24,-4.48
-4.4971e-04,-4.16,-3.92
-4.4203e-04,-4,-4.16
-4.3435e-04,-3.76,-3.52
-4.2667e-04,-4,-4.32
-4.1899e-04,-4,-3.68
-4.1131e-04,-4,-4.32
-4.0363e-04,-4.16,-3.84
-3.9594e-04,-4.08,-4.4
-3.8826e-04,-4.24,-3.92
-3.8058e-04,-4,-4.56
-3.7290e-04,-4.32,-3.92
-3.6522e-04,-4.32,-4.48
-3.5754e-04,-4.32,-4.08
-3.4986e-04,-4.24,-4.4
-3.4218e-04,-4.24,-4.08
-3.3450e-04,-4.4,-4.64
-3.2682e-04,-4.16,-3.92
-3.1914e-04,-4.08,-4.24
-3.1146e-04,-4.16,-3.92
-3.0378e-04,-4.24,-4.32
-2.9610e-04,-4.08,-3.84
-2.8842e-04,-3.92,-4.16
-2.8074e-04,-4,-3.84
-2.7306e-04,-4.16,-4.4
-2.6538e-04,-4.08,-3.76
-2.5770e-04,-4,-4.08
-2.5002e-04,-3.84,-3.68
-2.4233e-04,-3.76,-4
-2.3465e-04,-3.6,-3.44
-2.2697e-04,-4,-4.08
-2.1929e-04,-3.52,-3.36
-2.1161e-04,-3.6,-4.32
-2.0393e-04,-3.6,-3.36
-1.9625e-04,-4.56,-4.8
-1.8857e-04,-4.32,-4.08
-1.8089e-04,-4.48,-4.64
-1.7321e-04,-4.4,-3.84
-1.6553e-04,-3.76,-4.48
-1.5785e-04,-3.92,-3.52
-1.5017e-04,-4.24,-4.48
-1.4249e-04,-4.08,-3.84
-1.3481e-04,-4.08,-4.24
-1.2713e-04,-3.52,-3.36
-1.1945e-04,-4,-4.16
-1.1177e-04,-4,-3.6
-1.0409e-04,-4,-4.4
-9.6406e-05,-4.16,-3.84
-8.8725e-05,-4.32,-4.48
-8.1045e-05,-3.84,-3.6
-7.3364e-05,-3.92,-4.16
-6.5684e-05,-3.76,-3.68
-5.8003e-05,-4.08,-4.48
-5.0323e-05,-4.32,-3.92
-4.2642e-05,-4,-4.64
-3.4962e-05,-4.48,-3.92
-2.7281e-05,-4.48,-4.64
-1.9601e-05,-4,-3.68
-1.1920e-05,-3.84,-4.32
-4.2396e-06,-4,-3.68
3.4409e-06,-8.48,-9.04
1.1121e-05,-9.04,-4.24
1.8802e-05,-9.04,-9.04
2.6482e-05,-9.04,-9.04
3.4163e-05,2.88,-9.04
4.1843e-05,5.2,11.28
4.9524e-05,0.88,-3.12
5.7204e-05,3.28,3.92
6.4885e-05,2.8,2.72
7.2565e-05,3.04,3.2
8.0246e-05,2.64,2.56
8.7926e-05,2.96,3.04
9.5607e-05,2.8,2.64
1.0329e-04,2.96,3.12
1.1097e-04,2.64,2.24
1.1865e-04,2.8,2.96
1.2633e-04,2.4,2.16
1.3401e-04,2.32,2.88
1.4169e-04,2.88,2.24
1.4937e-04,2.56,2.96
1.5705e-04,2.16,2
1.6473e-04,2.72,3.2
1.7241e-04,2.88,2.24
1.8009e-04,2.32,3.12
1.8777e-04,2.56,2.48
1.9545e-04,2.64,2.8
2.0313e-04,2.8,2.16
2.1081e-04,2.4,2.88
2.1849e-04,2.32,2.16
2.2618e-04,2.72,2.88
2.3386e-04,2.4,2.16
2.4154e-04,2.56,2.8
2.4922e-04,2.08,1.92
2.5690e-04,2.16,2.64
2.6458e-04,2.56,2.4
2.7226e-04,2.88,3.04
2.7994e-04,2.48,2.16
2.8762e-04,2.4,2.72
2.9530e-04,1.92,1.76
3.0298e-04,2.16,2.32
3.1066e-04,2.32,2
3.1834e-04,2.08,2.48
3.2602e-04,2.08,1.84
3.3370e-04,2.16,2.4
3.4138e-04,2.16,1.92
3.4906e-04,2.08,2.32
3.5674e-04,2.08,1.92
3.6442e-04,2.08,2.24
3.7210e-04,2,1.76
3.7978e-04,2.4,2.56
3.8747e-04,1.52,1.44
3.9515e-04,2,2.08
4.0283e-04,1.68,1.6
4.1051e-04,1.92,2.08
4.1819e-04,1.6,1.36
4.2587e-04,1.68,2
4.3355e-04,2,1.44
4.4123e-04,1.76,2.16
4.4891e-04,1.6,1.12
4.5659e-04,1.28,1.92
4.6427e-04,1.84,1.12
4.7195e-04,1.28,2
4.7963e-04,1.44,0.88
4.8731e-04,0.96,1.6
4.9499e-04,1.12,0.96
5.0267e-04,1.28,1.52
5.1035e-04,1.36,1.04
5.1803e-04,1.36,1.52
5.2571e-04,1.28,1.04
5.3339e-04,1.6,1.76
5.4108e-04,1.28,0.72
5.4876e-04,0.88,1.6
5.5644e-04,1.2,0.96
5.6412e-04,1.28,1.52
5.7180e-04,1.12,0.88
5.7948e-04,1.04,1.36
5.8716e-04,1.36,0.88
5.9484e-04,0.96,1.52
6.0252e-04,1.12,0.8
6.1020e-04,0.96,1.28
6.1788e-04,0.8,0.48
6.2556e-04,0.64,1.04
6.3324e-04,0.88,0.4
6.4092e-04,0.72,1.12
6.4860e-04,0.16,4.76837e-09
6.5628e-04,0.56,0.88
6.6396e-04,0.4,-0.08
6.7164e-04,0.24,0.72
6.7932e-04,0.64,0.4
6.8700e-04,0.56,0.8
6.9469e-04,0.4,0.24
7.0237e-04,0.56,0.72
7.1005e-04,0.64,4.76837e-09
7.1773e-04,0.48,0.88
7.2541e-04,0.32,4.76837e-09
7.3309e-04,0.4,0.56
7.4077e-04,0.4,0.08
7.4845e-04,0.32,0.48
7.5613e-04,0.4,4.76837e-09
7.6381e-04,0.4,0.56
7.7149e-04,0.08,-0.08
7.7917e-04,0.16,0.32
7.8685e-04,4.76837e-09,-0.24
7.9453e-04,-0.08,0.32
8.0221e-04,0.24,-0.32
8.0989e-04,-0.24,0.4
8.1757e-04,0.16,-0.4
8.2525e-04,-0.24,0.24
8.3293e-04,-0.24,-0.32
8.4061e-04,-0.08,0.08
8.4829e-04,-0.08,-0.24
8.5598e-04,-0.16,4.76837e-09
8.6366e-04,-0.08,-0.16
8.7134e-04,0.24,0.32
8.7902e-04,-0.08,-0.32
8.8670e-04,0.08,0.24
8.9438e-04,-0.32,-0.8
9.0206e-04,-0.72,-0.16
9.0974e-04,-0.48,-0.64
9.1742e-04,-0.08,0.16
9.2510e-04,-0.08,-0.72
9.3278e-04,-0.48,0.08
9.4046e-04,-0.8,-0.96
9.4814e-04,-0.88,-0.48
9.5582e-04,-0.64,-0.88
9.6350e-04,-0.8,-0.48
9.7118e-04,-0.8,-1.04
9.7886e-04,-0.8,-0.56
9.8654e-04,-0.88,-1.28
9.9422e-04,-1.2,-0.56
1.0019e-03,-0.48,-1.12
1.0096e-03,-0.96,-0.4
1.0173e-03,-0.96,-1.12
1.0249e-03,-0.48,-0.24
1.0326e-03,-0.48,-0.88
1.0403e-03,-0.72,-0.24
1.0480e-03,-0.88,-0.96
1.0557e-03,-0.64,-0.56
1.0633e-03,-0.72,-0.88
1.0710e-03,-0.64,-0.4
1.0787e-03,-0.56,-0.88
1.0864e-03,-0.72,-0.4
1.0941e-03,-1.04,-1.2
1.1018e-03,-1.04,-0.72
1.1094e-03,-1.12,-1.28
1.1171e-03,-0.72,-0.64
1.1248e-03,-0.72,-1.12
1.1325e-03,-0.8,-0.64
1.1402e-03,-1.28,-1.52
1.1478e-03,-1.12,-0.96
1.1555e-03,-1.52,-1.6
1.1632e-03,-0.96,-0.72
1.1709e-03,-0.8,-1.6
1.1786e-03,-1.2,-0.72
1.1862e-03,-1.2,-1.6
1.1939e-03,-1.04,-0.96
1.2016e-03,-1.2,-1.36
1.2093e-03,-1.2,-1.04
1.2170e-03,-0.96,-1.44
1.2246e-03,-1.28,-0.88
1.2323e-03,-0.96,-1.44
1.2400e-03,-0.88,-0.72
1.2477e-03,-1.36,-1.52
1.2554e-03,-1.28,-1.2
1.2630e-03,-1.36,-1.52
1.2707e-03,-1.28,-1.2
1.2784e-03,-1.44,-1.6
1.2861e-03,-1.44,-1.2
1.2938e-03,-1.36,-1.52
1.3014e-03,-1.44,-1.2
1.3091e-03,-1.52,-1.68
1.3168e-03,-1.6,-1.36
1.3245e-03,-1.44,-1.68
1.3322e-03,-1.36,-1.2
1.3398e-03,-1.68,-1.84
1.3475e-03,-1.76,-1.52
1.3552e-03,-1.76,-1.92
1.3629e-03,-1.44,-1.28
1.3706e-03,-1.52,-1.6
1.3782e-03,-1.12,-0.88
1.3859e-03,-1.04,-1.52
1.3936e-03,-1.28,-0.96
1.4013e-03,-1.44,-1.92
1.4090e-03,-1.6,-1.36
1.4167e-03,-1.84,-2
1.4243e-03,-1.92,-1.6
1.4320e-03,-1.68,-2.08
1.4397e-03,-1.92,-1.52
1.4474e-03,-1.76,-1.92
1.4551e-03,-1.6,-1.44
1.4627e-03,-1.6,-1.84
1.4704e-03,-1.6,-1.36
1.4781e-03,-1.92,-2.16
1.4858e-03,-2,-1.6
1.4935e-03,-1.84,-2
1.5011e-03,-1.68,-1.6
1.5088e-03,-2.16,-2.24
1.5165e-03,-1.92,-1.76
1.5242e-03,-1.84,-2.08
1.5319e-03,-1.92,-1.6
1.5395e-03,-1.68,-2.08
1.5472e-03,-2,-1.52
1.5549e-03,-2.24,-2.4
1.5626e-03,-2,-1.68
1.5703e-03,-1.84,-2.24
1.5779e-03,-2.08,-1.68
1.5856e-03,-1.92,-2.32
1.5933e-03,-2.16,-1.76
1.6010e-03,-1.76,-2.48
1.6087e-03,-2.16,-1.68
1.6163e-03,-2.4,-2.48
1.6240e-03,-2.08,-1.92
1.6317e-03,-2.32,-2.4
1.6394e-03,-1.92,-1.76
1.6471e-03,-2.24,-2.56
1.6547e-03,-2.24,-1.92
1.6624e-03,-2.32,-2.56
1.6701e-03,-2.4,-2.16
1.6778e-03,-2.32,-2.4
1.6855e-03,-2,-1.92
1.6931e-03,-2.24,-2.48
1.7008e-03,-2.08,-1.76
1.7085e-03,-2.24,-2.48
1.7162e-03,-1.84,-1.76
1.7239e-03,-1.92,-2.4
1.7316e-03,-2.24,-1.76
1.7392e-03,-2.08,-2.64
1.7469e-03,-2.4,-2
1.7546e-03,-2.4,-2.56
1.7623e-03,-2.24,-2
1.7700e-03,-2.24,-2.72
1.7776e-03,-2.56,-2.08
1.7853e-03,-2.24,-2.4
1.7930e-03,-2.24,-2.08
1.8007e-03,-2.16,-2.4
1.8084e-03,-2.16,-2
1.8160e-03,-2.16,-2.56
1.8237e-03,-2.4,-2.08
1.8314e-03,-2.32,-2.88
1.8391e-03,-2.72,-2.16
1.8468e-03,-2.48,-2.8
1.8544e-03,-2.56,-2.24
1.8621e-03,-2.32,-2.48
1.8698e-03,-2.24,-2.08
1.8775e-03,-2.4,-2.48
1.8852e-03,-2.32,-2.16
1.8928e-03,-2.32,-2.64
1.9005e-03,-2.48,-2.24
1.9082e-03,-2.56,-2.72
1.9159e-03,-2.08,-1.92
1.9236e-03,-2.16,-2.72
1.9312e-03,-2.56,-2.08
1.9389e-03,-2.72,-3.04
1.9466e-03,-2.64,-2.48
1.9543e-03,-2.96,-3.04
1.9620e-03,-2.72,-2.56
1.9696e-03,-2.8,-3.2
1.9773e-03,-3.04,-2.48
1.9850e-03,-2.48,-3.2
1.9927e-03,-2.8,-2.32
2.0004e-03,-3.2,-3.36
2.0080e-03,-2.48,-2.24
2.0157e-03,-2.48,-2.88
2.0234e-03,-2.8,-2.32
2.0311e-03,-2.48,-3.12
2.0388e-03,-2.96,-2.4
2.0465e-03,-2.4,-2.88
2.0541e-03,-2.64,-2.24
2.0618e-03,-2.64,-2.8
2.0695e-03,-2.4,-2.08
2.0772e-03,-2.4,-3.04
2.0849e-03,-2.8,-2.16
2.0925e-03,-3.04,-3.36
2.1002e-03,-2.8,-2.4
2.1079e-03,-2.48,-2.8
2.1156e-03,-2.64,-2.32
2.1233e-03,-2.64,-2.96
2.1309e-03,-2.72,-2.48
2.1386e-03,-3.04,-3.12
2.1463e-03,-2.72,-2.48
2.1540e-03,-2.72,-3.2
2.1617e-03,-3.04,-2.56
2.1693e-03,-2.96,-3.12
2.1770e-03,-2.48,-2.4
2.1847e-03,-2.8,-3.36
2.1924e-03,-3.28,-2.64
2.2001e-03,-2.8,-2.96
2.2077e-03,-2.72,-2.64
2.2154e-03,-2.8,-2.88
2.2231e-03,-2.56,-2.48
2.2308e-03,-2.88,-3.12
2.2385e-03,-2.96,-2.64
2.2461e-03,-3.04,-3.2
2.2538e-03,-3.04,-2.8
2.2615e-03,-2.88,-3.12
2.2692e-03,-2.8,-2.64
2.2769e-03,-3.12,-3.2
2.2845e-03,-3.04,-2.8
2.2922e-03,-2.88,-3.52
2.2999e-03,-3.12,-2.8
2.3076e-03,-3.28,-3.52
2.3153e-03,-2.8,-2.64
2.3229e-03,-2.72,-3.28
2.3306e-03,-2.96,-2.64
2.3383e-03,-3.04,-3.28
2.3460e-03,-3.04,-2.88
2.3537e-03,-2.88,-3.36
2.3614e-03,-2.8,-2.64
2.3690e-03,-3.44,-3.52
2.3767e-03,-3.04,-2.88
2.3844e-03,-2.96,-3.2
2.3921e-03,-2.72,-2.48
2.3998e-03,-3.12,-3.36
2.4074e-03,-2.96,-2.88
2.4151e-03,-3.44,-3.6
2.4228e-03,-2.96,-2.56
2.4305e-03,-2.64,-3.6
2.4382e-03,-3.28,-2.56
2.4458e-03,-3.44,-3.6
2.4535e-03,-3.36,-3.12
2.4612e-03,-3.12,-3.28
2.4689e-03,-3.2,-2.96
2.4766e-03,-3.12,-3.6
2.4842e-03,-3.44,-2.96
2.4919e-03,-3.36,-3.76
2.4996e-03,-3.44,-3.2
2.5073e-03,-3.68,-3.84
2.5150e-03,-3.12,-2.96
2.5226e-03,-2.96,-3.2
2.5303e-03,-2.96,-2.88
2.5380e-03,-2.88,-3.12
2.5457e-03,-2.88,-2.64
2.5534e-03,-2.96,-3.2
2.5610e-03,-2.96,-2.8
2.5687e-03,-3.2,-3.44
2.5764e-03,-3.04,-2.96
2.5841e-03,-3.44,-3.52
2.5918e-03,-3.12,-3.04
2.5994e-03,-3.28,-3.6
2.6071e-03,-3.52,-3.12
2.6148e-03,-3.12,-3.52
2.6225e-03,-3.12,-2.88
2.6302e-03,-3.44,-3.6
2.6378e-03,-2.96,-2.88
2.6455e-03,-3.12,-3.44
2.6532e-03,-3.36,-3.04
2.6609e-03,-3.2,-3.36
2.6686e-03,-3.2,-3.12
2.6763e-03,-3.28,-3.52
2.6839e-03,-3.2,-2.96
2.6916e-03,-3.28,-3.52
2.6993e-03,-3.36,-3.04
2.7070e-03,-3.28,-3.36
2.7147e-03,-2.88,-2.72
2.7223e-03,-3.36,-3.76
2.7300e-03,-3.44,-3.04
2.7377e-03,-3.2,-3.36
2.7454e-03,-3.12,-2.88
2.7531e-03,-3.2,-3.6
2.7607e-03,-3.44,-2.96
2.7684e-03,-3.28,-3.52
2.7761e-03,-3.2,-3.04
2.7838e-03,-3.52,-3.68
2.7915e-03,-3.36,-3.2
2.7991e-03,-3.28,-3.36
2.8068e-03,-3.2,-3.04
2.8145e-03,-3.52,-3.92
2.8222e-03,-3.52,-3.2
2.8299e-03,-3.12,-3.76
2.8375e-03,-3.2,-3.04
2.8452e-03,-3.52,-3.76
2.8529e-03,-3.44,-3.12
2.8606e-03,-3.12,-3.28
2.8683e-03,-2.88,-2.8
2.8759e-03,-2.96,-3.52
2.8836e-03,-3.28,-2.88
2.8913e-03,-3.44,-3.92
2.8990e-03,-3.84,-3.2
2.9067e-03,-3.12,-3.44
