rawdata/T0079CH1.CSV

Model,DPO2002B
Firmware Version,1.52

Point Format,Y,
Horizontal Units,S,
Horizontal Scale,0.01,
Sample Interval,1.92012e-05,
Filter Frequency,290000,
Record Length,5207,
Gating,0.0% to 100.0%,
Probe Attenuation,10,
Vertical Units,V,
Vertical Offset,0,
Vertical Scale,2,
Label,,
TIME,CH1,CH1 Peak Detect
-9.400e-03,-4.44,-4.6
-9.381e-03,-4.36,-3.8
-9.362e-03,-4.36,-4.6
-9.342e-03,-4.36,-3.72
-9.323e-03,-4.2,-4.6
-9.304e-03,-3.72,-3.56
-9.285e-03,-3.8,-4.6
-9.266e-03,-4.36,-3.56
-9.246e-03,-4.2,-4.6
-9.227e-03,-4.36,-3.72
-9.208e-03,-4.12,-4.92
-9.189e-03,-4.52,-3.96
-9.170e-03,-3.96,-4.52
-9.150e-03,-3.8,-3.56
-9.131e-03,-3.8,-4.28
-9.112e-03,-4.2,-3.72
-9.093e-03,-4.04,-4.36
-9.074e-03,-4.2,-3.72
-9.054e-03,-4.04,-4.68
-9.035e-03,-4.12,-3.72
-9.016e-03,-4.36,-4.44
-8.997e-03,-4.04,-3.72
-8.978e-03,-3.48,-4.28
-8.958e-03,-4.12,-3.32
-8.939e-03,-3.88,-4.76
-8.920e-03,-4.2,-3.56
-8.901e-03,-4.12,-4.52
-8.882e-03,-4.28,-3.96
-8.862e-03,-4.28,-4.44
-8.843e-03,-4.2,-3.96
-8.824e-03,-4.04,-4.68
-8.805e-03,-4.12,-3.64
-8.786e-03,-3.96,-4.36
-8.766e-03,-3.88,-3.72
-8.747e-03,-4.04,-4.68
-8.728e-03,-4.2,-3.72
-8.709e-03,-4.2,-4.52
-8.690e-03,-3.88,-3.72
-8.670e-03,-3.88,-4.36
-8.651e-03,-3.72,-3.64
-8.632e-03,-4.04,-4.44
-8.613e-03,-3.64,-3.4
-8.594e-03,-4.12,-4.44
-8.574e-03,-4.2,-3.8
-8.555e-03,-4.44,-4.68
-8.536e-03,-4.36,-3.64
-8.517e-03,-4.36,-4.52
-8.498e-03,-3.96,-3.48
-8.478e-03,-3.56,-4.36
-8.459e-03,-4.12,-3.48
-8.440e-03,-4.2,-4.44
-8.421e-03,-4.28,-3.88
-8.402e-03,-4.12,-4.52
-8.382e-03,-4.12,-3.88
-8.363e-03,-4.28,-4.52
-8.344e-03,-3.88,-3.48
-8.325e-03,-4.2,-4.52
-8.306e-03,-4.12,-3.8
-8.286e-03,-4.44,-4.6
-8.267e-03,-3.72,-3.64
-8.248e-03,-3.96,-4.28
-8.229e-03,-3.96,-3.8
-8.210e-03,-4.2,-4.52
-8.190e-03,-4.2,-3.96
-8.171e-03,-4.2,-4.36
-8.152e-03,-4.04,-3.64
-8.133e-03,-4.28,-4.52
-8.114e-03,-3.96,-3.64
-8.094e-03,-4.12,-4.52
-8.075e-03,-4.04,-3.72
-8.056e-03,-3.88,-4.44
-8.037e-03,-3.8,-3.64
-8.018e-03,-3.96,-4.36
-7.998e-03,-4.12,-3.48
-7.979e-03,-4.04,-4.44
-7.960e-03,-4.04,-3.64
-7.941e-03,-4.04,-4.6
-7.922e-03,-4.52,-3.88
-7.902e-03,-4.04,-4.84
-7.883e-03,-4.6,-3.88
-7.864e-03,-4.2,-4.6
-7.845e-03,-4.12,-3.8
-7.825e-03,-3.96,-4.6
-7.806e-03,-3.72,-3.56
-7.787e-03,-3.88,-4.68
-7.768e-03,-3.96,-3.64
-7.749e-03,-4.28,-4.52
-7.729e-03,-4.36,-3.88
-7.710e-03,-4.36,-4.52
-7.691e-03,-4.28,-3.72
-7.672e-03,-3.88,-4.28
-7.653e-03,-4.04,-3.56
-7.633e-03,-3.88,-4.52
-7.614e-03,-3.8,-3.72
-7.595e-03,-4.28,-4.6
-7.576e-03,-4.36,-3.88
-7.557e-03,-3.8,-4.76
-7.537e-03,-4.28,-3.64
-7.518e-03,-4.28,-4.44
-7.499e-03,-3.96,-3.72
-7.480e-03,-4.28,-4.44
-7.461e-03,-3.96,-3.72
-7.441e-03,-4.2,-4.6
-7.422e-03,-4.12,-3.88
-7.403e-03,-4.28,-4.52
-7.384e-03,-4.2,-3.88
-7.365e-03,-4.36,-4.68
-7.345e-03,-3.96,-3.88
-7.326e-03,-3.96,-4.44
-7.307e-03,-3.88,-3.72
-7.288e-03,-4.2,-4.52
-7.269e-03,-4.12,-3.8
-7.249e-03,-4.2,-4.52
-7.230e-03,-4.2,-3.48
-7.211e-03,-4.04,-4.68
-7.192e-03,-4.12,-3.72
-7.173e-03,-4.2,-4.28
-7.153e-03,-3.8,-3.72
-7.134e-03,-4.04,-4.52
-7.115e-03,-3.88,-3.72
-7.096e-03,-4.12,-4.44
-7.077e-03,-4.04,-3.88
-7.057e-03,-4.2,-4.52
-7.038e-03,-4.2,-3.8
-7.019e-03,-3.88,-4.36
-7.000e-03,-3.88,-3.72
-6.981e-03,-3.48,-4.44
-6.961e-03,-4.12,-3.4
-6.942e-03,-4.28,-4.6
-6.923e-03,-4.52,-3.72
-6.904e-03,-4.2,-4.44
-6.885e-03,-4.28,-3.96
-6.865e-03,-4.04,-4.52
-6.846e-03,-4.04,-3.72
-6.827e-03,-4.04,-4.52
-6.808e-03,-4.2,-3.64
-6.789e-03,-3.72,-4.52
-6.769e-03,-4.04,-3.64
-6.750e-03,-3.96,-4.68
-6.731e-03,-4.04,-3.8
-6.712e-03,-4.12,-4.68
-6.693e-03,-3.72,-3.64
-6.673e-03,-4.04,-4.44
-6.654e-03,-3.8,-3.4
-6.635e-03,-4.28,-4.44
-6.616e-03,-3.88,-3.56
-6.597e-03,-4.36,-4.52
-6.577e-03,-3.96,-3.8
-6.558e-03,-4.2,-4.6
-6.539e-03,-4.44,-3.64
-6.520e-03,-4.36,-4.44
-6.501e-03,-3.48,-3.4
-6.481e-03,-4.36,-4.6
-6.462e-03,-3.96,-3.48
-6.443e-03,-4.12,-4.44
-6.424e-03,-4.04,-3.88
-6.405e-03,-4.04,-4.36
-6.385e-03,-4.04,-3.8
-6.366e-03,-4.04,-4.52
-6.347e-03,-4.12,-3.8
-6.328e-03,-4.2,-4.36
-6.309e-03,-4.28,-3.4
-6.289e-03,-4.36,-4.52
-6.270e-03,-3.96,-3.72
-6.251e-03,-4.04,-4.28
-6.232e-03,-4.04,-3.72
-6.213e-03,-4.28,-4.36
-6.193e-03,-3.96,-3.8
-6.174e-03,-4.28,-4.44
-6.155e-03,-4.12,-3.8
-6.136e-03,-3.96,-4.36
-6.117e-03,-4.04,-3.8
-6.097e-03,-4.28,-4.44
-6.078e-03,-4.28,-3.64
-6.059e-03,-4.44,-4.68
-6.040e-03,-3.88,-3.56
-6.021e-03,-4.28,-4.6
-6.001e-03,-3.96,-3.72
-5.982e-03,-3.88,-4.2
-5.963e-03,-4.04,-3.64
-5.944e-03,-4.36,-4.44
-5.925e-03,-3.8,-3.64
-5.905e-03,-4.36,-4.52
-5.886e-03,-4.28,-3.88
-5.867e-03,-4.04,-4.44
-5.848e-03,-4.04,-3.56
-5.829e-03,-4.36,-4.68
-5.809e-03,-3.96,-3.56
-5.790e-03,-4.04,-4.44
-5.771e-03,-3.88,-3.72
-5.752e-03,-4.2,-4.44
-5.733e-03,-4.12,-3.96
-5.713e-03,-4.12,-4.44
-5.694e-03,-4.12,-3.72
-5.675e-03,-4.12,-4.52
-5.656e-03,-4.12,-3.64
-5.637e-03,-3.88,-4.52
-5.617e-03,-4.2,-3.64
-5.598e-03,-4.04,-4.44
-5.579e-03,-4.2,-3.88
-5.560e-03,-4.12,-4.44
-5.541e-03,-4.12,-3.72
-5.521e-03,-4.04,-4.28
-5.502e-03,-3.8,-3.72
-5.483e-03,-3.64,-4.28
-5.464e-03,-3.88,-3.56
-5.445e-03,-3.88,-4.52
-5.425e-03,-4.2,-3.72
-5.406e-03,-4.28,-4.52
-5.387e-03,-4.2,-3.8
-5.368e-03,-4.04,-4.44
-5.349e-03,-4.2,-3.56
-5.329e-03,-3.72,-4.52
-5.310e-03,-3.96,-3.56
-5.291e-03,-4.28,-4.52
-5.272e-03,-4.28,-3.8
-5.253e-03,-4.12,-4.28
-5.233e-03,-3.8,-3.72
-5.214e-03,-3.88,-4.28
-5.195e-03,-3.8,-3.4
-5.176e-03,-3.88,-4.36
-5.157e-03,-4.04,-3.72
-5.137e-03,-4.28,-4.44
-5.118e-03,-4.36,-3.8
-5.099e-03,-4.12,-4.68
-5.080e-03,-4.52,-3.88
-5.061e-03,-3.96,-4.68
-5.041e-03,-3.8,-3.72
-5.022e-03,-4.12,-4.28
-5.003e-03,-4.04,-3.72
-4.984e-03,-4.12,-4.52
-4.965e-03,-4.28,-3.64
-4.945e-03,-4.2,-4.52
-4.926e-03,-4.12,-3.8
-4.907e-03,-4.44,-4.68
-4.888e-03,-4.12,-3.96
-4.869e-03,-3.72,-4.28
-4.849e-03,-4.12,-3.56
-4.830e-03,-4.2,-4.6
-4.811e-03,-4.28,-3.96
-4.792e-03,-4.2,-4.52
-4.773e-03,-4.04,-3.96
-4.753e-03,-4.12,-4.44
-4.734e-03,-4.2,-3.8
-4.715e-03,-3.88,-4.2
-4.696e-03,-3.96,-3.64
-4.676e-03,-4.44,-4.52
-4.657e-03,-4.2,-3.88
-4.638e-03,-3.8,-4.68
-4.619e-03,-4.2,-3.72
-4.600e-03,-4.44,-4.6
-4.580e-03,-4.12,-3.88
-4.561e-03,-4.04,-4.52
-4.542e-03,-4.12,-3.72
-4.523e-03,-4.12,-4.36
-4.504e-03,-4.28,-3.24
-4.484e-03,-3.72,-4.52
-4.465e-03,-4.28,-3.56
-4.446e-03,-4.2,-4.84
-4.427e-03,-4.52,-3.88
-4.408e-03,-4.44,-4.52
-4.388e-03,-4.04,-3.8
-4.369e-03,-4.68,-4.76
-4.350e-03,-3.8,-3.56
-4.331e-03,-4.28,-4.36
-4.312e-03,-3.8,-3.64
-4.292e-03,-4.28,-4.6
-4.273e-03,-4.12,-3.88
-4.254e-03,-4.04,-4.76
-4.235e-03,-4.2,-3.8
-4.216e-03,-3.88,-4.36
-4.196e-03,-4.12,-3.72
-4.177e-03,-4.04,-4.6
-4.158e-03,-4.2,-3.88
-4.139e-03,-4.2,-4.6
-4.120e-03,-4.04,-3.96
-4.100e-03,-4.12,-4.84
-4.081e-03,-4.04,-3.88
-4.062e-03,-4.28,-4.52
-4.043e-03,-4.04,-3.88
-4.024e-03,-4.12,-4.52
-4.004e-03,-4.44,-3.88
-3.985e-03,-4.12,-4.6
-3.966e-03,-4.36,-3.88
-3.947e-03,-3.96,-4.44
-3.928e-03,-4.28,-3.64
-3.908e-03,-4.2,-4.68
-3.889e-03,-4.6,-4.04
-3.870e-03,-4.2,-4.52
-3.851e-03,-3.96,-3.48
-3.832e-03,-4.12,-4.2
-3.812e-03,-4.04,-3.72
-3.793e-03,-4.12,-4.6
-3.774e-03,-4.2,-3.8
-3.755e-03,-4.12,-4.36
-3.736e-03,-4.12,-3.64
-3.716e-03,-4.12,-4.52
-3.697e-03,-4.2,-3.88
-3.678e-03,-3.96,-4.6
-3.659e-03,-4.28,-3.72
-3.640e-03,-4.2,-4.76
-3.620e-03,-4.28,-3.88
-3.601e-03,-4.76,-4.84
-3.582e-03,-4.28,-3.8
-3.563e-03,-4.04,-4.44
-3.544e-03,-3.88,-3.64
-3.524e-03,-3.88,-4.36
-3.505e-03,-3.8,-3.56
-3.486e-03,-4.2,-4.52
-3.467e-03,-4.28,-3.88
-3.448e-03,-4.28,-4.52
-3.428e-03,-4.28,-3.8
-3.409e-03,-3.96,-4.28
-3.390e-03,-4.04,-3.8
-3.371e-03,-4.36,-4.44
-3.352e-03,-4.12,-3.72
-3.332e-03,-4.2,-4.52
-3.313e-03,-3.8,-3.72
-3.294e-03,-3.88,-4.84
-3.275e-03,-4.52,-3.72
-3.256e-03,-4.36,-4.44
-3.236e-03,-3.96,-3.8
-3.217e-03,-3.88,-4.2
-3.198e-03,-3.88,-3.56
-3.179e-03,-3.88,-4.52
-3.160e-03,-4.12,-3.72
-3.140e-03,-4.44,-4.6
-3.121e-03,-3.96,-3.88
-3.102e-03,-4.04,-4.44
-3.083e-03,-4.36,-3.88
-3.064e-03,-4.52,-4.68
-3.044e-03,-3.96,-3.72
-3.025e-03,-3.96,-4.44
-3.006e-03,-4.2,-3.72
-2.987e-03,-4.12,-4.36
-2.968e-03,-3.8,-3.72
-2.948e-03,-4.12,-4.68
-2.929e-03,-4.44,-3.88
-2.910e-03,-4.28,-4.44
-2.891e-03,-3.64,-3.48
-2.872e-03,-4.04,-4.36
-2.852e-03,-4.2,-3.64
-2.833e-03,-3.8,-4.76
-2.814e-03,-4.6,-3.64
-2.795e-03,-4.36,-4.44
-2.776e-03,-4.2,-3.8
-2.756e-03,-4.04,-4.44
-2.737e-03,-4.28,-3.64
-2.718e-03,-3.72,-4.28
-2.699e-03,-4.12,-3.64
-2.680e-03,-4.6,-4.76
-2.660e-03,-4.2,-4.04
-2.641e-03,-4.12,-4.6
-2.622e-03,-4.2,-3.8
-2.603e-03,-4.04,-4.28
-2.584e-03,-3.96,-3.72
-2.564e-03,-3.96,-4.28
-2.545e-03,-4.04,-3.64
-2.526e-03,-4.2,-4.44
-2.507e-03,-4.12,-3.72
-2.488e-03,-4.12,-4.6
-2.468e-03,-4.04,-3.8
-2.449e-03,-4.6,-4.76
-2.430e-03,-4.36,-3.88
-2.411e-03,-4.44,-4.6
-2.392e-03,-4.28,-3.56
-2.372e-03,-3.96,-4.2
-2.353e-03,-4.04,-3.56
-2.334e-03,-3.88,-4.52
-2.315e-03,-3.8,-3.56
-2.296e-03,-4.28,-4.68
-2.276e-03,-4.52,-3.8
-2.257e-03,-4.28,-4.36
-2.238e-03,-3.8,-3.72
-2.219e-03,-4.12,-4.76
-2.200e-03,-3.96,-3.64
-2.180e-03,-4.04,-4.44
-2.161e-03,-3.8,-3.48
-2.142e-03,-4.12,-4.52
-2.123e-03,-4.12,-3.8
-2.104e-03,-3.8,-4.44
-2.084e-03,-3.88,-3.72
-2.065e-03,-4.04,-4.52
-2.046e-03,-4.36,-3.56
-2.027e-03,-4.52,-4.6
-2.008e-03,-4.28,-3.88
-1.988e-03,-3.88,-4.6
-1.969e-03,-4.36,-3.72
-1.950e-03,-3.96,-4.68
-1.931e-03,-4.2,-3.8
-1.912e-03,-4.12,-4.6
-1.892e-03,-3.96,-3.8
-1.873e-03,-3.96,-4.36
-1.854e-03,-3.64,-3.56
-1.835e-03,-4.2,-4.68
-1.816e-03,-4.04,-3.8
-1.796e-03,-4.2,-4.52
-1.777e-03,-4.36,-3.96
-1.758e-03,-3.72,-4.44
-1.739e-03,-3.64,-3.32
-1.720e-03,-3.88,-4.28
-1.700e-03,-3.8,-3.56
-1.681e-03,-4.2,-4.52
-1.662e-03,-4.12,-3.56
-1.643e-03,-4.6,-4.76
-1.624e-03,-4.44,-3.88
-1.604e-03,-4.2,-4.6
-1.585e-03,-3.64,-3.48
-1.566e-03,-4.44,-4.52
-1.547e-03,-3.8,-3.56
-1.527e-03,-3.56,-4.52
-1.508e-03,-4.28,-3.32
-1.489e-03,-4.28,-4.6
-1.470e-03,-4.12,-3.88
-1.451e-03,-4.28,-4.44
-1.431e-03,-4.12,-3.72
-1.412e-03,-4.36,-4.44
-1.393e-03,-3.72,-3.64
-1.374e-03,-3.88,-4.36
-1.355e-03,-3.8,-3.64
-1.335e-03,-4.04,-4.44
-1.316e-03,-4.04,-3.72
-1.297e-03,-4.04,-4.36
-1.278e-03,-4.04,-3.8
-1.259e-03,-4.04,-4.52
-1.239e-03,-4.28,-3.88
-1.220e-03,-4.04,-4.44
-1.201e-03,-3.8,-3.56
-1.182e-03,-4.04,-4.36
-1.163e-03,-3.96,-3.8
-1.143e-03,-4.28,-4.76
-1.124e-03,-3.96,-3.72
-1.105e-03,-4.28,-4.6
-1.086e-03,-4.44,-4.12
-1.067e-03,-4.04,-4.28
-1.047e-03,-4.04,-3.56
-1.028e-03,-3.72,-4.36
-1.009e-03,-4.28,-3.4
-9.899e-04,-4.44,-4.6
-9.707e-04,-4.2,-3.88
-9.515e-04,-4.28,-4.6
-9.323e-04,-3.8,-3.64
-9.131e-04,-4.52,-4.6
-8.939e-04,-4.36,-3.72
-8.747e-04,-4.12,-4.6
-8.555e-04,-4.12,-3.72
-8.363e-04,-4.44,-4.52
-8.171e-04,-4.44,-3.88
-7.978e-04,-4.28,-4.52
-7.786e-04,-4.12,-3.72
-7.594e-04,-4.28,-4.52
-7.402e-04,-3.96,-3.72
-7.210e-04,-4.04,-4.52
-7.018e-04,-4.12,-3.64
-6.826e-04,-4.04,-4.36
-6.634e-04,-3.96,-3.56
-6.442e-04,-4.44,-4.6
-6.250e-04,-3.96,-3.72
-6.058e-04,-4.04,-4.44
-5.866e-04,-4.28,-3.72
-5.674e-04,-3.88,-4.68
-5.482e-04,-3.8,-3.48
-5.290e-04,-3.72,-4.36
-5.098e-04,-4.2,-3.56
-4.906e-04,-4.04,-4.44
-4.714e-04,-4.04,-3.8
-4.522e-04,-4.44,-4.6
-4.330e-04,-4.2,-4.04
-4.138e-04,-3.96,-4.6
-3.946e-04,-4.36,-3.72
-3.754e-04,-3.88,-4.36
-3.562e-04,-4.2,-3.72
-3.370e-04,-3.88,-4.2
-3.178e-04,-4.12,-3.72
-2.986e-04,-4.04,-4.44
-2.794e-04,-4.36,-3.72
-2.602e-04,-4.2,-4.6
-2.410e-04,-4.44,-3.88
-2.218e-04,-3.96,-4.36
-2.026e-04,-3.72,-3.56
-1.834e-04,-3.88,-4.28
-1.642e-04,-3.8,-3.72
-1.450e-04,-4.04,-4.44
-1.258e-04,-4.28,-3.88
-1.066e-04,-4.28,-4.52
-8.740e-05,-4.28,-3.8
-6.820e-05,-3.96,-4.44
-4.900e-05,-4.28,-3.72
-2.980e-05,-3.72,-8.2
-1.060e-05,-4.52,-3.64
8.602e-06,-8.2,-8.2
2.780e-05,12.12,12.12
4.700e-05,4.28,3.8
6.621e-05,4.28,5
8.541e-05,4.2,3.72
1.046e-04,4.2,4.36
1.238e-04,4.28,3.8
1.430e-04,4.28,4.52
1.622e-04,3.96,3.64
1.814e-04,3.88,4.6
2.006e-04,3.88,3.56
2.198e-04,3.72,4.04
2.390e-04,3.88,3.72
2.582e-04,4.12,4.44
2.774e-04,4.12,3.4
2.966e-04,3.96,4.44
3.158e-04,3.64,3.4
3.350e-04,3.72,4.04
3.542e-04,3.56,3
3.734e-04,3.32,3.8
3.926e-04,3.64,3.4
4.118e-04,3.48,3.8
4.310e-04,3.64,3.08
4.502e-04,3.48,3.96
4.694e-04,3.4,2.68
4.886e-04,3,3.72
5.078e-04,3.56,2.76
5.270e-04,3,3.8
5.462e-04,2.6,2.28
5.654e-04,2.44,3
5.846e-04,2.76,2.28
6.038e-04,2.92,3.08
6.230e-04,2.76,1.8
6.422e-04,2.44,2.92
6.614e-04,2.36,1.72
6.806e-04,2.2,2.6
6.998e-04,1.96,1.8
7.190e-04,1.96,2.6
7.382e-04,2.12,1.8
7.575e-04,2.12,2.44
7.767e-04,1.56,1.48
7.959e-04,1.72,2.04
8.151e-04,1.56,1.32
8.343e-04,1.8,2.12
8.535e-04,1.48,1
8.727e-04,1.64,1.88
8.919e-04,1.56,1.16
9.111e-04,1.4,1.8
9.303e-04,1.32,1
9.495e-04,1.48,1.64
9.687e-04,1.56,0.84
9.879e-04,1.24,1.72
1.007e-03,1.24,0.6
1.026e-03,1.4,1.56
1.045e-03,1.08,0.6
1.065e-03,1.48,1.56
1.084e-03,1.08,0.76
1.103e-03,0.84,1.32
1.122e-03,1.08,0.52
1.141e-03,0.84,1.24
1.161e-03,0.76,0.12
1.180e-03,0.76,1.08
1.199e-03,0.12,-0.04
1.218e-03,0.52,0.76
1.237e-03,0.76,0.36
1.257e-03,0.68,1.08
1.276e-03,0.44,0.2
1.295e-03,0.36,0.84
1.314e-03,0.76,-0.04
1.333e-03,0.44,0.92
1.353e-03,0.04,-0.28
1.372e-03,0.28,0.6
1.391e-03,0.2,0.04
1.410e-03,0.44,0.84
1.429e-03,0.12,-0.04
1.449e-03,0.2,0.44
1.468e-03,-0.04,-0.2
1.487e-03,0.12,0.68
1.506e-03,0.12,-0.36
1.525e-03,0.2,0.28
1.545e-03,0.04,-0.52
1.564e-03,0.04,0.28
1.583e-03,-0.12,-0.52
1.602e-03,-0.2,0.44
1.622e-03,0.12,-0.6
1.641e-03,-0.52,0.44
1.660e-03,-0.2,-0.92
1.679e-03,-0.12,0.12
1.698e-03,-0.52,-0.92
1.718e-03,-0.2,-0.04
1.737e-03,-0.28,-0.68
1.756e-03,-0.2,-0.04
1.775e-03,-0.6,-1
1.794e-03,-0.36,-0.12
1.814e-03,-0.28,-1
1.833e-03,-0.68,-0.2
1.852e-03,-1,-1.24
1.871e-03,-0.76,-0.52
1.890e-03,-0.68,-1.32
1.910e-03,-0.92,-0.36
1.929e-03,-0.36,-1.08
1.948e-03,-0.76,-0.28
1.967e-03,-0.92,-1.32
1.986e-03,-0.92,-0.68
2.006e-03,-0.84,-1.32
2.025e-03,-1.16,-0.68
2.044e-03,-1.08,-1.4
2.063e-03,-1.24,-0.68
2.082e-03,-0.92,-1.4
2.102e-03,-1.08,-0.6
2.121e-03,-1.32,-1.72
2.140e-03,-1.4,-0.92
2.159e-03,-1.48,-1.56
2.178e-03,-1.08,-1
2.198e-03,-1.4,-1.88
2.217e-03,-1.4,-1.08
2.236e-03,-1.8,-1.88
2.255e-03,-1.16,-1
2.274e-03,-1.32,-2.04
2.294e-03,-1.32,-1.16
2.313e-03,-1.72,-2.12
2.332e-03,-2.04,-1.16
2.351e-03,-2.2,-2.28
2.370e-03,-1.56,-1.32
2.390e-03,-1.96,-2.2
2.409e-03,-1.64,-1.08
2.428e-03,-1.56,-1.8
2.447e-03,-1.48,-1.32
2.466e-03,-1.64,-2.12
2.486e-03,-1.8,-1.4
2.505e-03,-2.04,-2.2
2.524e-03,-1.88,-1.72
2.543e-03,-1.8,-2.28
2.562e-03,-1.64,-1.56
2.582e-03,-1.48,-2.2
2.601e-03,-2.04,-1.32
2.620e-03,-1.88,-2.52
2.639e-03,-2.28,-1.48
2.658e-03,-2.36,-2.52
2.678e-03,-2.04,-1.88
2.697e-03,-2.04,-2.68
2.716e-03,-2.36,-1.96
2.735e-03,-2.36,-2.68
2.754e-03,-2.2,-1.64
2.774e-03,-2.04,-2.52
2.793e-03,-2.28,-1.96
2.812e-03,-2.36,-2.84
2.831e-03,-2.44,-2.28
2.850e-03,-2.36,-3.08
2.870e-03,-2.52,-2.28
2.889e-03,-2.84,-3
2.908e-03,-2.68,-2.2
2.927e-03,-2.52,-2.68
2.946e-03,-2.28,-2.12
2.966e-03,-2.92,-3.24
2.985e-03,-2.68,-2.44
3.004e-03,-2.44,-3.08
3.023e-03,-2.6,-2.28
3.042e-03,-2.76,-3.16
3.062e-03,-2.68,-2.52
3.081e-03,-3.08,-3.24
3.100e-03,-2.6,-2.28
3.119e-03,-2.92,-3.08
3.138e-03,-2.84,-2.52
3.158e-03,-2.84,-3.4
3.177e-03,-2.92,-2.68
3.196e-03,-3.16,-3.64
3.215e-03,-3.48,-2.84
3.234e-03,-2.92,-3.4
3.254e-03,-3.16,-2.76
3.273e-03,-3,-3.72
3.292e-03,-3.4,-2.6
3.311e-03,-2.92,-3.56
3.330e-03,-3.4,-2.76
3.350e-03,-3.16,-3.88
3.369e-03,-3.72,-3.08
3.388e-03,-3.24,-3.56
3.407e-03,-3.24,-2.92
3.426e-03,-3,-3.64
3.446e-03,-3.24,-2.76
3.465e-03,-3.56,-3.72
3.484e-03,-3.32,-2.92
3.503e-03,-3.4,-3.8
3.522e-03,-3.64,-3.24
3.542e-03,-3.32,-3.72
3.561e-03,-3.24,-3.08
3.580e-03,-3.56,-3.72
3.599e-03,-3.24,-3.08
3.618e-03,-3.56,-3.72
3.638e-03,-3.56,-3.24
3.657e-03,-3.56,-4.04
3.676e-03,-3.48,-3.24
3.695e-03,-3.64,-3.88
3.714e-03,-3.4,-3.32
3.734e-03,-3.8,-3.96
3.753e-03,-3.48,-3.24
3.772e-03,-3.32,-3.8
3.791e-03,-3.56,-3.16
3.810e-03,-3.64,-4.12
3.830e-03,-3.96,-3.24
3.849e-03,-3.24,-4.04
3.868e-03,-3.8,-3.16
3.887e-03,-3.56,-4.12
3.906e-03,-3.72,-3.4
3.926e-03,-3.56,-3.96
3.945e-03,-3.64,-3.48
3.964e-03,-3.72,-4.04
3.983e-03,-3.88,-3.24
4.002e-03,-3.96,-4.6
4.022e-03,-4.52,-3.8
4.041e-03,-4.2,-4.36
4.060e-03,-3.72,-3.4
4.079e-03,-3.8,-3.88
4.098e-03,-3.56,-3.24
4.118e-03,-3.64,-4.44
4.137e-03,-3.96,-3.56
4.156e-03,-3.88,-4.36
4.175e-03,-4.12,-3.64
4.194e-03,-3.96,-4.2
4.214e-03,-3.72,-3.56
4.233e-03,-4.04,-4.36
4.252e-03,-3.96,-3.48
4.271e-03,-3.96,-4.28
4.290e-03,-4.2,-3.64
4.310e-03,-4.44,-4.6
4.329e-03,-3.88,-3.8
4.348e-03,-3.88,-4.36
4.367e-03,-4.2,-3.8
4.386e-03,-3.96,-4.36
4.406e-03,-4.04,-3.72
4.425e-03,-4.12,-4.6
4.444e-03,-4.44,-3.8
4.463e-03,-3.96,-4.68
4.482e-03,-4.04,-3.8
4.502e-03,-4.52,-4.76
4.521e-03,-3.88,-3.72
4.540e-03,-3.96,-4.36
4.559e-03,-4.12,-3.8
4.578e-03,-3.96,-4.36
4.598e-03,-3.96,-3.56
4.617e-03,-4.44,-4.68
4.636e-03,-4.2,-3.88
4.655e-03,-4.52,-4.6
4.675e-03,-4.44,-4.12
4.694e-03,-4.04,-4.6
4.713e-03,-4.36,-3.96
4.732e-03,-4.2,-4.44
4.751e-03,-4.12,-3.72
4.771e-03,-4.2,-4.76
4.790e-03,-4.52,-3.96
4.809e-03,-4.6,-5.08
4.828e-03,-4.76,-4.12
4.847e-03,-4.6,-4.76
4.867e-03,-4.44,-3.88
4.886e-03,-4.28,-4.52
4.905e-03,-4.28,-3.96
4.924e-03,-3.88,-4.68
4.943e-03,-4.04,-3.72
4.963e-03,-4.12,-4.68
4.982e-03,-4.44,-3.96
5.001e-03,-4.2,-4.68
5.020e-03,-4.2,-3.88
5.039e-03,-4.6,-4.84
5.059e-03,-3.8,-3.72
5.078e-03,-3.64,-4.68
5.097e-03,-4.44,-3.56
5.116e-03,-4.6,-4.76
5.135e-03,-4.44,-3.72
5.155e-03,-4.2,-4.68
5.174e-03,-4.28,-3.88
5.193e-03,-4.68,-4.84
5.212e-03,-4.36,-3.72
5.231e-03,-4.28,-4.36
5.251e-03,-4.2,-3.88
5.270e-03,-3.96,-4.68
5.289e-03,-4.44,-3.88
5.308e-03,-4.36,-4.76
5.327e-03,-4.2,-4.04
5.347e-03,-4.52,-4.68
5.366e-03,-4.44,-4.04
5.385e-03,-4.12,-4.68
5.404e-03,-4.12,-3.88
5.423e-03,-4.36,-4.52
5.443e-03,-4.12,-3.96
5.462e-03,-4.36,-4.68
5.481e-03,-4.28,-3.96
5.500e-03,-4.52,-4.68
5.519e-03,-4.52,-4.04
5.539e-03,-4.28,-4.76
5.558e-03,-4.44,-3.88
5.577e-03,-4.12,-4.28
5.596e-03,-4.04,-3.8
5.615e-03,-4.2,-4.68
5.635e-03,-4.52,-3.88
5.654e-03,-4.52,-4.6
5.673e-03,-4.04,-3.8
5.692e-03,-4.2,-4.52
5.711e-03,-4.44,-3.96
5.731e-03,-4.12,-4.52
5.750e-03,-3.72,-3.56
5.769e-03,-4.28,-4.76
5.788e-03,-3.96,-3.88
5.807e-03,-4.28,-4.68
5.827e-03,-4.52,-4.12
5.846e-03,-4.52,-4.68
5.865e-03,-4.04,-3.96
5.884e-03,-4.36,-4.52
5.903e-03,-4.36,-3.72
5.923e-03,-4.28,-4.6
5.942e-03,-4.44,-3.64
5.961e-03,-4.04,-4.44
5.980e-03,-4.12,-3.88
5.999e-03,-4.44,-4.76
6.019e-03,-4.2,-4.04
6.038e-03,-4.36,-4.76
6.057e-03,-3.96,-3.72
6.076e-03,-4.12,-4.36
6.095e-03,-4.2,-3.56
6.115e-03,-3.88,-4.6
6.134e-03,-4.12,-3.72
6.153e-03,-4.04,-4.6
6.172e-03,-4.12,-3.8
6.191e-03,-4.2,-4.6
6.211e-03,-4.36,-3.64
6.230e-03,-3.8,-4.36
6.249e-03,-4.12,-3.56
6.268e-03,-4.04,-4.36
6.287e-03,-4.12,-3.88
6.307e-03,-4.04,-4.6
6.326e-03,-4.44,-3.88
6.345e-03,-4.44,-4.76
6.364e-03,-4.28,-4.12
6.383e-03,-3.8,-4.52
6.403e-03,-3.88,-3.72
6.422e-03,-4.04,-4.6
6.441e-03,-4.04,-3.8
6.460e-03,-4.2,-4.76
6.479e-03,-4.36,-4.04
6.499e-03,-4.12,-4.68
6.518e-03,-4.36,-3.56
6.537e-03,-3.96,-4.52
6.556e-03,-4.44,-3.56
6.575e-03,-3.48,-4.6
6.595e-03,-4.28,-3.4
6.614e-03,-4.36,-4.92
6.633e-03,-4.28,-4.04
6.652e-03,-4.12,-4.68
6.671e-03,-4.04,-3.56
6.691e-03,-4.04,-4.44
6.710e-03,-4.28,-3.88
6.729e-03,-3.96,-4.52
6.748e-03,-3.96,-3.64
6.767e-03,-3.96,-4.68
6.787e-03,-4.12,-3.72
6.806e-03,-4.44,-4.92
6.825e-03,-4.68,-4.12
6.844e-03,-4.04,-4.36
6.863e-03,-4.12,-3.72
6.883e-03,-4.2,-4.36
6.902e-03,-3.96,-3.8
6.921e-03,-4.12,-4.6
6.940e-03,-3.8,-3.72
6.959e-03,-4.36,-4.6
6.979e-03,-4.2,-3.72
6.998e-03,-4.36,-4.52
7.017e-03,-3.88,-3.64
7.036e-03,-3.88,-4.28
7.055e-03,-3.8,-3.72
7.075e-03,-4.28,-4.36
7.094e-03,-4.04,-3.8
7.113e-03,-4.2,-4.52
7.132e-03,-4.44,-3.72
7.151e-03,-3.88,-4.52
7.171e-03,-4.28,-3.72
7.190e-03,-4.12,-4.36
7.209e-03,-4.28,-3.64
7.228e-03,-3.8,-4.2
7.247e-03,-3.8,-3.24
7.267e-03,-4.28,-4.6
7.286e-03,-3.72,-3.48
7.305e-03,-4.2,-4.44
7.324e-03,-4.04,-3.64
7.343e-03,-4.36,-4.44
7.363e-03,-3.96,-3.56
7.382e-03,-3.88,-4.28
7.401e-03,-4.04,-3.72
7.420e-03,-3.64,-4.6
7.439e-03,-4.36,-3.56
7.459e-03,-4.2,-4.44
7.478e-03,-4.12,-3.72
7.497e-03,-3.8,-4.44
7.516e-03,-3.8,-3.64
7.535e-03,-3.88,-4.2
7.555e-03,-4.12,-3.48
7.574e-03,-4.04,-4.36
7.593e-03,-3.96,-3.48
7.612e-03,-4.04,-4.28
7.631e-03,-4.12,-3.72
7.651e-03,-3.96,-4.36
7.670e-03,-4.2,-3.64
7.689e-03,-3.88,-4.6
7.708e-03,-3.64,-3.48
7.727e-03,-4.04,-4.44
7.747e-03,-3.88,-3.48
7.766e-03,-3.8,-4.2
7.785e-03,-3.8,-3.56
7.804e-03,-3.96,-4.28
