rawdata/T0073CH1.CSV

Model,DPO2002B
Firmware Version,1.52

Point Format,Y,
Horizontal Units,S,
Horizontal Scale,0.002,
Sample Interval,3.84025e-06,
Filter Frequency,290000,
Record Length,5207,
Gating,0.0% to 100.0%,
Probe Attenuation,10,
Vertical Units,V,
Vertical Offset,0,
Vertical Scale,2,
Label,,
TIME,CH1,CH1 Peak Detect
-1.8800e-03,-3.64,-3.96
-1.8762e-03,-3.72,-3.56
-1.8723e-03,-3.88,-4.28
-1.8685e-03,-4.12,-3.8
-1.8646e-03,-4.12,-4.2
-1.8608e-03,-3.96,-3.8
-1.8570e-03,-3.88,-4.04
-1.8531e-03,-3.88,-3.8
-1.8493e-03,-3.88,-4.2
-1.8454e-03,-4.04,-3.8
-1.8416e-03,-4.04,-4.12
-1.8378e-03,-3.88,-3.72
-1.8339e-03,-3.8,-3.96
-1.8301e-03,-3.8,-3.72
-1.8262e-03,-3.96,-4.36
-1.8224e-03,-4.12,-3.88
-1.8186e-03,-4.28,-4.36
-1.8147e-03,-4.04,-3.88
-1.8109e-03,-3.96,-4.2
-1.8070e-03,-3.88,-3.8
-1.8032e-03,-4.12,-4.52
-1.7994e-03,-4.28,-4.04
-1.7955e-03,-4.52,-4.6
-1.7917e-03,-4.44,-4.2
-1.7878e-03,-4.28,-4.36
-1.7840e-03,-4.28,-4.04
-1.7802e-03,-4.12,-4.2
-1.7763e-03,-4.04,-3.88
-1.7725e-03,-4.04,-4.44
-1.7686e-03,-4.12,-3.88
-1.7648e-03,-4.36,-4.52
-1.7610e-03,-4.36,-4.04
-1.7571e-03,-4.12,-4.28
-1.7533e-03,-3.88,-3.8
-1.7494e-03,-4.2,-4.28
-1.7456e-03,-4.04,-3.8
-1.7418e-03,-3.88,-4.2
-1.7379e-03,-3.88,-3.72
-1.7341e-03,-4.12,-4.28
-1.7302e-03,-4.2,-4.04
-1.7264e-03,-4.2,-4.28
-1.7225e-03,-4.12,-3.96
-1.7187e-03,-4.12,-4.44
-1.7149e-03,-4.36,-4.04
-1.7110e-03,-4.28,-4.36
-1.7072e-03,-4.2,-3.96
-1.7033e-03,-4.04,-4.36
-1.6995e-03,-4.2,-3.96
-1.6957e-03,-4.2,-4.28
-1.6918e-03,-3.8,-3.56
-1.6880e-03,-3.8,-4.36
-1.6841e-03,-4.28,-3.72
-1.6803e-03,-4.2,-4.28
-1.6765e-03,-4.2,-4.04
-1.6726e-03,-4.12,-4.52
-1.6688e-03,-4.2,-3.96
-1.6649e-03,-4.44,-4.52
-1.6611e-03,-4.28,-4.12
-1.6573e-03,-4.28,-4.44
-1.6534e-03,-4.28,-4.12
-1.6496e-03,-4.2,-4.28
-1.6457e-03,-3.96,-3.88
-1.6419e-03,-3.96,-4.04
-1.6381e-03,-3.96,-3.72
-1.6342e-03,-3.8,-4.68
-1.6304e-03,-4.04,-3.72
-1.6265e-03,-4.6,-4.68
-1.6227e-03,-4.6,-4.2
-1.6189e-03,-4.28,-4.52
-1.6150e-03,-4.36,-4.2
-1.6112e-03,-4.44,-4.52
-1.6073e-03,-4.36,-4.2
-1.6035e-03,-4.28,-4.36
-1.5997e-03,-4.04,-3.96
-1.5958e-03,-4.12,-4.52
-1.5920e-03,-4.2,-4.12
-1.5881e-03,-4.52,-5
-1.5843e-03,-4.84,-4.44
-1.5805e-03,-4.76,-4.84
-1.5766e-03,-4.44,-4.2
-1.5728e-03,-4.2,-4.28
-1.5689e-03,-3.88,-3.8
-1.5651e-03,-3.96,-4.2
-1.5613e-03,-4.12,-3.88
-1.5574e-03,-3.96,-4.52
-1.5536e-03,-4.2,-3.88
-1.5497e-03,-4.36,-4.52
-1.5459e-03,-4.2,-3.96
-1.5421e-03,-4.04,-4.28
-1.5382e-03,-4.12,-3.96
-1.5344e-03,-4.12,-4.44
-1.5305e-03,-4.28,-4.04
-1.5267e-03,-4.36,-4.44
-1.5229e-03,-4.12,-3.8
-1.5190e-03,-3.88,-4.04
-1.5152e-03,-3.96,-3.8
-1.5113e-03,-3.96,-4.36
-1.5075e-03,-4.28,-3.88
-1.5037e-03,-3.96,-4.04
-1.4998e-03,-3.72,-3.64
-1.4960e-03,-3.8,-3.88
-1.4921e-03,-3.72,-3.64
-1.4883e-03,-3.88,-4.36
-1.4845e-03,-4.04,-3.8
-1.4806e-03,-4.28,-4.44
-1.4768e-03,-4.28,-4.12
-1.4729e-03,-4.2,-4.44
-1.4691e-03,-4.36,-4.12
-1.4653e-03,-4.28,-4.36
-1.4614e-03,-4.12,-3.96
-1.4576e-03,-4.04,-4.2
-1.4537e-03,-4.04,-3.96
-1.4499e-03,-4.2,-4.44
-1.4461e-03,-4.36,-4.04
-1.4422e-03,-4.04,-4.28
-1.4384e-03,-4.04,-3.88
-1.4345e-03,-4.2,-4.28
-1.4307e-03,-4.2,-4.04
-1.4269e-03,-4.12,-4.36
-1.4230e-03,-4.2,-4.04
-1.4192e-03,-4.28,-4.84
-1.4153e-03,-4.6,-4.2
-1.4115e-03,-4.6,-4.68
-1.4076e-03,-4.12,-3.8
-1.4038e-03,-3.96,-4.52
-1.4000e-03,-4.2,-3.88
-1.3961e-03,-4.44,-4.52
-1.3923e-03,-4.36,-4.04
-1.3884e-03,-4.12,-4.2
-1.3846e-03,-4.04,-3.8
-1.3808e-03,-3.96,-4.28
-1.3769e-03,-4.2,-3.88
-1.3731e-03,-4.12,-4.28
-1.3692e-03,-4.12,-3.96
-1.3654e-03,-4.28,-4.6
-1.3616e-03,-4.52,-4.2
-1.3577e-03,-4.44,-4.52
-1.3539e-03,-4.2,-3.8
-1.3500e-03,-3.88,-4.12
-1.3462e-03,-3.96,-3.8
-1.3424e-03,-3.8,-4.2
-1.3385e-03,-3.88,-3.72
-1.3347e-03,-4.12,-4.2
-1.3308e-03,-3.88,-3.8
-1.3270e-03,-3.96,-4.36
-1.3232e-03,-4.2,-3.88
-1.3193e-03,-4.28,-4.36
-1.3155e-03,-4.2,-3.96
-1.3116e-03,-4.04,-4.28
-1.3078e-03,-4.04,-3.88
-1.3040e-03,-4.28,-4.52
-1.3001e-03,-4.44,-4.2
-1.2963e-03,-4.36,-4.44
-1.2924e-03,-4.2,-3.88
-1.2886e-03,-3.96,-4.36
-1.2848e-03,-4.12,-3.88
-1.2809e-03,-4.28,-4.44
-1.2771e-03,-4.28,-4.04
-1.2732e-03,-4.12,-4.68
-1.2694e-03,-4.44,-3.96
-1.2656e-03,-4.6,-4.68
-1.2617e-03,-4.28,-4.04
-1.2579e-03,-4.04,-4.12
-1.2540e-03,-3.96,-3.64
-1.2502e-03,-3.72,-3.88
-1.2464e-03,-3.72,-3.56
-1.2425e-03,-3.88,-4.44
-1.2387e-03,-4.36,-3.88
-1.2348e-03,-4.28,-4.52
-1.2310e-03,-4.28,-4.2
-1.2272e-03,-4.44,-4.52
-1.2233e-03,-4.28,-3.72
-1.2195e-03,-3.8,-3.88
-1.2156e-03,-3.8,-3.56
-1.2118e-03,-3.8,-4.44
-1.2080e-03,-4.04,-3.72
-1.2041e-03,-4.28,-4.36
-1.2003e-03,-4.12,-3.88
-1.1964e-03,-3.96,-4.04
-1.1926e-03,-3.96,-3.72
-1.1888e-03,-3.8,-4.2
-1.1849e-03,-4.04,-3.72
-1.1811e-03,-4.04,-4.12
-1.1772e-03,-3.72,-3.56
-1.1734e-03,-3.8,-4.28
-1.1696e-03,-4.2,-3.72
-1.1657e-03,-4.2,-4.28
-1.1619e-03,-4.04,-3.64
-1.1580e-03,-3.64,-3.72
-1.1542e-03,-3.48,-3.32
-1.1504e-03,-3.56,-4.36
-1.1465e-03,-3.88,-3.48
-1.1427e-03,-4.28,-4.44
-1.1388e-03,-4.36,-4.2
-1.1350e-03,-4.28,-4.36
-1.1312e-03,-4.12,-3.88
-1.1273e-03,-3.88,-3.96
-1.1235e-03,-3.64,-3.56
-1.1196e-03,-3.56,-3.88
-1.1158e-03,-3.56,-3.4
-1.1120e-03,-3.88,-4.2
-1.1081e-03,-4.12,-3.8
-1.1043e-03,-3.88,-4.04
-1.1004e-03,-3.72,-3.56
-1.0966e-03,-3.96,-4.2
-1.0927e-03,-4.04,-3.88
-1.0889e-03,-4.12,-4.44
-1.0851e-03,-4.2,-3.96
-1.0812e-03,-4.36,-4.52
-1.0774e-03,-4.28,-4.04
-1.0735e-03,-4.12,-4.28
-1.0697e-03,-3.96,-3.88
-1.0659e-03,-4.2,-4.44
-1.0620e-03,-4.28,-4.04
-1.0582e-03,-4.12,-4.2
-1.0543e-03,-3.8,-3.56
-1.0505e-03,-3.72,-4.52
-1.0467e-03,-4.04,-3.64
-1.0428e-03,-4.36,-4.44
-1.0390e-03,-4.04,-3.72
-1.0351e-03,-3.8,-4.04
-1.0313e-03,-3.8,-3.64
-1.0275e-03,-3.96,-4.28
-1.0236e-03,-4.04,-3.88
-1.0198e-03,-4.12,-4.2
-1.0159e-03,-4.04,-3.88
-1.0121e-03,-3.96,-4.04
-1.0083e-03,-3.8,-3.56
-1.0044e-03,-3.64,-3.96
-1.0006e-03,-3.8,-3.56
-9.9674e-04,-3.64,-4.04
-9.9290e-04,-3.88,-3.56
-9.8906e-04,-3.96,-4.12
-9.8522e-04,-3.8,-3.72
-9.8138e-04,-4.04,-4.36
-9.7754e-04,-4.28,-3.96
-9.7370e-04,-4.04,-4.6
-9.6986e-04,-4.36,-3.96
-9.6602e-04,-4.52,-4.6
-9.6218e-04,-4.28,-4.04
-9.5834e-04,-4.12,-4.28
-9.5450e-04,-4.04,-3.96
-9.5066e-04,-4.2,-4.28
-9.4682e-04,-3.96,-3.8
-9.4298e-04,-3.88,-4.12
-9.3914e-04,-3.88,-3.72
-9.3530e-04,-3.96,-4.12
-9.3146e-04,-3.96,-3.72
-9.2762e-04,-3.8,-4.2
-9.2378e-04,-3.96,-3.72
-9.1994e-04,-4.2,-4.28
-9.1610e-04,-4.2,-3.96
-9.1226e-04,-4.04,-4.28
-9.0842e-04,-3.96,-3.8
-9.0458e-04,-4.2,-4.36
-9.0074e-04,-4.28,-4.04
-8.9690e-04,-4.12,-4.2
-8.9306e-04,-3.96,-3.64
-8.8922e-04,-3.72,-4.28
-8.8538e-04,-3.8,-3.56
-8.8154e-04,-4.28,-4.44
-8.7770e-04,-4.28,-4.12
-8.7386e-04,-4.2,-4.2
-8.7002e-04,-3.8,-3.72
-8.6618e-04,-3.96,-4.2
-8.6233e-04,-4.12,-3.88
-8.5849e-04,-4.04,-4.12
-8.5465e-04,-3.88,-3.64
-8.5081e-04,-3.8,-4.36
-8.4697e-04,-4.2,-3.72
-8.4313e-04,-4.04,-4.12
-8.3929e-04,-3.8,-3.72
-8.3545e-04,-3.88,-4.12
-8.3161e-04,-3.96,-3.8
-8.2777e-04,-4.04,-4.12
-8.2393e-04,-4.04,-3.88
-8.2009e-04,-4.12,-4.28
-8.1625e-04,-4.2,-4.04
-8.1241e-04,-4.2,-4.6
-8.0857e-04,-4.36,-4.12
-8.0473e-04,-4.52,-4.6
-8.0089e-04,-4.44,-4.36
-7.9705e-04,-4.36,-4.52
-7.9321e-04,-4.04,-3.8
-7.8937e-04,-3.88,-4.44
-7.8553e-04,-3.96,-3.8
-7.8169e-04,-4.36,-4.68
-7.7785e-04,-4.52,-4.36
-7.7401e-04,-4.52,-4.6
-7.7017e-04,-4.44,-4.28
-7.6633e-04,-4.36,-4.52
-7.6249e-04,-4.44,-4.28
-7.5865e-04,-4.36,-4.44
-7.5481e-04,-4.12,-3.88
-7.5097e-04,-3.96,-4.28
-7.4713e-04,-4.04,-3.8
-7.4329e-04,-4.2,-4.28
-7.3945e-04,-4.04,-3.96
-7.3561e-04,-4.04,-4.12
-7.3177e-04,-3.96,-3.8
-7.2793e-04,-3.96,-4.2
-7.2409e-04,-4.04,-3.88
-7.2025e-04,-3.96,-3.96
-7.1641e-04,-3.72,-3.64
-7.1257e-04,-3.88,-4.04
-7.0873e-04,-3.88,-3.72
-7.0488e-04,-3.8,-4.36
-7.0104e-04,-4.12,-3.8
-6.9720e-04,-4.28,-4.28
-6.9336e-04,-4.12,-4.04
-6.8952e-04,-4.2,-4.28
-6.8568e-04,-4.2,-4.04
-6.8184e-04,-4.12,-4.28
-6.7800e-04,-4.12,-3.96
-6.7416e-04,-4.2,-4.36
-6.7032e-04,-4.12,-3.96
-6.6648e-04,-4.04,-4.12
-6.6264e-04,-4.04,-3.88
-6.5880e-04,-3.96,-4.2
-6.5496e-04,-4.12,-3.88
-6.5112e-04,-4.12,-4.6
-6.4728e-04,-4.36,-4.04
-6.4344e-04,-4.52,-4.6
-6.3960e-04,-4.36,-4.12
-6.3576e-04,-4.12,-4.44
-6.3192e-04,-4.28,-4.04
-6.2808e-04,-4.28,-4.36
-6.2424e-04,-4.04,-3.96
-6.2040e-04,-4.12,-4.28
-6.1656e-04,-4.12,-4.04
-6.1272e-04,-4.12,-4.44
-6.0888e-04,-4.2,-4.12
-6.0504e-04,-4.44,-4.52
-6.0120e-04,-4.36,-4.12
-5.9736e-04,-4.2,-4.36
-5.9352e-04,-4.28,-4.12
-5.8968e-04,-4.28,-4.36
-5.8584e-04,-4.2,-4.04
-5.8200e-04,-4.12,-4.52
-5.7816e-04,-4.36,-4.04
-5.7432e-04,-4.44,-4.52
-5.7048e-04,-4.04,-3.8
-5.6664e-04,-3.88,-4.2
-5.6280e-04,-4.04,-3.8
-5.5896e-04,-4.2,-4.28
-5.5512e-04,-4.2,-3.88
-5.5127e-04,-3.88,-4.04
-5.4743e-04,-3.72,-3.64
-5.4359e-04,-3.88,-3.96
-5.3975e-04,-3.72,-3.48
-5.3591e-04,-3.56,-4.2
-5.3207e-04,-3.8,-3.48
-5.2823e-04,-4.12,-4.28
-5.2439e-04,-4.04,-3.8
-5.2055e-04,-3.88,-3.96
-5.1671e-04,-3.8,-3.72
-5.1287e-04,-3.88,-4.2
-5.0903e-04,-4.12,-3.88
-5.0519e-04,-3.96,-4.04
-5.0135e-04,-3.72,-3.56
-4.9751e-04,-3.64,-4.12
-4.9367e-04,-3.8,-3.56
-4.8983e-04,-4.04,-4.12
-4.8599e-04,-3.96,-3.8
-4.8215e-04,-3.96,-4.36
-4.7831e-04,-4.2,-3.88
-4.7447e-04,-4.28,-4.44
-4.7063e-04,-4.36,-4.2
-4.6679e-04,-4.28,-4.52
-4.6295e-04,-4.12,-4.04
-4.5911e-04,-4.44,-4.76
-4.5527e-04,-4.68,-4.28
-4.5143e-04,-4.36,-4.44
-4.4759e-04,-4.28,-4.2
-4.4375e-04,-4.28,-4.28
-4.3991e-04,-4.04,-3.96
-4.3607e-04,-4.12,-4.44
-4.3223e-04,-4.12,-3.96
-4.2839e-04,-4.36,-4.52
-4.2455e-04,-4.44,-4.2
-4.2071e-04,-4.28,-4.36
-4.1687e-04,-4.2,-3.96
-4.1303e-04,-4.04,-4.28
-4.0919e-04,-3.96,-3.88
-4.0535e-04,-4.12,-4.2
-4.0151e-04,-4.04,-3.8
-3.9767e-04,-3.88,-4.2
-3.9382e-04,-3.96,-3.72
-3.8998e-04,-4.12,-4.2
-3.8614e-04,-4.04,-3.96
-3.8230e-04,-4.12,-4.44
-3.7846e-04,-4.28,-4.04
-3.7462e-04,-4.2,-4.2
-3.7078e-04,-3.96,-3.72
-3.6694e-04,-3.8,-3.88
-3.6310e-04,-3.72,-3.56
-3.5926e-04,-3.8,-4.28
-3.5542e-04,-3.96,-3.72
-3.5158e-04,-4.2,-4.28
-3.4774e-04,-4.04,-3.8
-3.4390e-04,-3.88,-4.12
-3.4006e-04,-3.8,-3.72
-3.3622e-04,-4.04,-4.28
-3.3238e-04,-4.12,-3.96
-3.2854e-04,-4.2,-4.28
-3.2470e-04,-4.12,-4.04
-3.2086e-04,-4.2,-4.28
-3.1702e-04,-4.12,-3.96
-3.1318e-04,-4.12,-4.2
-3.0934e-04,-3.96,-3.88
-3.0550e-04,-4.04,-4.44
-3.0166e-04,-4.2,-3.96
-2.9782e-04,-4.28,-4.44
-2.9398e-04,-4.36,-4.04
-2.9014e-04,-4.04,-4.12
-2.8630e-04,-3.8,-3.64
-2.8246e-04,-3.8,-4.36
-2.7862e-04,-4.04,-3.72
-2.7478e-04,-4.28,-4.36
-2.7094e-04,-4.12,-4.04
-2.6710e-04,-4.28,-4.52
-2.6326e-04,-4.36,-4.28
-2.5942e-04,-4.36,-4.68
-2.5558e-04,-4.52,-4.28
-2.5174e-04,-4.6,-4.68
-2.4790e-04,-4.36,-3.96
-2.4406e-04,-3.96,-4.04
-2.4022e-04,-3.88,-3.72
-2.3637e-04,-3.96,-4.28
-2.3253e-04,-4.12,-3.88
-2.2869e-04,-4.2,-4.36
-2.2485e-04,-4.04,-3.96
-2.2101e-04,-4.2,-4.52
-2.1717e-04,-4.44,-4.04
-2.1333e-04,-4.12,-4.12
-2.0949e-04,-3.8,-3.72
-2.0565e-04,-3.8,-3.96
-2.0181e-04,-3.72,-3.56
-1.9797e-04,-3.72,-4.44
-1.9413e-04,-4.12,-3.56
-1.9029e-04,-4.36,-4.44
-1.8645e-04,-4.2,-4.12
-1.8261e-04,-4.36,-4.52
-1.7877e-04,-4.2,-3.88
-1.7493e-04,-3.96,-4.28
-1.7109e-04,-4.2,-3.88
-1.6725e-04,-4.12,-4.2
-1.6341e-04,-4.04,-3.8
-1.5957e-04,-3.88,-4.28
-1.5573e-04,-3.96,-3.8
-1.5189e-04,-4.2,-4.28
-1.4805e-04,-3.96,-3.88
-1.4421e-04,-4.12,-4.36
-1.4037e-04,-4.2,-4.04
-1.3653e-04,-4.28,-4.52
-1.3269e-04,-4.44,-4.2
-1.2885e-04,-4.2,-4.28
-1.2501e-04,-4.12,-3.96
-1.2117e-04,-4.2,-4.52
-1.1733e-04,-4.44,-4.12
-1.1349e-04,-4.2,-4.44
-1.0965e-04,-4.2,-4.04
-1.0581e-04,-4.36,-4.44
-1.0197e-04,-4.28,-4.2
-9.8126e-05,-4.28,-4.68
-9.4286e-05,-4.52,-4.2
-9.0445e-05,-4.52,-4.6
-8.6605e-05,-4.2,-3.72
-8.2765e-05,-3.72,-4.04
-7.8925e-05,-3.56,-3.48
-7.5084e-05,-3.96,-4.28
-7.1244e-05,-4.2,-3.96
-6.7404e-05,-4.12,-4.2
-6.3564e-05,-3.8,-3.72
-5.9724e-05,-3.8,-3.96
-5.5883e-05,-3.8,-3.64
-5.2043e-05,-3.64,-3.8
-4.8203e-05,-3.56,-3.48
-4.4363e-05,-3.72,-4.12
-4.0522e-05,-3.88,-3.64
-3.6682e-05,-4.04,-4.28
-3.2842e-05,-3.96,-3.88
-2.9002e-05,-4.2,-4.36
-2.5161e-05,-4.28,-3.88
-2.1321e-05,-3.96,-4.04
-1.7481e-05,-3.8,-3.72
-1.3641e-05,-3.88,-4.04
-9.8003e-06,-3.88,-3.8
-5.9601e-06,-3.88,-4.36
-2.1198e-06,-4.2,-3.8
1.7204e-06,-4.28,-4.6
5.5607e-06,-4.2,12.12
9.4009e-06,11.8,-8.2
1.3241e-05,-8.04,12.12
1.7081e-05,-8.2,-8.2
2.0922e-05,-8.2,-8.2
2.4762e-05,-8.2,-8.2
2.8602e-05,-8.2,-8.2
3.2442e-05,-8.2,-8.2
3.6283e-05,-8.2,12.12
4.0123e-05,12.12,-1.64
4.3963e-05,12.12,12.12
4.7803e-05,-1.48,-3.48
5.1644e-05,-0.84,4.44
5.5484e-05,4.44,4.44
5.9324e-05,5.56,5.72
6.3164e-05,4.6,3.64
6.7005e-05,3.8,4.68
7.0845e-05,3.88,3.8
7.4685e-05,4.04,4.2
7.8525e-05,4.04,3.88
8.2366e-05,4.04,4.28
8.6206e-05,4.12,3.72
9.0046e-05,4.04,4.28
9.3886e-05,3.88,3.8
9.7727e-05,4.12,4.44
1.0157e-04,4.44,4.28
1.0541e-04,4.52,4.6
1.0925e-04,4.28,4.04
1.1309e-04,4.2,4.44
1.1693e-04,4.36,4.2
1.2077e-04,4.36,4.44
1.2461e-04,4.36,4.12
1.2845e-04,4.2,4.44
1.3229e-04,4.28,4.12
1.3613e-04,4.2,4.36
1.3997e-04,4.28,4.2
1.4381e-04,4.36,4.44
1.4765e-04,4.36,4.28
1.5149e-04,4.52,4.6
1.5533e-04,4.44,4.28
1.5917e-04,4.44,4.6
1.6301e-04,4.44,4.2
1.6685e-04,4.28,4.52
1.7069e-04,4.36,4.28
1.7453e-04,4.36,4.52
1.7837e-04,4.36,3.96
1.8221e-04,4.12,4.44
1.8605e-04,4.04,3.96
1.8989e-04,4.28,4.44
1.9373e-04,4.36,4.12
1.9757e-04,4.36,4.52
2.0141e-04,4.2,3.88
2.0525e-04,3.96,4.2
2.0909e-04,4.04,3.96
2.1293e-04,4.28,4.36
2.1677e-04,4.2,3.96
2.2061e-04,4.04,4.28
2.2445e-04,4.12,3.88
2.2829e-04,4.04,4.2
2.3214e-04,3.96,3.8
2.3598e-04,3.96,4.12
2.3982e-04,3.88,3.72
2.4366e-04,3.96,4.36
2.4750e-04,4.28,3.96
2.5134e-04,4.36,4.52
2.5518e-04,4.04,3.8
2.5902e-04,3.88,4.12
2.6286e-04,4.04,3.8
2.6670e-04,3.96,4.12
2.7054e-04,3.88,3.8
2.7438e-04,4.04,4.2
2.7822e-04,4.04,3.64
2.8206e-04,3.8,4.12
2.8590e-04,3.8,3.72
2.8974e-04,4.28,4.52
2.9358e-04,4.36,3.72
2.9742e-04,4.04,4.36
3.0126e-04,3.88,3.64
3.0510e-04,3.72,3.96
3.0894e-04,3.8,3.72
3.1278e-04,3.96,4.04
3.1662e-04,3.88,3.72
3.2046e-04,3.88,4.04
3.2430e-04,3.96,3.88
3.2814e-04,3.96,4.2
3.3198e-04,4.04,3.96
3.3582e-04,4.12,4.2
3.3966e-04,4.12,3.64
3.4350e-04,3.96,4.2
3.4734e-04,3.72,3.64
3.5118e-04,3.72,3.88
3.5502e-04,3.8,3.72
3.5886e-04,3.96,4.04
3.6270e-04,3.96,3.72
3.6654e-04,3.96,4.12
3.7038e-04,3.8,3.64
3.7422e-04,3.8,3.88
3.7806e-04,3.72,3.32
3.8190e-04,3.64,3.8
3.8575e-04,3.4,3.08
3.8959e-04,3.16,3.48
3.9343e-04,3.48,3.4
3.9727e-04,3.88,3.96
4.0111e-04,3.64,3.4
4.0495e-04,3.56,3.72
4.0879e-04,3.48,3.4
4.1263e-04,3.48,3.64
4.1647e-04,3.48,3.4
4.2031e-04,3.48,3.64
4.2415e-04,3.48,3.24
4.2799e-04,3.48,3.64
4.3183e-04,3.32,3.16
4.3567e-04,3.24,3.4
4.3951e-04,3.32,3.16
4.4335e-04,3.56,3.8
4.4719e-04,3.56,2.92
4.5103e-04,3.32,3.64
4.5487e-04,3,2.76
4.5871e-04,3,3.32
4.6255e-04,3.24,3
4.6639e-04,3.08,3.32
4.7023e-04,3.16,3.08
4.7407e-04,3.32,3.4
4.7791e-04,3.24,3.16
4.8175e-04,3.32,3.56
4.8559e-04,3.48,3.16
4.8943e-04,3.32,3.56
4.9327e-04,3.24,2.76
4.9711e-04,3,3.32
5.0095e-04,2.92,2.76
5.0479e-04,3.16,3.4
5.0863e-04,3.32,3
5.1247e-04,3.16,3.4
5.1631e-04,3.08,3
5.2015e-04,3.24,3.4
5.2399e-04,3.24,2.92
5.2783e-04,3.16,3.32
5.3167e-04,3,2.84
5.3551e-04,3,3.16
5.3935e-04,3,2.84
5.4320e-04,3.32,3.48
5.4704e-04,3.32,2.52
5.5088e-04,2.76,3.4
5.5472e-04,2.6,2.52
5.5856e-04,2.68,2.92
5.6240e-04,2.68,2.52
5.6624e-04,2.68,3.08
5.7008e-04,2.92,2.84
5.7392e-04,3,3.24
5.7776e-04,3.16,2.44
5.8160e-04,3.08,3.32
5.8544e-04,2.52,2.28
5.8928e-04,2.44,2.68
5.9312e-04,2.6,2.52
5.9696e-04,2.68,2.76
6.0080e-04,2.6,2.28
6.0464e-04,2.52,2.68
6.0848e-04,2.44,2.36
6.1232e-04,2.6,2.84
6.1616e-04,2.68,2.2
6.2000e-04,2.44,2.84
6.2384e-04,2.36,2.28
6.2768e-04,2.44,2.68
6.3152e-04,2.6,2.36
6.3536e-04,2.44,2.68
6.3920e-04,2.44,2.12
6.4304e-04,2.2,2.6
6.4688e-04,2.28,2.2
6.5072e-04,2.6,2.92
6.5456e-04,2.84,2.44
6.5840e-04,2.68,2.92
6.6224e-04,2.52,2.2
6.6608e-04,2.28,2.52
6.6992e-04,2.44,1.88
6.7376e-04,2.2,2.52
6.7760e-04,1.96,1.64
6.8144e-04,2.04,2.12
6.8528e-04,1.72,1.56
6.8912e-04,1.96,2.52
6.9296e-04,2.44,2.04
6.9680e-04,2.44,2.6
7.0065e-04,2.04,1.8
7.0449e-04,1.88,2.12
7.0833e-04,2.04,2.04
7.1217e-04,2.2,2.52
7.1601e-04,2.44,1.8
7.1985e-04,2.2,2.52
7.2369e-04,1.88,1.72
7.2753e-04,1.88,2.12
7.3137e-04,2.12,2.04
7.3521e-04,2.28,2.44
7.3905e-04,2.12,1.56
7.4289e-04,1.72,2.2
7.4673e-04,1.72,1.56
7.5057e-04,1.8,1.96
7.5441e-04,1.8,1.64
7.5825e-04,1.72,1.96
7.6209e-04,1.72,1.64
7.6593e-04,1.96,2.04
7.6977e-04,1.96,1.8
7.7361e-04,1.96,2.28
7.7745e-04,2.2,1.96
7.8129e-04,2.44,2.6
7.8513e-04,2.04,1.4
7.8897e-04,1.72,2.12
7.9281e-04,1.56,1.48
7.9665e-04,1.72,1.88
8.0049e-04,1.8,1.64
8.0433e-04,1.8,2.04
8.0817e-04,1.96,1.88
8.1201e-04,2.12,2.2
8.1585e-04,1.96,1.56
8.1969e-04,1.64,2.04
8.2353e-04,1.72,1.56
8.2737e-04,1.72,1.8
8.3121e-04,1.72,1.32
8.3505e-04,1.48,1.8
8.3889e-04,1.48,1.48
8.4273e-04,1.88,2.04
8.4657e-04,1.72,0.92
8.5041e-04,1.4,1.88
8.5425e-04,1,0.76
8.5810e-04,0.84,1.16
8.6194e-04,1.08,1
8.6578e-04,1.24,1.32
8.6962e-04,1.24,1.16
8.7346e-04,1.32,1.48
8.7730e-04,1.32,1.24
8.8114e-04,1.4,1.56
8.8498e-04,1.32,1.24
8.8882e-04,1.4,1.48
8.9266e-04,1.32,1
8.9650e-04,1.16,1.4
9.0034e-04,1.08,1
9.0418e-04,1.24,1.48
9.0802e-04,1.32,1
9.1186e-04,1.08,1.4
9.1570e-04,1.08,1
9.1954e-04,1.48,1.72
9.2338e-04,1.64,1.32
9.2722e-04,1.56,1.8
9.3106e-04,1.48,1.4
9.3490e-04,1.64,1.72
9.3874e-04,1.48,0.92
9.4258e-04,1.08,1.56
9.4642e-04,1.08,1
9.5026e-04,1.4,1.56
9.5410e-04,1.56,1.08
9.5794e-04,1.32,1.64
9.6178e-04,1.24,1.16
9.6562e-04,1.48,1.64
9.6946e-04,1.48,1.16
9.7330e-04,1.32,1.56
9.7714e-04,1.32,1.16
9.8098e-04,1.32,1.48
9.8482e-04,1.24,1.08
9.8866e-04,1.24,1.4
9.9250e-04,1.24,1
9.9634e-04,1.24,1.4
1.0002e-03,1.08,0.68
1.0040e-03,0.76,1.16
1.0079e-03,0.92,0.76
1.0117e-03,0.92,1.08
1.0155e-03,0.84,0.6
1.0194e-03,0.76,1
1.0232e-03,0.92,0.84
1.0271e-03,1,1.16
1.0309e-03,1,0.76
1.0347e-03,1,1.16
1.0386e-03,0.92,0.76
1.0424e-03,0.92,1.08
1.0463e-03,0.84,0.84
1.0501e-03,1.16,1.4
1.0539e-03,1.16,0.76
1.0578e-03,0.92,1.24
1.0616e-03,0.84,0.68
1.0655e-03,1,1.08
1.0693e-03,1,0.76
1.0731e-03,0.92,1.08
1.0770e-03,0.92,0.68
1.0808e-03,0.92,1.08
1.0847e-03,0.84,0.68
1.0885e-03,0.84,0.92
1.0924e-03,0.84,0.6
1.0962e-03,0.68,0.92
1.1000e-03,0.68,0.6
1.1039e-03,0.92,1.08
1.1077e-03,0.92,0.68
1.1116e-03,0.84,1.16
1.1154e-03,1.16,0.6
1.1192e-03,1.16,1.32
1.1231e-03,0.68,0.6
1.1269e-03,0.76,1
1.1308e-03,1,0.44
1.1346e-03,0.76,1.08
1.1384e-03,0.52,0.44
1.1423e-03,0.68,1
1.1461e-03,0.92,0.68
1.1500e-03,0.84,1
1.1538e-03,0.84,0.68
1.1576e-03,0.84,1
1.1615e-03,0.76,0.36
1.1653e-03,0.6,0.84
1.1692e-03,0.44,0.2
1.1730e-03,0.36,0.52
1.1768e-03,0.28,0.2
1.1807e-03,0.36,0.76
1.1845e-03,0.68,0.36
1.1884e-03,0.68,0.84
1.1922e-03,0.44,0.2
1.1960e-03,0.36,0.52
1.1999e-03,0.28,0.2
1.2037e-03,0.36,0.68
1.2076e-03,0.6,0.36
1.2114e-03,0.52,0.68
1.2152e-03,0.52,0.36
1.2191e-03,0.6,0.76
1.2229e-03,0.36,-0.04
1.2268e-03,0.2,0.44
1.2306e-03,0.04,-0.36
1.2344e-03,-0.12,0.12
1.2383e-03,-0.12,-0.12
1.2421e-03,0.28,0.68
1.2460e-03,0.68,0.6
1.2498e-03,0.84,0.92
1.2536e-03,0.76,0.44
1.2575e-03,0.68,0.84
1.2613e-03,0.44,0.04
1.2652e-03,0.2,0.52
1.2690e-03,0.12,0.04
1.2728e-03,0.44,0.52
1.2767e-03,0.28,0.12
1.2805e-03,0.2,0.36
1.2844e-03,0.2,0.12
1.2882e-03,0.6,0.84
1.2920e-03,0.68,0.36
1.2959e-03,0.52,0.76
1.2997e-03,0.44,0.12
1.3036e-03,0.28,0.52
1.3074e-03,0.28,0.2
1.3112e-03,0.44,0.6
1.3151e-03,0.52,0.12
1.3189e-03,0.44,0.6
1.3228e-03,0.2,0.2
1.3266e-03,0.44,0.6
1.3304e-03,0.52,0.2
1.3343e-03,0.44,0.68
1.3381e-03,0.28,0.2
1.3420e-03,0.28,0.44
1.3458e-03,0.36,0.12
1.3496e-03,0.28,0.44
1.3535e-03,0.2,0.04
1.3573e-03,0.2,0.28
1.3612e-03,0.12,-0.36
1.3650e-03,-0.12,0.2
1.3688e-03,-0.28,-0.44
1.3727e-03,-0.2,0.2
1.3765e-03,0.12,0.04
1.3804e-03,0.2,0.28
1.3842e-03,0.12,0.12
1.3880e-03,0.28,0.36
1.3919e-03,0.2,0.12
1.3957e-03,0.2,0.28
1.3996e-03,0.2,-0.12
1.4034e-03,0.04,0.28
1.4073e-03,-0.04,-0.12
1.4111e-03,0.12,0.2
1.4149e-03,0.04,-0.04
1.4188e-03,0.12,0.36
1.4226e-03,0.28,0.2
1.4265e-03,0.36,0.52
1.4303e-03,0.52,0.36
1.4341e-03,0.76,0.84
1.4380e-03,0.44,0.28
1.4418e-03,0.36,0.52
1.4457e-03,0.44,-0.04
1.4495e-03,0.36,0.52
1.4533e-03,0.04,-0.04
1.4572e-03,0.04,0.12
1.4610e-03,0.04,-0.04
1.4649e-03,0.12,0.28
1.4687e-03,0.12,-0.2
1.4725e-03,-0.04,0.12
1.4764e-03,-0.12,-0.2
1.4802e-03,0.12,0.28
1.4841e-03,0.12,-0.44
1.4879e-03,0.04,0.28
1.4917e-03,-0.36,-0.6
1.4956e-03,-0.52,-0.2
1.4994e-03,-0.28,-0.28
1.5033e-03,-0.12,0.04
1.5071e-03,-0.2,-0.28
1.5109e-03,-0.2,0.04
1.5148e-03,0.04,-0.12
